%YAML 1.1
%TAG !u! tag:unity3d.com,2011:
--- !u!74 &7400000
AnimationClip:
  m_ObjectHideFlags: 0
  m_CorrespondingSourceObject: {fileID: 0}
  m_PrefabInstance: {fileID: 0}
  m_PrefabAsset: {fileID: 0}
  m_Name: Scene
  serializedVersion: 6
  m_Legacy: 0
  m_Compressed: 0
  m_UseHighQualityCurve: 1
  m_RotationCurves:
  - curve:
      serializedVersion: 2
      m_Curve:
      - serializedVersion: 3
        time: 0
        value: {x: 0.00000008146009, y: 2.0622731e-10, z: 0.0025316281, w: 0.9999968}
        inSlope: {x: -8.731149e-11, y: 0.000000014165397, z: 0.17389315, w: -0.0010700226}
        outSlope: {x: -8.731149e-11, y: 0.000000014165397, z: 0.17389315, w: -0.0010700226}
        tangentMode: 0
        weightedMode: 0
        inWeight: {x: 0.33333334, y: 0.33333334, z: 0.33333334, w: 0.33333334}
        outWeight: {x: 0.33333334, y: 0.33333334, z: 0.33333334, w: 0.33333334}
      - serializedVersion: 3
        time: 0.4166667
        value: {x: 0.00000007982525, y: 0.00000001623933, z: 0.19935259, w: 0.97992784}
        inSlope: {x: -0.00000001005711, y: 0.000000049501725, z: 0.6076789, w: -0.12345818}
        outSlope: {x: -0.00000001005711, y: 0.000000049501725, z: 0.6076789, w: -0.12345818}
        tangentMode: 0
        weightedMode: 0
        inWeight: {x: 0.33333334, y: 0.33333334, z: 0.33333334, w: 0.33333334}
        outWeight: {x: 0.33333334, y: 0.33333334, z: 0.33333334, w: 0.33333334}
      - serializedVersion: 3
        time: 0.75
        value: {x: 0.00000007661452, y: 0.00000002767674, z: 0.33975723, w: 0.9405132}
        inSlope: {x: -0.00000036185781, y: -0.0000009630037, z: 0.11044151, w: -0.039602976}
        outSlope: {x: -0.00000036185781, y: -0.0000009630037, z: 0.11044151, w: -0.039602976}
        tangentMode: 0
        weightedMode: 0
        inWeight: {x: 0.33333334, y: 0.33333334, z: 0.33333334, w: 0.33333334}
        outWeight: {x: 0.33333334, y: 0.33333334, z: 0.33333334, w: 0.33333334}
      - serializedVersion: 3
        time: 0.7916667
        value: {x: 0.00000004665821, y: -0.00000005312945, z: 0.3421372, w: 0.93965}
        inSlope: {x: -0.3707449, y: -1.0182184, z: 0.011785954, w: -0.056425136}
        outSlope: {x: -0.3707449, y: -1.0182184, z: 0.011785954, w: -0.056425136}
        tangentMode: 0
        weightedMode: 0
        inWeight: {x: 0.33333334, y: 0.33333334, z: 0.33333334, w: 0.33333334}
        outWeight: {x: 0.33333334, y: 0.33333334, z: 0.33333334, w: 0.33333334}
      - serializedVersion: 3
        time: 0.8333333
        value: {x: -0.030895304, y: -0.08485143, z: 0.3407394, w: 0.9358111}
        inSlope: {x: -1.0489541, y: -2.8808618, z: -0.13625975, w: -0.3742267}
        outSlope: {x: -1.0489541, y: -2.8808618, z: -0.13625975, w: -0.3742267}
        tangentMode: 0
        weightedMode: 0
        inWeight: {x: 0.33333334, y: 0.33333334, z: 0.33333334, w: 0.33333334}
        outWeight: {x: 0.33333334, y: 0.33333334, z: 0.33333334, w: 0.33333334}
      - serializedVersion: 3
        time: 0.875
        value: {x: -0.0874128, y: -0.24007185, z: 0.3307822, w: 0.90846443}
        inSlope: {x: -1.0323632, y: -2.8352954, z: -0.23042381, w: -0.63284224}
        outSlope: {x: -1.0323632, y: -2.8352954, z: -0.23042381, w: -0.63284224}
        tangentMode: 0
        weightedMode: 0
        inWeight: {x: 0.33333334, y: 0.33333334, z: 0.33333334, w: 0.33333334}
        outWeight: {x: 0.33333334, y: 0.33333334, z: 0.33333334, w: 0.33333334}
      - serializedVersion: 3
        time: 0.9166667
        value: {x: -0.116925605, y: -0.32112616, z: 0.3215374, w: 0.8830742}
        inSlope: {x: 0.6353925, y: 1.7450507, z: 0.11537852, w: 0.3168762}
        outSlope: {x: 0.6353925, y: 1.7450507, z: 0.11537852, w: 0.3168762}
        tangentMode: 0
        weightedMode: 0
        inWeight: {x: 0.33333334, y: 0.33333334, z: 0.33333334, w: 0.33333334}
        outWeight: {x: 0.33333334, y: 0.33333334, z: 0.33333334, w: 0.33333334}
      - serializedVersion: 3
        time: 0.9583333
        value: {x: -0.034463514, y: -0.09465123, z: 0.34039706, w: 0.9348707}
        inSlope: {x: 2.0043688, y: 5.5048246, z: 0.20293297, w: 0.55733943}
        outSlope: {x: 2.0043688, y: 5.5048246, z: 0.20293297, w: 0.55733943}
        tangentMode: 0
        weightedMode: 0
        inWeight: {x: 0.33333334, y: 0.33333334, z: 0.33333334, w: 0.33333334}
        outWeight: {x: 0.33333334, y: 0.33333334, z: 0.33333334, w: 0.33333334}
      - serializedVersion: 3
        time: 1.0000001
        value: {x: 0.05010521, y: 0.13760944, z: 0.33844846, w: 0.9295191}
        inSlope: {x: -0.000004053116, y: -0.000010967255, z: -0.0000006482005, w: 0.00000017881393}
        outSlope: {x: -0.000004053116, y: -0.000010967255, z: -0.0000006482005, w: 0.00000017881393}
        tangentMode: 0
        weightedMode: 0
        inWeight: {x: 0.33333334, y: 0.33333334, z: 0.33333334, w: 0.33333334}
        outWeight: {x: 0.33333334, y: 0.33333334, z: 0.33333334, w: 0.33333334}
      - serializedVersion: 3
        time: 1.0416667
        value: {x: -0.03446361, y: -0.09465147, z: 0.340397, w: 0.9348707}
        inSlope: {x: -2.0043721, y: -5.504835, z: -0.20293361, w: -0.55733997}
        outSlope: {x: -2.0043721, y: -5.504835, z: -0.20293361, w: -0.55733997}
        tangentMode: 0
        weightedMode: 0
        inWeight: {x: 0.33333334, y: 0.33333334, z: 0.33333334, w: 0.33333334}
        outWeight: {x: 0.33333334, y: 0.33333334, z: 0.33333334, w: 0.33333334}
      - serializedVersion: 3
        time: 1.0833334
        value: {x: -0.11692566, y: -0.32112634, z: 0.32153735, w: 0.88307416}
        inSlope: {x: 0.00000017881393, y: 0, z: 0.0000011473894, w: -0.0000010728836}
        outSlope: {x: 0.00000017881393, y: 0, z: 0.0000011473894, w: -0.0000010728836}
        tangentMode: 0
        weightedMode: 0
        inWeight: {x: 0.33333334, y: 0.33333334, z: 0.33333334, w: 0.33333334}
        outWeight: {x: 0.33333334, y: 0.33333334, z: 0.33333334, w: 0.33333334}
      - serializedVersion: 3
        time: 1.1250001
        value: {x: -0.034463357, y: -0.0946508, z: 0.34039715, w: 0.9348708}
        inSlope: {x: 2.0043702, y: 5.5048294, z: 0.20293263, w: 0.55733746}
        outSlope: {x: 2.0043702, y: 5.5048294, z: 0.20293263, w: 0.55733746}
        tangentMode: 0
        weightedMode: 0
        inWeight: {x: 0.33333334, y: 0.33333334, z: 0.33333334, w: 0.33333334}
        outWeight: {x: 0.33333334, y: 0.33333334, z: 0.33333334, w: 0.33333334}
      - serializedVersion: 3
        time: 1.1666667
        value: {x: 0.050105285, y: 0.13760965, z: 0.33844844, w: 0.92951906}
        inSlope: {x: -0.0000019073486, y: -0.0000052452087, z: -0.0000017881393, w: 0}
        outSlope: {x: -0.0000019073486, y: -0.0000052452087, z: -0.0000017881393,
          w: 0}
        tangentMode: 0
        weightedMode: 0
        inWeight: {x: 0.33333334, y: 0.33333334, z: 0.33333334, w: 0.33333334}
        outWeight: {x: 0.33333334, y: 0.33333334, z: 0.33333334, w: 0.33333334}
      - serializedVersion: 3
        time: 1.2083334
        value: {x: -0.034463517, y: -0.094651245, z: 0.340397, w: 0.9348708}
        inSlope: {x: -2.004369, y: -5.504824, z: -0.2029312, w: -0.55733603}
        outSlope: {x: -2.004369, y: -5.504824, z: -0.2029312, w: -0.55733603}
        tangentMode: 0
        weightedMode: 0
        inWeight: {x: 0.33333334, y: 0.33333334, z: 0.33333334, w: 0.33333334}
        outWeight: {x: 0.33333334, y: 0.33333334, z: 0.33333334, w: 0.33333334}
      - serializedVersion: 3
        time: 1.2500001
        value: {x: -0.116925545, y: -0.32112592, z: 0.32153746, w: 0.8830743}
        inSlope: {x: 0.000004887581, y: 0.000013828278, z: 0.0000013560057, w: 0.0000017881393}
        outSlope: {x: 0.000004887581, y: 0.000013828278, z: 0.0000013560057, w: 0.0000017881393}
        tangentMode: 0
        weightedMode: 0
        inWeight: {x: 0.33333334, y: 0.33333334, z: 0.33333334, w: 0.33333334}
        outWeight: {x: 0.33333334, y: 0.33333334, z: 0.33333334, w: 0.33333334}
      - serializedVersion: 3
        time: 1.2916667
        value: {x: -0.034463346, y: -0.09465075, z: 0.34039706, w: 0.9348708}
        inSlope: {x: 2.0043728, y: 5.504835, z: 0.2029311, w: 0.5573378}
        outSlope: {x: 2.0043728, y: 5.504835, z: 0.2029311, w: 0.5573378}
        tangentMode: 0
        weightedMode: 0
        inWeight: {x: 0.33333334, y: 0.33333334, z: 0.33333334, w: 0.33333334}
        outWeight: {x: 0.33333334, y: 0.33333334, z: 0.33333334, w: 0.33333334}
      - serializedVersion: 3
        time: 1.3333334
        value: {x: 0.050105367, y: 0.13760987, z: 0.33844838, w: 0.92951906}
        inSlope: {x: -0.0000015497208, y: -0.0000030994415, z: -0.0000004246831, w: -0.0000016093254}
        outSlope: {x: -0.0000015497208, y: -0.0000030994415, z: -0.0000004246831,
          w: -0.0000016093254}
        tangentMode: 0
        weightedMode: 0
        inWeight: {x: 0.33333334, y: 0.33333334, z: 0.33333334, w: 0.33333334}
        outWeight: {x: 0.33333334, y: 0.33333334, z: 0.33333334, w: 0.33333334}
      - serializedVersion: 3
        time: 1.3750001
        value: {x: -0.034463707, y: -0.09465168, z: 0.34039703, w: 0.93487066}
        inSlope: {x: -2.0043707, y: -5.5048294, z: -0.2029319, w: -0.5573387}
        outSlope: {x: -2.0043707, y: -5.5048294, z: -0.2029319, w: -0.5573387}
        tangentMode: 0
        weightedMode: 0
        inWeight: {x: 0.33333334, y: 0.33333334, z: 0.33333334, w: 0.33333334}
        outWeight: {x: 0.33333334, y: 0.33333334, z: 0.33333334, w: 0.33333334}
      - serializedVersion: 3
        time: 1.4166667
        value: {x: -0.116925605, y: -0.32112616, z: 0.3215374, w: 0.8830742}
        inSlope: {x: 0.0000023245811, y: 0.0000054836273, z: 0.00000035762787, w: 0.00000071525574}
        outSlope: {x: 0.0000023245811, y: 0.0000054836273, z: 0.00000035762787, w: 0.00000071525574}
        tangentMode: 0
        weightedMode: 0
        inWeight: {x: 0.33333334, y: 0.33333334, z: 0.33333334, w: 0.33333334}
        outWeight: {x: 0.33333334, y: 0.33333334, z: 0.33333334, w: 0.33333334}
      - serializedVersion: 3
        time: 1.4583334
        value: {x: -0.034463514, y: -0.09465123, z: 0.34039706, w: 0.9348707}
        inSlope: {x: 2.0043707, y: 5.5048294, z: 0.2029319, w: 0.5573387}
        outSlope: {x: 2.0043707, y: 5.5048294, z: 0.2029319, w: 0.5573387}
        tangentMode: 0
        weightedMode: 0
        inWeight: {x: 0.33333334, y: 0.33333334, z: 0.33333334, w: 0.33333334}
        outWeight: {x: 0.33333334, y: 0.33333334, z: 0.33333334, w: 0.33333334}
      - serializedVersion: 3
        time: 1.5000001
        value: {x: 0.050105367, y: 0.13760987, z: 0.33844838, w: 0.92951906}
        inSlope: {x: 1.0147429, y: 2.787098, z: -0.02337201, w: -0.06421554}
        outSlope: {x: 1.0147429, y: 2.787098, z: -0.02337201, w: -0.06421554}
        tangentMode: 0
        weightedMode: 0
        inWeight: {x: 0.33333334, y: 0.33333334, z: 0.33333334, w: 0.33333334}
        outWeight: {x: 0.33333334, y: 0.33333334, z: 0.33333334, w: 0.33333334}
      - serializedVersion: 3
        time: 1.5416667
        value: {x: 0.050098553, y: 0.1376074, z: 0.3384494, w: 0.9295194}
        inSlope: {x: -0.00016365961, y: -0.0000595451, z: 0.000024318719, w: 0.000008583077}
        outSlope: {x: -0.00016365961, y: -0.0000595451, z: 0.000024318719, w: 0.000008583077}
        tangentMode: 0
        weightedMode: 0
        inWeight: {x: 0.33333334, y: 0.33333334, z: 0.33333334, w: 0.33333334}
        outWeight: {x: 0.33333334, y: 0.33333334, z: 0.33333334, w: 0.33333334}
      - serializedVersion: 3
        time: 2.4166667
        value: {x: 0.049955357, y: 0.13755526, z: 0.3384706, w: 0.92952716}
        inSlope: {x: 0.0029009995, y: 0.0010067264, z: -0.027691232, w: 0.009739675}
        outSlope: {x: 0.0029009995, y: 0.0010067264, z: -0.027691232, w: 0.009739675}
        tangentMode: 0
        weightedMode: 0
        inWeight: {x: 0.33333334, y: 0.33333334, z: 0.33333334, w: 0.33333334}
        outWeight: {x: 0.33333334, y: 0.33333334, z: 0.33333334, w: 0.33333334}
      - serializedVersion: 3
        time: 2.875
        value: {x: 0.071444444, y: 0.13107306, z: 0.1624914, w: 0.9753523}
        inSlope: {x: 0.074963845, y: -0.05272712, z: -0.51076293, w: 0.08698709}
        outSlope: {x: 0.074963845, y: -0.05272712, z: -0.51076293, w: 0.08698709}
        tangentMode: 0
        weightedMode: 0
        inWeight: {x: 0.33333334, y: 0.33333334, z: 0.33333334, w: 0.33333334}
        outWeight: {x: 0.33333334, y: 0.33333334, z: 0.33333334, w: 0.33333334}
      - serializedVersion: 3
        time: 3.25
        value: {x: 0.08484775, y: 0.11951301, z: 0.07864744, w: 0.986069}
        inSlope: {x: -0.019683622, y: 0.01660463, z: 0.16064373, w: -0.013369535}
        outSlope: {x: -0.019683622, y: 0.01660463, z: 0.16064373, w: -0.013369535}
        tangentMode: 0
        weightedMode: 0
        inWeight: {x: 0.33333334, y: 0.33333334, z: 0.33333334, w: 0.33333334}
        outWeight: {x: 0.33333334, y: 0.33333334, z: 0.33333334, w: 0.33333334}
      - serializedVersion: 3
        time: 3.6666667
        value: {x: 0.0703853, y: 0.12861644, z: 0.1931395, w: 0.97015506}
        inSlope: {x: -0.019936599, y: 0.007467989, z: 0.15884191, w: -0.030923378}
        outSlope: {x: -0.019936599, y: 0.007467989, z: 0.15884191, w: -0.030923378}
        tangentMode: 0
        weightedMode: 0
        inWeight: {x: 0.33333334, y: 0.33333334, z: 0.33333334, w: 0.33333334}
        outWeight: {x: 0.33333334, y: 0.33333334, z: 0.33333334, w: 0.33333334}
      - serializedVersion: 3
        time: 3.7083333
        value: {x: 0.06972669, y: 0.12887914, z: 0.1983522, w: 0.9691155}
        inSlope: {x: -0.0104787005, y: 0.0033967611, z: 0.08497454, w: -0.016934434}
        outSlope: {x: -0.0104787005, y: 0.0033967611, z: 0.08497454, w: -0.016934434}
        tangentMode: 0
        weightedMode: 0
        inWeight: {x: 0.33333334, y: 0.33333334, z: 0.33333334, w: 0.33333334}
        outWeight: {x: 0.33333334, y: 0.33333334, z: 0.33333334, w: 0.33333334}
      - serializedVersion: 3
        time: 3.7916667
        value: {x: 0.061910223, y: 0.09226647, z: 0.20270015, w: 0.9729166}
        inSlope: {x: -0.3553085, y: -1.693085, z: 0.0951968, w: 0.10154353}
        outSlope: {x: -0.3553085, y: -1.693085, z: 0.0951968, w: 0.10154353}
        tangentMode: 0
        weightedMode: 0
        inWeight: {x: 0.33333334, y: 0.33333334, z: 0.33333334, w: 0.33333334}
        outWeight: {x: 0.33333334, y: 0.33333334, z: 0.33333334, w: 0.33333334}
      - serializedVersion: 3
        time: 3.8333333
        value: {x: 0.039903104, y: -0.012190579, z: 0.20815374, w: 0.9772058}
        inSlope: {x: -0.6861689, y: -3.2016673, z: 0.110293135, w: -0.13616483}
        outSlope: {x: -0.6861689, y: -3.2016673, z: 0.110293135, w: -0.13616483}
        tangentMode: 0
        weightedMode: 0
        inWeight: {x: 0.33333334, y: 0.33333334, z: 0.33333334, w: 0.33333334}
        outWeight: {x: 0.33333334, y: 0.33333334, z: 0.33333334, w: 0.33333334}
      - serializedVersion: 3
        time: 3.9166667
        value: {x: -0.041190043, y: -0.3782873, z: 0.20790324, w: 0.90109843}
        inSlope: {x: -1.1746075, y: -5.0674553, z: -0.25819945, w: -2.252375}
        outSlope: {x: -1.1746075, y: -5.0674553, z: -0.25819945, w: -2.252375}
        tangentMode: 0
        weightedMode: 0
        inWeight: {x: 0.33333334, y: 0.33333334, z: 0.33333334, w: 0.33333334}
        outWeight: {x: 0.33333334, y: 0.33333334, z: 0.33333334, w: 0.33333334}
      - serializedVersion: 3
        time: 3.9583333
        value: {x: -0.09315435, y: -0.59682655, z: 0.19037467, w: 0.77387196}
        inSlope: {x: -1.2335632, y: -4.9913664, z: -0.62852556, w: -3.979804}
        outSlope: {x: -1.2335632, y: -4.9913664, z: -0.62852556, w: -3.979804}
        tangentMode: 0
        weightedMode: 0
        inWeight: {x: 0.33333334, y: 0.33333334, z: 0.33333334, w: 0.33333334}
        outWeight: {x: 0.33333334, y: 0.33333334, z: 0.33333334, w: 0.33333334}
      - serializedVersion: 3
        time: 4.0000005
        value: {x: -0.14398716, y: -0.79423517, z: 0.15552591, w: 0.56944704}
        inSlope: {x: -1.10308, y: -4.016747, z: -1.0451514, w: -5.741227}
        outSlope: {x: -1.10308, y: -4.016747, z: -1.0451514, w: -5.741227}
        tangentMode: 0
        weightedMode: 0
        inWeight: {x: 0.33333334, y: 0.33333334, z: 0.33333334, w: 0.33333334}
        outWeight: {x: 0.33333334, y: 0.33333334, z: 0.33333334, w: 0.33333334}
      - serializedVersion: 3
        time: 4.041667
        value: {x: -0.18507792, y: -0.93155646, z: 0.10327866, w: 0.29543585}
        inSlope: {x: -0.77430105, y: -2.1938157, z: -1.4104767, w: -7.08749}
        outSlope: {x: -0.77430105, y: -2.1938157, z: -1.4104767, w: -7.08749}
        tangentMode: 0
        weightedMode: 0
        inWeight: {x: 0.33333334, y: 0.33333334, z: 0.33333334, w: 0.33333334}
        outWeight: {x: 0.33333334, y: 0.33333334, z: 0.33333334, w: 0.33333334}
      - serializedVersion: 3
        time: 4.0833335
        value: {x: -0.20851201, y: -0.97705245, z: 0.037986636, w: -0.021174844}
        inSlope: {x: -0.29261675, y: 0.18282962, z: -1.6274588, w: -7.6223373}
        outSlope: {x: -0.29261675, y: 0.18282962, z: -1.6274588, w: -7.6223373}
        tangentMode: 0
        weightedMode: 0
        inWeight: {x: 0.33333334, y: 0.33333334, z: 0.33333334, w: 0.33333334}
        outWeight: {x: 0.33333334, y: 0.33333334, z: 0.33333334, w: 0.33333334}
      - serializedVersion: 3
        time: 4.1250005
        value: {x: -0.20946257, y: -0.91632, z: -0.03234319, w: -0.33976012}
        inSlope: {x: 0.24854654, y: 2.6342027, z: -1.6347511, w: -7.1550407}
        outSlope: {x: 0.24854654, y: 2.6342027, z: -1.6347511, w: -7.1550407}
        tangentMode: 0
        weightedMode: 0
        inWeight: {x: 0.33333334, y: 0.33333334, z: 0.33333334, w: 0.33333334}
        outWeight: {x: 0.33333334, y: 0.33333334, z: 0.33333334, w: 0.33333334}
      - serializedVersion: 3
        time: 4.166667
        value: {x: -0.18779989, y: -0.7575357, z: -0.0982429, w: -0.6174296}
        inSlope: {x: 0.73594445, y: 4.6474004, z: -1.4308476, w: -5.783355}
        outSlope: {x: 0.73594445, y: 4.6474004, z: -1.4308476, w: -5.783355}
        tangentMode: 0
        weightedMode: 0
        inWeight: {x: 0.33333334, y: 0.33333334, z: 0.33333334, w: 0.33333334}
        outWeight: {x: 0.33333334, y: 0.33333334, z: 0.33333334, w: 0.33333334}
      - serializedVersion: 3
        time: 4.2083335
        value: {x: -0.1481341, y: -0.52903813, z: -0.15158004, w: -0.82170457}
        inSlope: {x: 1.0744519, y: 5.847205, z: -1.0745589, w: -3.8608503}
        outSlope: {x: 1.0744519, y: 5.847205, z: -1.0745589, w: -3.8608503}
        tangentMode: 0
        weightedMode: 0
        inWeight: {x: 0.33333334, y: 0.33333334, z: 0.33333334, w: 0.33333334}
        outWeight: {x: 0.33333334, y: 0.33333334, z: 0.33333334, w: 0.33333334}
      - serializedVersion: 3
        time: 4.2500005
        value: {x: -0.098262, y: -0.2702675, z: -0.18778954, w: -0.93916726}
        inSlope: {x: 1.2161317, y: 6.1054573, z: -0.66161484, w: -1.8644001}
        outSlope: {x: 1.2161317, y: 6.1054573, z: -0.66161484, w: -1.8644001}
        tangentMode: 0
        weightedMode: 0
        inWeight: {x: 0.33333334, y: 0.33333334, z: 0.33333334, w: 0.33333334}
        outWeight: {x: 0.33333334, y: 0.33333334, z: 0.33333334, w: 0.33333334}
      - serializedVersion: 3
        time: 4.291667
        value: {x: -0.046789598, y: -0.020249005, z: -0.20671481, w: -0.977072}
        inSlope: {x: 1.1672078, y: 5.540699, z: -0.28982612, w: -0.2301301}
        outSlope: {x: 1.1672078, y: 5.540699, z: -0.28982612, w: -0.2301301}
        tangentMode: 0
        weightedMode: 0
        inWeight: {x: 0.33333334, y: 0.33333334, z: 0.33333334, w: 0.33333334}
        outWeight: {x: 0.33333334, y: 0.33333334, z: 0.33333334, w: 0.33333334}
      - serializedVersion: 3
        time: 4.3750005
        value: {x: 0.03426631, y: 0.34816998, z: -0.2091557, w: -0.91315794}
        inSlope: {x: 0.6888949, y: 3.027208, z: 0.09172043, w: 1.0512486}
        outSlope: {x: 0.6888949, y: 3.027208, z: 0.09172043, w: 1.0512486}
        tangentMode: 0
        weightedMode: 0
        inWeight: {x: 0.33333334, y: 0.33333334, z: 0.33333334, w: 0.33333334}
        outWeight: {x: 0.33333334, y: 0.33333334, z: 0.33333334, w: 0.33333334}
      - serializedVersion: 3
        time: 4.416667
        value: {x: 0.056413047, y: 0.44372386, z: -0.20429826, w: -0.8707405}
        inSlope: {x: 0.35775295, y: 1.536994, z: 0.0855678, w: 0.7172955}
        outSlope: {x: 0.35775295, y: 1.536994, z: 0.0855678, w: 0.7172955}
        tangentMode: 0
        weightedMode: 0
        inWeight: {x: 0.33333334, y: 0.33333334, z: 0.33333334, w: 0.33333334}
        outWeight: {x: 0.33333334, y: 0.33333334, z: 0.33333334, w: 0.33333334}
      - serializedVersion: 3
        time: 4.5000005
        value: {x: 0.06407894, y: 0.47625232, z: -0.20202507, w: -0.85338354}
        inSlope: {x: 0, y: 0, z: 0, w: 0}
        outSlope: {x: 0, y: 0, z: 0, w: 0}
        tangentMode: 0
        weightedMode: 0
        inWeight: {x: 0.33333334, y: 0.33333334, z: 0.33333334, w: 0.33333334}
        outWeight: {x: 0.33333334, y: 0.33333334, z: 0.33333334, w: 0.33333334}
      - serializedVersion: 3
        time: 5.166667
        value: {x: 0.06407894, y: 0.47625232, z: -0.20202507, w: -0.85338354}
        inSlope: {x: 0, y: 0, z: 0, w: 0}
        outSlope: {x: 0, y: 0, z: 0, w: 0}
        tangentMode: 0
        weightedMode: 0
        inWeight: {x: 0.33333334, y: 0.33333334, z: 0.33333334, w: 0.33333334}
        outWeight: {x: 0.33333334, y: 0.33333334, z: 0.33333334, w: 0.33333334}
      m_PreInfinity: 2
      m_PostInfinity: 2
      m_RotationOrder: 4
    path: Paint+Brush+2
  m_CompressedRotationCurves: []
  m_EulerCurves: []
  m_PositionCurves:
  - curve:
      serializedVersion: 2
      m_Curve:
      - serializedVersion: 3
        time: 0
        value: {x: -3.194998, y: 2.3024495, z: -0.075325415}
        inSlope: {x: 0.87696075, y: 0.08869171, z: -6.938894e-16}
        outSlope: {x: 0.87696075, y: 0.08869171, z: -6.938894e-16}
        tangentMode: 0
        weightedMode: 0
        inWeight: {x: 0.33333334, y: 0.33333334, z: 0.33333334}
        outWeight: {x: 0.33333334, y: 0.33333334, z: 0.33333334}
      - serializedVersion: 3
        time: 0.33333334
        value: {x: -2.4589152, y: 2.37689, z: -0.075325415}
        inSlope: {x: 3.0957763, y: 0.31308183, z: -2.9738125e-16}
        outSlope: {x: 3.1591651, y: 0.3194848, z: -6.9388955e-16}
        tangentMode: 0
        weightedMode: 0
        inWeight: {x: 0.33333334, y: 0.33333334, z: 0.33333334}
        outWeight: {x: 0.33333334, y: 0.33333334, z: 0.33333334}
      - serializedVersion: 3
        time: 0.625
        value: {x: -1.6299415, y: 2.4607244, z: -0.075325415}
        inSlope: {x: 2.2082481, y: 0.2233199, z: -2.9738104e-16}
        outSlope: {x: 1.8278807, y: 0.1848566, z: -6.938901e-16}
        tangentMode: 0
        weightedMode: 0
        inWeight: {x: 0.33333334, y: 0.33333334, z: 0.33333334}
        outWeight: {x: 0.33333334, y: 0.33333334, z: 0.33333334}
      - serializedVersion: 3
        time: 0.75
        value: {x: -1.4595685, y: 2.4767523, z: -0.075325415}
        inSlope: {x: 0.87696034, y: 0.059835404, z: -2.9738104e-16}
        outSlope: {x: 0.30641013, y: 0.05983549, z: -6.938901e-16}
        tangentMode: 0
        weightedMode: 0
        inWeight: {x: 0.33333334, y: 0.33333334, z: 0.33333334}
        outWeight: {x: 0.33333334, y: 0.33333334, z: 0.33333334}
      - serializedVersion: 3
        time: 1.0833334
        value: {x: -1.446358, y: 2.4792454, z: -0.075325415}
        inSlope: {x: 0.0015220656, y: -0, z: -2.9738146e-16}
        outSlope: {x: 0.0015192003, y: -0, z: -6.9388807e-16}
        tangentMode: 0
        weightedMode: 0
        inWeight: {x: 0.33333334, y: 0.33333334, z: 0.33333334}
        outWeight: {x: 0.33333334, y: 0.33333334, z: 0.33333334}
      - serializedVersion: 3
        time: 2.4166665
        value: {x: -1.444331, y: 2.4792454, z: -0.075325415}
        inSlope: {x: 0.001519209, y: -0, z: -2.9738234e-16}
        outSlope: {x: 0.0015192003, y: 0.41393203, z: -6.9388807e-16}
        tangentMode: 0
        weightedMode: 0
        inWeight: {x: 0.33333334, y: 0.33333334, z: 0.33333334}
        outWeight: {x: 0.33333334, y: 0.33333334, z: 0.33333334}
      - serializedVersion: 3
        time: 2.5416665
        value: {x: -1.444141, y: 2.6225295, z: -0.075325415}
        inSlope: {x: 0.001519209, y: 1.8467802, z: -2.9738234e-16}
        outSlope: {x: 0.0015192003, y: 2.4198945, z: -6.9388807e-16}
        tangentMode: 0
        weightedMode: 0
        inWeight: {x: 0.33333334, y: 0.33333334, z: 0.33333334}
        outWeight: {x: 0.33333334, y: 0.33333334, z: 0.33333334}
      - serializedVersion: 3
        time: 3.0833333
        value: {x: -1.437055, y: 4.3472433, z: -0.075325415}
        inSlope: {x: 0.03860371, y: 1.8467753, z: -2.9738062e-16}
        outSlope: {x: 0.04956999, y: 1.1781098, z: -6.9388807e-16}
        tangentMode: 0
        weightedMode: 0
        inWeight: {x: 0.33333334, y: 0.33333334, z: 0.33333334}
        outWeight: {x: 0.33333334, y: 0.33333334, z: 0.33333334}
      - serializedVersion: 3
        time: 3.2083333
        value: {x: -1.4149594, y: 4.4088273, z: -0.075325415}
        inSlope: {x: 0.43115246, y: -0.114028715, z: -2.9738062e-16}
        outSlope: {x: 1.1069047, y: -0.114028715, z: -6.9388807e-16}
        tangentMode: 0
        weightedMode: 0
        inWeight: {x: 0.33333334, y: 0.33333334, z: 0.33333334}
        outWeight: {x: 0.33333334, y: 0.33333334, z: 0.33333334}
      - serializedVersion: 3
        time: 3.2916665
        value: {x: -1.2992806, y: 4.3933234, z: -0.075325415}
        inSlope: {x: 1.6693903, y: -0.25806525, z: -2.9738234e-16}
        outSlope: {x: 2.1185548, y: -0.3300813, z: -6.9388807e-16}
        tangentMode: 0
        weightedMode: 0
        inWeight: {x: 0.33333334, y: 0.33333334, z: 0.33333334}
        outWeight: {x: 0.33333334, y: 0.33333334, z: 0.33333334}
      - serializedVersion: 3
        time: 3.5
        value: {x: -0.7651594, y: 4.3095527, z: -0.075325415}
        inSlope: {x: 2.782424, y: -0.43811333, z: -2.9738062e-16}
        outSlope: {x: 2.6651833, y: -0.42011422, z: -6.9389204e-16}
        tangentMode: 0
        weightedMode: 0
        inWeight: {x: 0.33333334, y: 0.33333334, z: 0.33333334}
        outWeight: {x: 0.33333334, y: 0.33333334, z: 0.33333334}
      - serializedVersion: 3
        time: 3.5833333
        value: {x: -0.5526673, y: 4.2760444, z: -0.075325415}
        inSlope: {x: 2.434633, y: -0.38408586, z: -2.9738062e-16}
        outSlope: {x: 2.0907993, y: -0.3300813, z: -6.9388807e-16}
        tangentMode: 0
        weightedMode: 0
        inWeight: {x: 0.33333334, y: 0.33333334, z: 0.33333334}
        outWeight: {x: 0.33333334, y: 0.33333334, z: 0.33333334}
      - serializedVersion: 3
        time: 3.625
        value: {x: -0.4655505, y: 4.262291, z: -0.075325415}
        inSlope: {x: 2.0907993, y: -0.3300813, z: -2.9738062e-16}
        outSlope: {x: 1.6337011, y: -0.25806525, z: -6.9389204e-16}
        tangentMode: 0
        weightedMode: 0
        inWeight: {x: 0.33333334, y: 0.33333334, z: 0.33333334}
        outWeight: {x: 0.33333334, y: 0.33333334, z: 0.33333334}
      - serializedVersion: 3
        time: 3.6666665
        value: {x: -0.3974799, y: 4.2515383, z: -0.075325415}
        inSlope: {x: 1.6337011, y: -0.25806525, z: -2.9738234e-16}
        outSlope: {x: 1.0632972, y: -0.114028715, z: -6.9388807e-16}
        tangentMode: 0
        weightedMode: 0
        inWeight: {x: 0.33333334, y: 0.33333334, z: 0.33333334}
        outWeight: {x: 0.33333334, y: 0.33333334, z: 0.33333334}
      - serializedVersion: 3
        time: 3.7083333
        value: {x: -0.35317576, y: 4.246787, z: -0.075325415}
        inSlope: {x: 1.0632972, y: -0.114028715, z: -2.9738062e-16}
        outSlope: {x: 0.37960625, y: -0.114028715, z: -6.9388807e-16}
        tangentMode: 0
        weightedMode: 0
        inWeight: {x: 0.33333334, y: 0.33333334, z: 0.33333334}
        outWeight: {x: 0.33333334, y: 0.33333334, z: 0.33333334}
      - serializedVersion: 3
        time: 3.75
        value: {x: -0.3373588, y: 4.242036, z: -0.075325415}
        inSlope: {x: 0.37960625, y: -0.114028715, z: -2.9738062e-16}
        outSlope: {x: -0, y: -0, z: -6.9388807e-16}
        tangentMode: 0
        weightedMode: 0
        inWeight: {x: 0.33333334, y: 0.33333334, z: 0.33333334}
        outWeight: {x: 0.33333334, y: 0.33333334, z: 0.33333334}
      - serializedVersion: 3
        time: 5.166667
        value: {x: -0.3373588, y: 4.242036, z: -0.075325415}
        inSlope: {x: -0, y: -0, z: -2.9738234e-16}
        outSlope: {x: -0, y: -0, z: -2.9738234e-16}
        tangentMode: 0
        weightedMode: 0
        inWeight: {x: 0.33333334, y: 0.33333334, z: 0.33333334}
        outWeight: {x: 0.33333334, y: 0.33333334, z: 0.33333334}
      m_PreInfinity: 2
      m_PostInfinity: 2
      m_RotationOrder: 4
    path: Paint+Brush+2
  m_ScaleCurves: []
  m_FloatCurves: []
  m_PPtrCurves: []
  m_SampleRate: 24
  m_WrapMode: 0
  m_Bounds:
    m_Center: {x: 0, y: 0, z: 0}
    m_Extent: {x: 0, y: 0, z: 0}
  m_ClipBindingConstant:
    genericBindings:
    - serializedVersion: 2
      path: 2101919509
      attribute: 1
      script: {fileID: 0}
      typeID: 4
      customType: 0
      isPPtrCurve: 0
    - serializedVersion: 2
      path: 2101919509
      attribute: 2
      script: {fileID: 0}
      typeID: 4
      customType: 0
      isPPtrCurve: 0
    pptrCurveMapping: []
  m_AnimationClipSettings:
    serializedVersion: 2
    m_AdditiveReferencePoseClip: {fileID: 0}
    m_AdditiveReferencePoseTime: 0
    m_StartTime: 0
    m_StopTime: 5.166667
    m_OrientationOffsetY: 0
    m_Level: 0
    m_CycleOffset: 0
    m_HasAdditiveReferencePose: 0
    m_LoopTime: 1
    m_LoopBlend: 0
    m_LoopBlendOrientation: 0
    m_LoopBlendPositionY: 0
    m_LoopBlendPositionXZ: 0
    m_KeepOriginalOrientation: 0
    m_KeepOriginalPositionY: 1
    m_KeepOriginalPositionXZ: 0
    m_HeightFromFeet: 0
    m_Mirror: 0
  m_EditorCurves: []
  m_EulerEditorCurves: []
  m_HasGenericRootTransform: 0
  m_HasMotionFloatCurves: 0
  m_Events: []
