#
## Alias OBJ Material File
# Exported from SketchUp, (c) 2000-2012 Trimble Navigation Limited

newmtl Steel_Brushed_Stainless
Ka 0.000000 0.000000 0.000000
Kd 0.717647 0.733333 0.745098
Ks 0.330000 0.330000 0.330000

