%YAML 1.1
%TAG !u! tag:unity3d.com,2011:
--- !u!74 &7400000
AnimationClip:
  m_ObjectHideFlags: 0
  m_CorrespondingSourceObject: {fileID: 0}
  m_PrefabInstance: {fileID: 0}
  m_PrefabAsset: {fileID: 0}
  m_Name: Scene
  serializedVersion: 6
  m_Legacy: 0
  m_Compressed: 0
  m_UseHighQualityCurve: 1
  m_RotationCurves: []
  m_CompressedRotationCurves: []
  m_EulerCurves: []
  m_PositionCurves:
  - curve:
      serializedVersion: 2
      m_Curve:
      - serializedVersion: 3
        time: 0
        value: {x: -1.7269337, y: 0.008483595, z: -1.8503727}
        inSlope: {x: 0.295372, y: 0.5623337, z: -3.330669e-14}
        outSlope: {x: 0.295372, y: 0.5623337, z: -3.330669e-14}
        tangentMode: 0
        weightedMode: 0
        inWeight: {x: 0.33333334, y: 0.33333334, z: 0.33333334}
        outWeight: {x: 0.33333334, y: 0.33333334, z: 0.33333334}
      - serializedVersion: 3
        time: 0.041666668
        value: {x: -1.7146266, y: 0.031914167, z: -1.8503727}
        inSlope: {x: 0.295372, y: 0.5623337, z: -1.4274297e-14}
        outSlope: {x: 0.47744182, y: 0.869061, z: -3.3306694e-14}
        tangentMode: 0
        weightedMode: 0
        inWeight: {x: 0.33333334, y: 0.33333334, z: 0.33333334}
        outWeight: {x: 0.33333334, y: 0.33333334, z: 0.33333334}
      - serializedVersion: 3
        time: 0.08333333
        value: {x: -1.6947331, y: 0.06812504, z: -1.8503727}
        inSlope: {x: 0.47744182, y: 0.869061, z: -1.4274297e-14}
        outSlope: {x: 0.64738935, y: 1.12002, z: -3.3306687e-14}
        tangentMode: 0
        weightedMode: 0
        inWeight: {x: 0.33333334, y: 0.33333334, z: 0.33333334}
        outWeight: {x: 0.33333334, y: 0.33333334, z: 0.33333334}
      - serializedVersion: 3
        time: 0.125
        value: {x: -1.6677586, y: 0.11479255, z: -1.8503727}
        inSlope: {x: 0.64738935, y: 1.12002, z: -1.4274296e-14}
        outSlope: {x: 0.8051807, y: 1.3152102, z: -3.33067e-14}
        tangentMode: 0
        weightedMode: 0
        inWeight: {x: 0.33333334, y: 0.33333334, z: 0.33333334}
        outWeight: {x: 0.33333334, y: 0.33333334, z: 0.33333334}
      - serializedVersion: 3
        time: 0.16666666
        value: {x: -1.6342094, y: 0.16959296, z: -1.8503727}
        inSlope: {x: 0.8051807, y: 1.3152102, z: -1.4274301e-14}
        outSlope: {x: 0.9508437, y: 1.4546316, z: -3.3306687e-14}
        tangentMode: 0
        weightedMode: 0
        inWeight: {x: 0.33333334, y: 0.33333334, z: 0.33333334}
        outWeight: {x: 0.33333334, y: 0.33333334, z: 0.33333334}
      - serializedVersion: 3
        time: 0.2916667
        value: {x: -1.4991691, y: 0.35955483, z: -1.8503727}
        inSlope: {x: 1.2057575, y: 1.5661683, z: -1.427429e-14}
        outSlope: {x: 1.314998, y: 1.5382859, z: -3.33067e-14}
        tangentMode: 0
        weightedMode: 0
        inWeight: {x: 0.33333334, y: 0.33333334, z: 0.33333334}
        outWeight: {x: 0.33333334, y: 0.33333334, z: 0.33333334}
      - serializedVersion: 3
        time: 0.4166667
        value: {x: -1.3231616, y: 0.5390601, z: -1.8503727}
        inSlope: {x: 1.4970725, y: 1.3152102, z: -1.427429e-14}
        outSlope: {x: 1.5699066, y: 1.1200192, z: -3.33067e-14}
        tangentMode: 0
        weightedMode: 0
        inWeight: {x: 0.33333334, y: 0.33333334, z: 0.33333334}
        outWeight: {x: 0.33333334, y: 0.33333334, z: 0.33333334}
      - serializedVersion: 3
        time: 0.5
        value: {x: -1.1898072, y: 0.6219385, z: -1.8503727}
        inSlope: {x: 1.6305991, y: 0.8690625, z: -1.427429e-14}
        outSlope: {x: 1.6791502, y: 0.5623303, z: -3.3306725e-14}
        tangentMode: 0
        weightedMode: 0
        inWeight: {x: 0.33333334, y: 0.33333334, z: 0.33333334}
        outWeight: {x: 0.33333334, y: 0.33333334, z: 0.33333334}
      - serializedVersion: 3
        time: 0.5416666
        value: {x: -1.1198426, y: 0.64536893, z: -1.8503727}
        inSlope: {x: 1.6791502, y: 0.5623303, z: -1.4274311e-14}
        outSlope: {x: 1.7155687, y: 0.1998395, z: -3.3306677e-14}
        tangentMode: 0
        weightedMode: 0
        inWeight: {x: 0.33333334, y: 0.33333334, z: 0.33333334}
        outWeight: {x: 0.33333334, y: 0.33333334, z: 0.33333334}
      - serializedVersion: 3
        time: 0.9583333
        value: {x: -0.42019552, y: 0.55700016, z: -1.8503727}
        inSlope: {x: 1.497076, y: -0.39302284, z: -1.427429e-14}
        outSlope: {x: 1.4121085, y: -0.3974351, z: -3.3306725e-14}
        tangentMode: 0
        weightedMode: 0
        inWeight: {x: 0.33333334, y: 0.33333334, z: 0.33333334}
        outWeight: {x: 0.33333334, y: 0.33333334, z: 0.33333334}
      - serializedVersion: 3
        time: 1.0833334
        value: {x: -0.25632638, y: 0.50823915, z: -1.8503727}
        inSlope: {x: 1.205755, y: -0.37980402, z: -1.4274311e-14}
        outSlope: {x: 1.0843692, y: -0.35776338, z: -3.3306725e-14}
        tangentMode: 0
        weightedMode: 0
        inWeight: {x: 0.33333334, y: 0.33333334, z: 0.33333334}
        outWeight: {x: 0.33333334, y: 0.33333334, z: 0.33333334}
      - serializedVersion: 3
        time: 1.125
        value: {x: -0.21114437, y: 0.49333236, z: -1.8503727}
        inSlope: {x: 1.0843692, y: -0.35776338, z: -1.4274311e-14}
        outSlope: {x: 0.9508438, y: -0.32690915, z: -3.3306626e-14}
        tangentMode: 0
        weightedMode: 0
        inWeight: {x: 0.33333334, y: 0.33333334, z: 0.33333334}
        outWeight: {x: 0.33333334, y: 0.33333334, z: 0.33333334}
      - serializedVersion: 3
        time: 1.1666667
        value: {x: -0.1715258, y: 0.47971112, z: -1.8503727}
        inSlope: {x: 0.9508438, y: -0.32690915, z: -1.427427e-14}
        outSlope: {x: 0.8051856, y: -0.28723982, z: -3.3306725e-14}
        tangentMode: 0
        weightedMode: 0
        inWeight: {x: 0.33333334, y: 0.33333334, z: 0.33333334}
        outWeight: {x: 0.33333334, y: 0.33333334, z: 0.33333334}
      - serializedVersion: 3
        time: 1.2083334
        value: {x: -0.13797644, y: 0.4677428, z: -1.8503727}
        inSlope: {x: 0.8051856, y: -0.28723982, z: -1.4274311e-14}
        outSlope: {x: 0.6473843, y: -0.23875545, z: -3.3306725e-14}
        tangentMode: 0
        weightedMode: 0
        inWeight: {x: 0.33333334, y: 0.33333334, z: 0.33333334}
        outWeight: {x: 0.33333334, y: 0.33333334, z: 0.33333334}
      - serializedVersion: 3
        time: 1.25
        value: {x: -0.11100212, y: 0.45779467, z: -1.8503727}
        inSlope: {x: 0.6473843, y: -0.23875545, z: -1.4274311e-14}
        outSlope: {x: 0.47744587, y: -0.1814536, z: -3.3306626e-14}
        tangentMode: 0
        weightedMode: 0
        inWeight: {x: 0.33333334, y: 0.33333334, z: 0.33333334}
        outWeight: {x: 0.33333334, y: 0.33333334, z: 0.33333334}
      - serializedVersion: 3
        time: 1.2916667
        value: {x: -0.0911085, y: 0.4502341, z: -1.8503727}
        inSlope: {x: 0.47744587, y: -0.1814536, z: -1.427427e-14}
        outSlope: {x: 0.29537085, y: -0.1153351, z: -3.3306725e-14}
        tangentMode: 0
        weightedMode: 0
        inWeight: {x: 0.33333334, y: 0.33333334, z: 0.33333334}
        outWeight: {x: 0.33333334, y: 0.33333334, z: 0.33333334}
      - serializedVersion: 3
        time: 1.3333334
        value: {x: -0.07880139, y: 0.44542846, z: -1.8503727}
        inSlope: {x: 0.29537085, y: -0.1153351, z: -1.4274311e-14}
        outSlope: {x: 0.1011521, y: -0.040404834, z: -3.3306725e-14}
        tangentMode: 0
        weightedMode: 0
        inWeight: {x: 0.33333334, y: 0.33333334, z: 0.33333334}
        outWeight: {x: 0.33333334, y: 0.33333334, z: 0.33333334}
      - serializedVersion: 3
        time: 1.375
        value: {x: -0.07458673, y: 0.44374493, z: -1.8503727}
        inSlope: {x: 0.1011521, y: -0.040404834, z: -1.4274311e-14}
        outSlope: {x: -0, y: -0, z: -3.3306626e-14}
        tangentMode: 0
        weightedMode: 0
        inWeight: {x: 0.33333334, y: 0.33333334, z: 0.33333334}
        outWeight: {x: 0.33333334, y: 0.33333334, z: 0.33333334}
      - serializedVersion: 3
        time: 3.2916665
        value: {x: -0.07458673, y: 0.44374493, z: -1.8503727}
        inSlope: {x: -0, y: -0, z: -1.4274352e-14}
        outSlope: {x: -0, y: -0, z: -1.4274352e-14}
        tangentMode: 0
        weightedMode: 0
        inWeight: {x: 0.33333334, y: 0.33333334, z: 0.33333334}
        outWeight: {x: 0.33333334, y: 0.33333334, z: 0.33333334}
      m_PreInfinity: 2
      m_PostInfinity: 2
      m_RotationOrder: 4
    path: 1.001
  m_ScaleCurves: []
  m_FloatCurves: []
  m_PPtrCurves: []
  m_SampleRate: 24
  m_WrapMode: 0
  m_Bounds:
    m_Center: {x: 0, y: 0, z: 0}
    m_Extent: {x: 0, y: 0, z: 0}
  m_ClipBindingConstant:
    genericBindings:
    - serializedVersion: 2
      path: 2961010047
      attribute: 1
      script: {fileID: 0}
      typeID: 4
      customType: 0
      isPPtrCurve: 0
    pptrCurveMapping: []
  m_AnimationClipSettings:
    serializedVersion: 2
    m_AdditiveReferencePoseClip: {fileID: 0}
    m_AdditiveReferencePoseTime: 0
    m_StartTime: 0
    m_StopTime: 3.2916667
    m_OrientationOffsetY: 0
    m_Level: 0
    m_CycleOffset: 0
    m_HasAdditiveReferencePose: 0
    m_LoopTime: 1
    m_LoopBlend: 0
    m_LoopBlendOrientation: 0
    m_LoopBlendPositionY: 0
    m_LoopBlendPositionXZ: 0
    m_KeepOriginalOrientation: 0
    m_KeepOriginalPositionY: 1
    m_KeepOriginalPositionXZ: 0
    m_HeightFromFeet: 0
    m_Mirror: 0
  m_EditorCurves:
  - curve:
      serializedVersion: 2
      m_Curve:
      - serializedVersion: 3
        time: 0
        value: -1.7269337
        inSlope: 0.295372
        outSlope: 0.295372
        tangentMode: 0
        weightedMode: 0
        inWeight: 0.33333334
        outWeight: 0.33333334
      - serializedVersion: 3
        time: 0.041666668
        value: -1.7146266
        inSlope: 0.295372
        outSlope: 0.47744182
        tangentMode: 0
        weightedMode: 0
        inWeight: 0.33333334
        outWeight: 0.33333334
      - serializedVersion: 3
        time: 0.08333333
        value: -1.6947331
        inSlope: 0.47744182
        outSlope: 0.64738935
        tangentMode: 0
        weightedMode: 0
        inWeight: 0.33333334
        outWeight: 0.33333334
      - serializedVersion: 3
        time: 0.125
        value: -1.6677586
        inSlope: 0.64738935
        outSlope: 0.8051807
        tangentMode: 0
        weightedMode: 0
        inWeight: 0.33333334
        outWeight: 0.33333334
      - serializedVersion: 3
        time: 0.16666666
        value: -1.6342094
        inSlope: 0.8051807
        outSlope: 0.9508437
        tangentMode: 0
        weightedMode: 0
        inWeight: 0.33333334
        outWeight: 0.33333334
      - serializedVersion: 3
        time: 0.2916667
        value: -1.4991691
        inSlope: 1.2057575
        outSlope: 1.314998
        tangentMode: 0
        weightedMode: 0
        inWeight: 0.33333334
        outWeight: 0.33333334
      - serializedVersion: 3
        time: 0.4166667
        value: -1.3231616
        inSlope: 1.4970725
        outSlope: 1.5699066
        tangentMode: 0
        weightedMode: 0
        inWeight: 0.33333334
        outWeight: 0.33333334
      - serializedVersion: 3
        time: 0.5
        value: -1.1898072
        inSlope: 1.6305991
        outSlope: 1.6791502
        tangentMode: 0
        weightedMode: 0
        inWeight: 0.33333334
        outWeight: 0.33333334
      - serializedVersion: 3
        time: 0.5416666
        value: -1.1198426
        inSlope: 1.6791502
        outSlope: 1.7155687
        tangentMode: 0
        weightedMode: 0
        inWeight: 0.33333334
        outWeight: 0.33333334
      - serializedVersion: 3
        time: 0.9583333
        value: -0.42019552
        inSlope: 1.497076
        outSlope: 1.4121085
        tangentMode: 0
        weightedMode: 0
        inWeight: 0.33333334
        outWeight: 0.33333334
      - serializedVersion: 3
        time: 1.0833334
        value: -0.25632638
        inSlope: 1.205755
        outSlope: 1.0843692
        tangentMode: 0
        weightedMode: 0
        inWeight: 0.33333334
        outWeight: 0.33333334
      - serializedVersion: 3
        time: 1.125
        value: -0.21114437
        inSlope: 1.0843692
        outSlope: 0.9508438
        tangentMode: 0
        weightedMode: 0
        inWeight: 0.33333334
        outWeight: 0.33333334
      - serializedVersion: 3
        time: 1.1666667
        value: -0.1715258
        inSlope: 0.9508438
        outSlope: 0.8051856
        tangentMode: 0
        weightedMode: 0
        inWeight: 0.33333334
        outWeight: 0.33333334
      - serializedVersion: 3
        time: 1.2083334
        value: -0.13797644
        inSlope: 0.8051856
        outSlope: 0.6473843
        tangentMode: 0
        weightedMode: 0
        inWeight: 0.33333334
        outWeight: 0.33333334
      - serializedVersion: 3
        time: 1.25
        value: -0.11100212
        inSlope: 0.6473843
        outSlope: 0.47744587
        tangentMode: 0
        weightedMode: 0
        inWeight: 0.33333334
        outWeight: 0.33333334
      - serializedVersion: 3
        time: 1.2916667
        value: -0.0911085
        inSlope: 0.47744587
        outSlope: 0.29537085
        tangentMode: 0
        weightedMode: 0
        inWeight: 0.33333334
        outWeight: 0.33333334
      - serializedVersion: 3
        time: 1.3333334
        value: -0.07880139
        inSlope: 0.29537085
        outSlope: 0.1011521
        tangentMode: 0
        weightedMode: 0
        inWeight: 0.33333334
        outWeight: 0.33333334
      - serializedVersion: 3
        time: 1.375
        value: -0.07458673
        inSlope: 0.1011521
        outSlope: -0
        tangentMode: 0
        weightedMode: 0
        inWeight: 0.33333334
        outWeight: 0.33333334
      - serializedVersion: 3
        time: 3.2916665
        value: -0.07458673
        inSlope: -0
        outSlope: -0
        tangentMode: 0
        weightedMode: 0
        inWeight: 0.33333334
        outWeight: 0.33333334
      m_PreInfinity: 2
      m_PostInfinity: 2
      m_RotationOrder: 4
    attribute: m_LocalPosition.x
    path: 1.001
    classID: 4
    script: {fileID: 0}
  - curve:
      serializedVersion: 2
      m_Curve:
      - serializedVersion: 3
        time: 0
        value: 0.008483595
        inSlope: 0.5623337
        outSlope: 0.5623337
        tangentMode: 0
        weightedMode: 0
        inWeight: 0.33333334
        outWeight: 0.33333334
      - serializedVersion: 3
        time: 0.041666668
        value: 0.031914167
        inSlope: 0.5623337
        outSlope: 0.869061
        tangentMode: 0
        weightedMode: 0
        inWeight: 0.33333334
        outWeight: 0.33333334
      - serializedVersion: 3
        time: 0.08333333
        value: 0.06812504
        inSlope: 0.869061
        outSlope: 1.12002
        tangentMode: 0
        weightedMode: 0
        inWeight: 0.33333334
        outWeight: 0.33333334
      - serializedVersion: 3
        time: 0.125
        value: 0.11479255
        inSlope: 1.12002
        outSlope: 1.3152102
        tangentMode: 0
        weightedMode: 0
        inWeight: 0.33333334
        outWeight: 0.33333334
      - serializedVersion: 3
        time: 0.16666666
        value: 0.16959296
        inSlope: 1.3152102
        outSlope: 1.4546316
        tangentMode: 0
        weightedMode: 0
        inWeight: 0.33333334
        outWeight: 0.33333334
      - serializedVersion: 3
        time: 0.2916667
        value: 0.35955483
        inSlope: 1.5661683
        outSlope: 1.5382859
        tangentMode: 0
        weightedMode: 0
        inWeight: 0.33333334
        outWeight: 0.33333334
      - serializedVersion: 3
        time: 0.4166667
        value: 0.5390601
        inSlope: 1.3152102
        outSlope: 1.1200192
        tangentMode: 0
        weightedMode: 0
        inWeight: 0.33333334
        outWeight: 0.33333334
      - serializedVersion: 3
        time: 0.5
        value: 0.6219385
        inSlope: 0.8690625
        outSlope: 0.5623303
        tangentMode: 0
        weightedMode: 0
        inWeight: 0.33333334
        outWeight: 0.33333334
      - serializedVersion: 3
        time: 0.5416666
        value: 0.64536893
        inSlope: 0.5623303
        outSlope: 0.1998395
        tangentMode: 0
        weightedMode: 0
        inWeight: 0.33333334
        outWeight: 0.33333334
      - serializedVersion: 3
        time: 0.9583333
        value: 0.55700016
        inSlope: -0.39302284
        outSlope: -0.3974351
        tangentMode: 0
        weightedMode: 0
        inWeight: 0.33333334
        outWeight: 0.33333334
      - serializedVersion: 3
        time: 1.0833334
        value: 0.50823915
        inSlope: -0.37980402
        outSlope: -0.35776338
        tangentMode: 0
        weightedMode: 0
        inWeight: 0.33333334
        outWeight: 0.33333334
      - serializedVersion: 3
        time: 1.125
        value: 0.49333236
        inSlope: -0.35776338
        outSlope: -0.32690915
        tangentMode: 0
        weightedMode: 0
        inWeight: 0.33333334
        outWeight: 0.33333334
      - serializedVersion: 3
        time: 1.1666667
        value: 0.47971112
        inSlope: -0.32690915
        outSlope: -0.28723982
        tangentMode: 0
        weightedMode: 0
        inWeight: 0.33333334
        outWeight: 0.33333334
      - serializedVersion: 3
        time: 1.2083334
        value: 0.4677428
        inSlope: -0.28723982
        outSlope: -0.23875545
        tangentMode: 0
        weightedMode: 0
        inWeight: 0.33333334
        outWeight: 0.33333334
      - serializedVersion: 3
        time: 1.25
        value: 0.45779467
        inSlope: -0.23875545
        outSlope: -0.1814536
        tangentMode: 0
        weightedMode: 0
        inWeight: 0.33333334
        outWeight: 0.33333334
      - serializedVersion: 3
        time: 1.2916667
        value: 0.4502341
        inSlope: -0.1814536
        outSlope: -0.1153351
        tangentMode: 0
        weightedMode: 0
        inWeight: 0.33333334
        outWeight: 0.33333334
      - serializedVersion: 3
        time: 1.3333334
        value: 0.44542846
        inSlope: -0.1153351
        outSlope: -0.040404834
        tangentMode: 0
        weightedMode: 0
        inWeight: 0.33333334
        outWeight: 0.33333334
      - serializedVersion: 3
        time: 1.375
        value: 0.44374493
        inSlope: -0.040404834
        outSlope: -0
        tangentMode: 0
        weightedMode: 0
        inWeight: 0.33333334
        outWeight: 0.33333334
      - serializedVersion: 3
        time: 3.2916665
        value: 0.44374493
        inSlope: -0
        outSlope: -0
        tangentMode: 0
        weightedMode: 0
        inWeight: 0.33333334
        outWeight: 0.33333334
      m_PreInfinity: 2
      m_PostInfinity: 2
      m_RotationOrder: 4
    attribute: m_LocalPosition.y
    path: 1.001
    classID: 4
    script: {fileID: 0}
  - curve:
      serializedVersion: 2
      m_Curve:
      - serializedVersion: 3
        time: 0
        value: -1.8503727
        inSlope: -3.330669e-14
        outSlope: -3.330669e-14
        tangentMode: 0
        weightedMode: 0
        inWeight: 0.33333334
        outWeight: 0.33333334
      - serializedVersion: 3
        time: 0.041666668
        value: -1.8503727
        inSlope: -1.4274297e-14
        outSlope: -3.3306694e-14
        tangentMode: 0
        weightedMode: 0
        inWeight: 0.33333334
        outWeight: 0.33333334
      - serializedVersion: 3
        time: 0.08333333
        value: -1.8503727
        inSlope: -1.4274297e-14
        outSlope: -3.3306687e-14
        tangentMode: 0
        weightedMode: 0
        inWeight: 0.33333334
        outWeight: 0.33333334
      - serializedVersion: 3
        time: 0.125
        value: -1.8503727
        inSlope: -1.4274296e-14
        outSlope: -3.33067e-14
        tangentMode: 0
        weightedMode: 0
        inWeight: 0.33333334
        outWeight: 0.33333334
      - serializedVersion: 3
        time: 0.16666666
        value: -1.8503727
        inSlope: -1.4274301e-14
        outSlope: -3.3306687e-14
        tangentMode: 0
        weightedMode: 0
        inWeight: 0.33333334
        outWeight: 0.33333334
      - serializedVersion: 3
        time: 0.2916667
        value: -1.8503727
        inSlope: -1.427429e-14
        outSlope: -3.33067e-14
        tangentMode: 0
        weightedMode: 0
        inWeight: 0.33333334
        outWeight: 0.33333334
      - serializedVersion: 3
        time: 0.4166667
        value: -1.8503727
        inSlope: -1.427429e-14
        outSlope: -3.33067e-14
        tangentMode: 0
        weightedMode: 0
        inWeight: 0.33333334
        outWeight: 0.33333334
      - serializedVersion: 3
        time: 0.5
        value: -1.8503727
        inSlope: -1.427429e-14
        outSlope: -3.3306725e-14
        tangentMode: 0
        weightedMode: 0
        inWeight: 0.33333334
        outWeight: 0.33333334
      - serializedVersion: 3
        time: 0.5416666
        value: -1.8503727
        inSlope: -1.4274311e-14
        outSlope: -3.3306677e-14
        tangentMode: 0
        weightedMode: 0
        inWeight: 0.33333334
        outWeight: 0.33333334
      - serializedVersion: 3
        time: 0.9583333
        value: -1.8503727
        inSlope: -1.427429e-14
        outSlope: -3.3306725e-14
        tangentMode: 0
        weightedMode: 0
        inWeight: 0.33333334
        outWeight: 0.33333334
      - serializedVersion: 3
        time: 1.0833334
        value: -1.8503727
        inSlope: -1.4274311e-14
        outSlope: -3.3306725e-14
        tangentMode: 0
        weightedMode: 0
        inWeight: 0.33333334
        outWeight: 0.33333334
      - serializedVersion: 3
        time: 1.125
        value: -1.8503727
        inSlope: -1.4274311e-14
        outSlope: -3.3306626e-14
        tangentMode: 0
        weightedMode: 0
        inWeight: 0.33333334
        outWeight: 0.33333334
      - serializedVersion: 3
        time: 1.1666667
        value: -1.8503727
        inSlope: -1.427427e-14
        outSlope: -3.3306725e-14
        tangentMode: 0
        weightedMode: 0
        inWeight: 0.33333334
        outWeight: 0.33333334
      - serializedVersion: 3
        time: 1.2083334
        value: -1.8503727
        inSlope: -1.4274311e-14
        outSlope: -3.3306725e-14
        tangentMode: 0
        weightedMode: 0
        inWeight: 0.33333334
        outWeight: 0.33333334
      - serializedVersion: 3
        time: 1.25
        value: -1.8503727
        inSlope: -1.4274311e-14
        outSlope: -3.3306626e-14
        tangentMode: 0
        weightedMode: 0
        inWeight: 0.33333334
        outWeight: 0.33333334
      - serializedVersion: 3
        time: 1.2916667
        value: -1.8503727
        inSlope: -1.427427e-14
        outSlope: -3.3306725e-14
        tangentMode: 0
        weightedMode: 0
        inWeight: 0.33333334
        outWeight: 0.33333334
      - serializedVersion: 3
        time: 1.3333334
        value: -1.8503727
        inSlope: -1.4274311e-14
        outSlope: -3.3306725e-14
        tangentMode: 0
        weightedMode: 0
        inWeight: 0.33333334
        outWeight: 0.33333334
      - serializedVersion: 3
        time: 1.375
        value: -1.8503727
        inSlope: -1.4274311e-14
        outSlope: -3.3306626e-14
        tangentMode: 0
        weightedMode: 0
        inWeight: 0.33333334
        outWeight: 0.33333334
      - serializedVersion: 3
        time: 3.2916665
        value: -1.8503727
        inSlope: -1.4274352e-14
        outSlope: -1.4274352e-14
        tangentMode: 0
        weightedMode: 0
        inWeight: 0.33333334
        outWeight: 0.33333334
      m_PreInfinity: 2
      m_PostInfinity: 2
      m_RotationOrder: 4
    attribute: m_LocalPosition.z
    path: 1.001
    classID: 4
    script: {fileID: 0}
  m_EulerEditorCurves: []
  m_HasGenericRootTransform: 0
  m_HasMotionFloatCurves: 0
  m_Events: []
