%YAML 1.1
%TAG !u! tag:unity3d.com,2011:
--- !u!74 &7400000
AnimationClip:
  m_ObjectHideFlags: 0
  m_CorrespondingSourceObject: {fileID: 0}
  m_PrefabInstance: {fileID: 0}
  m_PrefabAsset: {fileID: 0}
  m_Name: Scene
  serializedVersion: 6
  m_Legacy: 0
  m_Compressed: 0
  m_UseHighQualityCurve: 1
  m_RotationCurves:
  - curve:
      serializedVersion: 2
      m_Curve:
      - serializedVersion: 3
        time: 0
        value: {x: 0.63670903, y: -0.30979168, z: -0.3089445, w: 0.63496774}
        inSlope: {x: 0.006558895, y: 0.013497591, z: 0.013461113, w: 0.006541729}
        outSlope: {x: 0.006558895, y: 0.013497591, z: 0.013461113, w: 0.006541729}
        tangentMode: 0
        weightedMode: 0
        inWeight: {x: 0.33333334, y: 0.33333334, z: 0.33333334, w: 0.33333334}
        outWeight: {x: 0.33333334, y: 0.33333334, z: 0.33333334, w: 0.33333334}
      - serializedVersion: 3
        time: 1.1250001
        value: {x: 0.68807644, y: -0.16709292, z: -0.16663596, w: 0.6861947}
        inSlope: {x: 0.05901143, y: 0.2432496, z: 0.2425844, w: 0.05884978}
        outSlope: {x: 0.05901143, y: 0.2432496, z: 0.2425844, w: 0.05884978}
        tangentMode: 0
        weightedMode: 0
        inWeight: {x: 0.33333334, y: 0.33333334, z: 0.33333334, w: 0.33333334}
        outWeight: {x: 0.33333334, y: 0.33333334, z: 0.33333334, w: 0.33333334}
      - serializedVersion: 3
        time: 2.5416667
        value: {x: 0.6223119, y: 0.33778268, z: 0.33685893, w: 0.62061006}
        inSlope: {x: -0.22395253, y: 0.41245085, z: 0.41132325, w: -0.22334027}
        outSlope: {x: -0.22395253, y: 0.41245085, z: 0.41132325, w: -0.22334027}
        tangentMode: 0
        weightedMode: 0
        inWeight: {x: 0.33333334, y: 0.33333334, z: 0.33333334, w: 0.33333334}
        outWeight: {x: 0.33333334, y: 0.33333334, z: 0.33333334, w: 0.33333334}
      - serializedVersion: 3
        time: 3.5
        value: {x: 0.255281, y: 0.66045505, z: 0.65864885, w: 0.25458288}
        inSlope: {x: -0.526733, y: 0.20353708, z: 0.20297989, w: -0.52529246}
        outSlope: {x: -0.526733, y: 0.20353708, z: 0.20297989, w: -0.52529246}
        tangentMode: 0
        weightedMode: 0
        inWeight: {x: 0.33333334, y: 0.33333334, z: 0.33333334, w: 0.33333334}
        outWeight: {x: 0.33333334, y: 0.33333334, z: 0.33333334, w: 0.33333334}
      - serializedVersion: 3
        time: 4.3333335
        value: {x: -0.22776052, y: 0.6704434, z: 0.6686099, w: -0.22713764}
        inSlope: {x: -0.5804039, y: -0.19720344, z: -0.19666414, w: -0.57881653}
        outSlope: {x: -0.5804039, y: -0.19720344, z: -0.19666414, w: -0.57881653}
        tangentMode: 0
        weightedMode: 0
        inWeight: {x: 0.33333334, y: 0.33333334, z: 0.33333334, w: 0.33333334}
        outWeight: {x: 0.33333334, y: 0.33333334, z: 0.33333334, w: 0.33333334}
      - serializedVersion: 3
        time: 5.1250005
        value: {x: -0.60508794, y: 0.36774698, z: 0.3667413, w: -0.60343313}
        inSlope: {x: -0.3267017, y: -0.53755414, z: -0.53608394, w: -0.3258076}
        outSlope: {x: -0.3267017, y: -0.53755414, z: -0.53608394, w: -0.3258076}
        tangentMode: 0
        weightedMode: 0
        inWeight: {x: 0.33333334, y: 0.33333334, z: 0.33333334, w: 0.33333334}
        outWeight: {x: 0.33333334, y: 0.33333334, z: 0.33333334, w: 0.33333334}
      - serializedVersion: 3
        time: 5.916667
        value: {x: -0.69982284, y: -0.107783444, z: -0.10748867, w: -0.697909}
        inSlope: {x: 0.09374893, y: -0.60886884, z: -0.60720366, w: 0.09349215}
        outSlope: {x: 0.09374893, y: -0.60886884, z: -0.60720366, w: 0.09349215}
        tangentMode: 0
        weightedMode: 0
        inWeight: {x: 0.33333334, y: 0.33333334, z: 0.33333334, w: 0.33333334}
        outWeight: {x: 0.33333334, y: 0.33333334, z: 0.33333334, w: 0.33333334}
      - serializedVersion: 3
        time: 6.7500005
        value: {x: -0.46484888, y: -0.53412056, z: -0.5326599, w: -0.46357763}
        inSlope: {x: 0.43066114, y: -0.3748755, z: -0.3738498, w: 0.42948312}
        outSlope: {x: 0.43066114, y: -0.3748755, z: -0.3738498, w: 0.42948312}
        tangentMode: 0
        weightedMode: 0
        inWeight: {x: 0.33333334, y: 0.33333334, z: 0.33333334, w: 0.33333334}
        outWeight: {x: 0.33333334, y: 0.33333334, z: 0.33333334, w: 0.33333334}
      - serializedVersion: 3
        time: 7.666667
        value: {x: -0.020414945, y: -0.70778, z: -0.7058444, w: -0.020359127}
        inSlope: {x: 0.4839849, y: -0.01402908, z: -0.0139911715, w: 0.48266134}
        outSlope: {x: 0.4839849, y: -0.01402908, z: -0.0139911715, w: 0.48266134}
        tangentMode: 0
        weightedMode: 0
        inWeight: {x: 0.33333334, y: 0.33333334, z: 0.33333334, w: 0.33333334}
        outWeight: {x: 0.33333334, y: 0.33333334, z: 0.33333334, w: 0.33333334}
      - serializedVersion: 3
        time: 8.958333
        value: {x: 0.45310405, y: -0.54411954, z: -0.5426315, w: 0.4518649}
        inSlope: {x: 0.22728595, y: 0.18918514, z: 0.18866731, w: 0.2266644}
        outSlope: {x: 0.22728595, y: 0.18918514, z: 0.18866731, w: 0.2266644}
        tangentMode: 0
        weightedMode: 0
        inWeight: {x: 0.33333334, y: 0.33333334, z: 0.33333334, w: 0.33333334}
        outWeight: {x: 0.33333334, y: 0.33333334, z: 0.33333334, w: 0.33333334}
      - serializedVersion: 3
        time: 10.125
        value: {x: 0.59357435, y: -0.38605538, z: -0.3849996, w: 0.5919511}
        inSlope: {x: 0.032116883, y: 0.04938088, z: 0.049245697, w: 0.032028906}
        outSlope: {x: 0.032116883, y: 0.04938088, z: 0.049245697, w: 0.032028906}
        tangentMode: 0
        weightedMode: 0
        inWeight: {x: 0.33333334, y: 0.33333334, z: 0.33333334, w: 0.33333334}
        outWeight: {x: 0.33333334, y: 0.33333334, z: 0.33333334, w: 0.33333334}
      - serializedVersion: 3
        time: 10.375
        value: {x: 0.5980201, y: -0.37913218, z: -0.37809536, w: 0.59638464}
        inSlope: {x: 0.010671535, y: 0.016811958, z: 0.016766181, w: 0.010642924}
        outSlope: {x: 0.010671535, y: 0.016811958, z: 0.016766181, w: 0.010642924}
        tangentMode: 0
        weightedMode: 0
        inWeight: {x: 0.33333334, y: 0.33333334, z: 0.33333334, w: 0.33333334}
        outWeight: {x: 0.33333334, y: 0.33333334, z: 0.33333334, w: 0.33333334}
      m_PreInfinity: 2
      m_PostInfinity: 2
      m_RotationOrder: 4
    path: 1
  - curve:
      serializedVersion: 2
      m_Curve:
      - serializedVersion: 3
        time: 0
        value: {x: 0.62184566, y: -0.33864048, z: -0.33771425, w: 0.62014484}
        inSlope: {x: 0.0071725845, y: 0.013183594, z: 0.013147116, w: 0.0071525574}
        outSlope: {x: 0.0071725845, y: 0.013183594, z: 0.013147116, w: 0.0071525574}
        tangentMode: 0
        weightedMode: 0
        inWeight: {x: 0.33333334, y: 0.33333334, z: 0.33333334, w: 0.33333334}
        outWeight: {x: 0.33333334, y: 0.33333334, z: 0.33333334, w: 0.33333334}
      - serializedVersion: 3
        time: 1.1250001
        value: {x: 0.6796977, y: -0.19844526, z: -0.19790249, w: 0.6778386}
        inSlope: {x: 0.07009503, y: 0.24029006, z: 0.2396331, w: 0.06990406}
        outSlope: {x: 0.07009503, y: 0.24029006, z: 0.2396331, w: 0.06990406}
        tangentMode: 0
        weightedMode: 0
        inWeight: {x: 0.33333334, y: 0.33333334, z: 0.33333334, w: 0.33333334}
        outWeight: {x: 0.33333334, y: 0.33333334, z: 0.33333334, w: 0.33333334}
      - serializedVersion: 3
        time: 2.5416667
        value: {x: 0.6371356, y: 0.3089136, z: 0.30806866, w: 0.635393}
        inSlope: {x: -0.20481941, y: 0.4222799, z: 0.42112476, w: -0.20425865}
        outSlope: {x: -0.20481941, y: 0.4222799, z: 0.42112476, w: -0.20425865}
        tangentMode: 0
        weightedMode: 0
        inWeight: {x: 0.33333334, y: 0.33333334, z: 0.33333334, w: 0.33333334}
        outWeight: {x: 0.33333334, y: 0.33333334, z: 0.33333334, w: 0.33333334}
      - serializedVersion: 3
        time: 3.5
        value: {x: 0.28527525, y: 0.6480644, z: 0.64629185, w: 0.284495}
        inSlope: {x: -0.51685786, y: 0.22745948, z: 0.22683792, w: -0.51544416}
        outSlope: {x: -0.51685786, y: 0.22745948, z: 0.22683792, w: -0.51544416}
        tangentMode: 0
        weightedMode: 0
        inWeight: {x: 0.33333334, y: 0.33333334, z: 0.33333334, w: 0.33333334}
        outWeight: {x: 0.33333334, y: 0.33333334, z: 0.33333334, w: 0.33333334}
      - serializedVersion: 3
        time: 4.3333335
        value: {x: -0.19680135, y: 0.6801755, z: 0.6783151, w: -0.19626306}
        inSlope: {x: -0.5888282, y: -0.17040142, z: -0.16993508, w: -0.58721757}
        outSlope: {x: -0.5888282, y: -0.17040142, z: -0.16993508, w: -0.58721757}
        tangentMode: 0
        weightedMode: 0
        inWeight: {x: 0.33333334, y: 0.33333334, z: 0.33333334, w: 0.33333334}
        outWeight: {x: 0.33333334, y: 0.33333334, z: 0.33333334, w: 0.33333334}
      - serializedVersion: 3
        time: 5.1250005
        value: {x: -0.5876022, y: 0.3950862, z: 0.3940056, w: -0.585995}
        inSlope: {x: -0.350986, y: -0.5220163, z: -0.52058864, w: -0.35002685}
        outSlope: {x: -0.350986, y: -0.5220163, z: -0.52058864, w: -0.35002685}
        tangentMode: 0
        weightedMode: 0
        inWeight: {x: 0.33333334, y: 0.33333334, z: 0.33333334, w: 0.33333334}
        outWeight: {x: 0.33333334, y: 0.33333334, z: 0.33333334, w: 0.33333334}
      - serializedVersion: 3
        time: 5.916667
        value: {x: -0.70402664, y: -0.0756037, z: -0.07539691, w: -0.70210105}
        inSlope: {x: 0.06575157, y: -0.6125274, z: -0.610852, w: 0.06557204}
        outSlope: {x: 0.06575157, y: -0.6125274, z: -0.610852, w: 0.06557204}
        tangentMode: 0
        weightedMode: 0
        inWeight: {x: 0.33333334, y: 0.33333334, z: 0.33333334, w: 0.33333334}
        outWeight: {x: 0.33333334, y: 0.33333334, z: 0.33333334, w: 0.33333334}
      - serializedVersion: 3
        time: 6.7500005
        value: {x: -0.4888345, y: -0.51225996, z: -0.5108589, w: -0.48749745}
        inSlope: {x: 0.413038, y: -0.3942217, z: -0.39314345, w: 0.41190857}
        outSlope: {x: 0.413038, y: -0.3942217, z: -0.39314345, w: 0.41190857}
        tangentMode: 0
        weightedMode: 0
        inWeight: {x: 0.33333334, y: 0.33333334, z: 0.33333334, w: 0.33333334}
        outWeight: {x: 0.33333334, y: 0.33333334, z: 0.33333334, w: 0.33333334}
      - serializedVersion: 3
        time: 7.666667
        value: {x: -0.0528241, y: -0.7061013, z: -0.70417005, w: -0.05267962}
        inSlope: {x: 0.4828339, y: -0.036189932, z: -0.036091227, w: 0.48151326}
        outSlope: {x: 0.4828339, y: -0.036189932, z: -0.036091227, w: 0.48151326}
        tangentMode: 0
        weightedMode: 0
        inWeight: {x: 0.33333334, y: 0.33333334, z: 0.33333334, w: 0.33333334}
        outWeight: {x: 0.33333334, y: 0.33333334, z: 0.33333334, w: 0.33333334}
      - serializedVersion: 3
        time: 8.958333
        value: {x: 0.42769685, y: -0.5643092, z: -0.5627657, w: 0.42652705}
        inSlope: {x: 0.23573387, y: 0.17858502, z: 0.17809722, w: 0.23508906}
        outSlope: {x: 0.23573387, y: 0.17858502, z: 0.17809722, w: 0.23508906}
        tangentMode: 0
        weightedMode: 0
        inWeight: {x: 0.33333334, y: 0.33333334, z: 0.33333334, w: 0.33333334}
        outWeight: {x: 0.33333334, y: 0.33333334, z: 0.33333334, w: 0.33333334}
      - serializedVersion: 3
        time: 10.125
        value: {x: 0.57537556, y: -0.4126892, z: -0.41156048, w: 0.5738018}
        inSlope: {x: 0.028719444, y: 0.040040784, z: 0.03993135, w: 0.028640766}
        outSlope: {x: 0.028719444, y: 0.040040784, z: 0.03993135, w: 0.028640766}
        tangentMode: 0
        weightedMode: 0
        inWeight: {x: 0.33333334, y: 0.33333334, z: 0.33333334, w: 0.33333334}
        outWeight: {x: 0.33333334, y: 0.33333334, z: 0.33333334, w: 0.33333334}
      - serializedVersion: 3
        time: 10.375
        value: {x: 0.58002025, y: -0.40613547, z: -0.40502465, w: 0.5784338}
        inSlope: {x: 0.008604461, y: 0.012273694, z: 0.012240078, w: 0.008580143}
        outSlope: {x: 0.008604461, y: 0.012273694, z: 0.012240078, w: 0.008580143}
        tangentMode: 0
        weightedMode: 0
        inWeight: {x: 0.33333334, y: 0.33333334, z: 0.33333334, w: 0.33333334}
        outWeight: {x: 0.33333334, y: 0.33333334, z: 0.33333334, w: 0.33333334}
      m_PreInfinity: 2
      m_PostInfinity: 2
      m_RotationOrder: 4
    path: 7
  - curve:
      serializedVersion: 2
      m_Curve:
      - serializedVersion: 3
        time: 0
        value: {x: 0.24268098, y: 0.6631264, z: 0.66494507, w: 0.24334656}
        inSlope: {x: -0.015877962, y: 0.005800724, z: 0.0058164597, w: -0.01592195}
        outSlope: {x: -0.015877962, y: 0.005800724, z: 0.0058164597, w: -0.01592195}
        tangentMode: 0
        weightedMode: 0
        inWeight: {x: 0.33333334, y: 0.33333334, z: 0.33333334, w: 0.33333334}
        outWeight: {x: 0.33333334, y: 0.33333334, z: 0.33333334, w: 0.33333334}
      - serializedVersion: 3
        time: 1.3750001
        value: {x: 0.09774343, y: 0.6993403, z: 0.70125836, w: 0.0980109}
        inSlope: {x: -0.1990614, y: 0.027791962, z: 0.02786778, w: -0.19960776}
        outSlope: {x: -0.1990614, y: 0.027791962, z: 0.02786778, w: -0.19960776}
        tangentMode: 0
        weightedMode: 0
        inWeight: {x: 0.33333334, y: 0.33333334, z: 0.33333334, w: 0.33333334}
        outWeight: {x: 0.33333334, y: 0.33333334, z: 0.33333334, w: 0.33333334}
      - serializedVersion: 3
        time: 3
        value: {x: -0.34819263, y: 0.6143228, z: 0.6160078, w: -0.34914723}
        inSlope: {x: -0.30793488, y: -0.17457, z: -0.1750485, w: -0.3087796}
        outSlope: {x: -0.30793488, y: -0.17457, z: -0.1750485, w: -0.3087796}
        tangentMode: 0
        weightedMode: 0
        inWeight: {x: 0.33333334, y: 0.33333334, z: 0.33333334, w: 0.33333334}
        outWeight: {x: 0.33333334, y: 0.33333334, z: 0.33333334, w: 0.33333334}
      - serializedVersion: 3
        time: 4.2083335
        value: {x: -0.6527182, y: 0.26942468, z: 0.27016369, w: -0.65450823}
        inSlope: {x: -0.15794894, y: -0.3826929, z: -0.3837429, w: -0.15838239}
        outSlope: {x: -0.15794894, y: -0.3826929, z: -0.3837429, w: -0.15838239}
        tangentMode: 0
        weightedMode: 0
        inWeight: {x: 0.33333334, y: 0.33333334, z: 0.33333334, w: 0.33333334}
        outWeight: {x: 0.33333334, y: 0.33333334, z: 0.33333334, w: 0.33333334}
      - serializedVersion: 3
        time: 5.3333335
        value: {x: -0.67761666, y: -0.1986613, z: -0.19920626, w: -0.679475}
        inSlope: {x: 0.120609745, y: -0.41139877, z: -0.41252726, w: 0.12094018}
        outSlope: {x: 0.120609745, y: -0.41139877, z: -0.41252726, w: 0.12094018}
        tangentMode: 0
        weightedMode: 0
        inWeight: {x: 0.33333334, y: 0.33333334, z: 0.33333334, w: 0.33333334}
        outWeight: {x: 0.33333334, y: 0.33333334, z: 0.33333334, w: 0.33333334}
      - serializedVersion: 3
        time: 6.4583335
        value: {x: -0.40865764, y: -0.5758729, z: -0.5774525, w: -0.4097781}
        inSlope: {x: 0.32921904, y: -0.2336486, z: -0.23428947, w: 0.3301224}
        outSlope: {x: 0.32921904, y: -0.2336486, z: -0.23428947, w: 0.3301224}
        tangentMode: 0
        weightedMode: 0
        inWeight: {x: 0.33333334, y: 0.33333334, z: 0.33333334, w: 0.33333334}
        outWeight: {x: 0.33333334, y: 0.33333334, z: 0.33333334, w: 0.33333334}
      - serializedVersion: 3
        time: 7.7083335
        value: {x: 0.02751028, y: -0.70560175, z: -0.7075369, w: 0.027586168}
        inSlope: {x: 0.3290996, y: 0.0127994595, z: 0.012835222, w: 0.33002084}
        outSlope: {x: 0.3290996, y: 0.0127994595, z: 0.012835222, w: 0.33002084}
        tangentMode: 0
        weightedMode: 0
        inWeight: {x: 0.33333334, y: 0.33333334, z: 0.33333334, w: 0.33333334}
        outWeight: {x: 0.33333334, y: 0.33333334, z: 0.33333334, w: 0.33333334}
      - serializedVersion: 3
        time: 9.75
        value: {x: 0.45206618, y: -0.5424636, z: -0.5439513, w: 0.45330608}
        inSlope: {x: 0.07869291, y: 0.06553195, z: 0.06571219, w: 0.078908555}
        outSlope: {x: 0.07869291, y: 0.06553195, z: 0.06571219, w: 0.078908555}
        tangentMode: 0
        weightedMode: 0
        inWeight: {x: 0.33333334, y: 0.33333334, z: 0.33333334, w: 0.33333334}
        outWeight: {x: 0.33333334, y: 0.33333334, z: 0.33333334, w: 0.33333334}
      - serializedVersion: 3
        time: 10.375
        value: {x: 0.47822493, y: -0.51954937, z: -0.5209743, w: 0.47953644}
        inSlope: {x: 0.0075065517, y: 0.006906457, z: 0.0069250534, w: 0.007526579}
        outSlope: {x: 0.0075065517, y: 0.006906457, z: 0.0069250534, w: 0.007526579}
        tangentMode: 0
        weightedMode: 0
        inWeight: {x: 0.33333334, y: 0.33333334, z: 0.33333334, w: 0.33333334}
        outWeight: {x: 0.33333334, y: 0.33333334, z: 0.33333334, w: 0.33333334}
      m_PreInfinity: 2
      m_PostInfinity: 2
      m_RotationOrder: 4
    path: 6.002
  m_CompressedRotationCurves: []
  m_EulerCurves: []
  m_PositionCurves: []
  m_ScaleCurves: []
  m_FloatCurves: []
  m_PPtrCurves: []
  m_SampleRate: 24
  m_WrapMode: 0
  m_Bounds:
    m_Center: {x: 0, y: 0, z: 0}
    m_Extent: {x: 0, y: 0, z: 0}
  m_ClipBindingConstant:
    genericBindings:
    - serializedVersion: 2
      path: 2212294583
      attribute: 2
      script: {fileID: 0}
      typeID: 4
      customType: 0
      isPPtrCurve: 0
    - serializedVersion: 2
      path: 1790921346
      attribute: 2
      script: {fileID: 0}
      typeID: 4
      customType: 0
      isPPtrCurve: 0
    - serializedVersion: 2
      path: 2606031061
      attribute: 2
      script: {fileID: 0}
      typeID: 4
      customType: 0
      isPPtrCurve: 0
    pptrCurveMapping: []
  m_AnimationClipSettings:
    serializedVersion: 2
    m_AdditiveReferencePoseClip: {fileID: 0}
    m_AdditiveReferencePoseTime: 0
    m_StartTime: 0
    m_StopTime: 10.375
    m_OrientationOffsetY: 0
    m_Level: 0
    m_CycleOffset: 0
    m_HasAdditiveReferencePose: 0
    m_LoopTime: 1
    m_LoopBlend: 0
    m_LoopBlendOrientation: 0
    m_LoopBlendPositionY: 0
    m_LoopBlendPositionXZ: 0
    m_KeepOriginalOrientation: 0
    m_KeepOriginalPositionY: 1
    m_KeepOriginalPositionXZ: 0
    m_HeightFromFeet: 0
    m_Mirror: 0
  m_EditorCurves: []
  m_EulerEditorCurves: []
  m_HasGenericRootTransform: 0
  m_HasMotionFloatCurves: 0
  m_Events: []
