%YAML 1.1
%TAG !u! tag:unity3d.com,2011:
--- !u!74 &7400000
AnimationClip:
  m_ObjectHideFlags: 0
  m_CorrespondingSourceObject: {fileID: 0}
  m_PrefabInstance: {fileID: 0}
  m_PrefabAsset: {fileID: 0}
  m_Name: Scene
  serializedVersion: 6
  m_Legacy: 0
  m_Compressed: 0
  m_UseHighQualityCurve: 1
  m_RotationCurves:
  - curve:
      serializedVersion: 2
      m_Curve:
      - serializedVersion: 3
        time: 0
        value: {x: 0.15744504, y: 0.6958578, z: 0.6869686, w: 0.13808364}
        inSlope: {x: -0.032277346, y: 0.18569899, z: -0.11716175, w: -0.34111565}
        outSlope: {x: -0.032277346, y: 0.18569899, z: -0.11716175, w: -0.34111565}
        tangentMode: 0
        weightedMode: 0
        inWeight: {x: 0.33333334, y: 0.33333334, z: 0.33333334, w: 0.33333334}
        outWeight: {x: 0.33333334, y: 0.33333334, z: 0.33333334, w: 0.33333334}
      - serializedVersion: 3
        time: 0.20833333
        value: {x: 0.13124014, y: 0.7651161, z: 0.63014704, w: -0.01697351}
        inSlope: {x: -0.30713075, y: 0.40133566, z: -0.463103, w: -1.1935408}
        outSlope: {x: -0.30713075, y: 0.40133566, z: -0.463103, w: -1.1935408}
        tangentMode: 0
        weightedMode: 0
        inWeight: {x: 0.33333334, y: 0.33333334, z: 0.33333334, w: 0.33333334}
        outWeight: {x: 0.33333334, y: 0.33333334, z: 0.33333334, w: 0.33333334}
      - serializedVersion: 3
        time: 0.4166667
        value: {x: -0.0038319568, y: 0.80085737, z: 0.50981313, w: -0.31417102}
        inSlope: {x: -1.048178, y: -0.20727687, z: -0.58722866, w: -1.4626776}
        outSlope: {x: -1.048178, y: -0.20727687, z: -0.58722866, w: -1.4626776}
        tangentMode: 0
        weightedMode: 0
        inWeight: {x: 0.33333334, y: 0.33333334, z: 0.33333334, w: 0.33333334}
        outWeight: {x: 0.33333334, y: 0.33333334, z: 0.33333334, w: 0.33333334}
      - serializedVersion: 3
        time: 0.625
        value: {x: -0.29071116, y: 0.659087, z: 0.44209996, w: -0.534452}
        inSlope: {x: -1.5385191, y: -1.0715134, z: 0.08675082, w: -0.41414717}
        outSlope: {x: -1.5385191, y: -1.0715134, z: 0.08675082, w: -0.41414717}
        tangentMode: 0
        weightedMode: 0
        inWeight: {x: 0.33333334, y: 0.33333334, z: 0.33333334, w: 0.33333334}
        outWeight: {x: 0.33333334, y: 0.33333334, z: 0.33333334, w: 0.33333334}
      - serializedVersion: 3
        time: 0.875
        value: {x: -0.5685203, y: 0.39494193, z: 0.6091386, w: -0.38698283}
        inSlope: {x: -0.32236633, y: -0.70815074, z: 1.0809891, w: 1.4574859}
        outSlope: {x: -0.32236633, y: -0.70815074, z: 1.0809891, w: 1.4574859}
        tangentMode: 0
        weightedMode: 0
        inWeight: {x: 0.33333334, y: 0.33333334, z: 0.33333334, w: 0.33333334}
        outWeight: {x: 0.33333334, y: 0.33333334, z: 0.33333334, w: 0.33333334}
      - serializedVersion: 3
        time: 1.0833334
        value: {x: -0.4554419, y: 0.36078078, z: 0.8131502, w: -0.034592684}
        inSlope: {x: 1.311491, y: 0.34636837, z: 0.6488691, w: 1.6337013}
        outSlope: {x: 1.311491, y: 0.34636837, z: 0.6488691, w: 1.6337013}
        tangentMode: 0
        weightedMode: 0
        inWeight: {x: 0.33333334, y: 0.33333334, z: 0.33333334, w: 0.33333334}
        outWeight: {x: 0.33333334, y: 0.33333334, z: 0.33333334, w: 0.33333334}
      - serializedVersion: 3
        time: 1.2500001
        value: {x: -0.18091004, y: 0.4575712, z: 0.8506155, w: 0.18534704}
        inSlope: {x: 1.799093, y: 0.69402695, z: -0.19343309, w: 0.94635355}
        outSlope: {x: 1.799093, y: 0.69402695, z: -0.19343309, w: 0.94635355}
        tangentMode: 0
        weightedMode: 0
        inWeight: {x: 0.33333334, y: 0.33333334, z: 0.33333334, w: 0.33333334}
        outWeight: {x: 0.33333334, y: 0.33333334, z: 0.33333334, w: 0.33333334}
      - serializedVersion: 3
        time: 1.4583334
        value: {x: 0.1551125, y: 0.58367366, z: 0.7411311, w: 0.29324025}
        inSlope: {x: 1.2628043, y: 0.43614635, z: -0.6731455, w: 0.18579623}
        outSlope: {x: 1.2628043, y: 0.43614635, z: -0.6731455, w: 0.18579623}
        tangentMode: 0
        weightedMode: 0
        inWeight: {x: 0.33333334, y: 0.33333334, z: 0.33333334, w: 0.33333334}
        outWeight: {x: 0.33333334, y: 0.33333334, z: 0.33333334, w: 0.33333334}
      - serializedVersion: 3
        time: 1.6666667
        value: {x: 0.31424722, y: 0.63393617, z: 0.6381418, w: 0.30356}
        inSlope: {x: 0.2283213, y: 0.06465417, z: -0.17282955, w: -0.0022466204}
        outSlope: {x: 0.2283213, y: 0.06465417, z: -0.17282955, w: -0.0022466204}
        tangentMode: 0
        weightedMode: 0
        inWeight: {x: 0.33333334, y: 0.33333334, z: 0.33333334, w: 0.33333334}
        outWeight: {x: 0.33333334, y: 0.33333334, z: 0.33333334, w: 0.33333334}
      - serializedVersion: 3
        time: 1.8333334
        value: {x: 0.31906554, y: 0.6352829, z: 0.6344402, w: 0.30347738}
        inSlope: {x: 0, y: 0, z: 0, w: 0}
        outSlope: {x: 0, y: 0, z: 0, w: 0}
        tangentMode: 0
        weightedMode: 0
        inWeight: {x: 0.33333334, y: 0.33333334, z: 0.33333334, w: 0.33333334}
        outWeight: {x: 0.33333334, y: 0.33333334, z: 0.33333334, w: 0.33333334}
      - serializedVersion: 3
        time: 3.875
        value: {x: 0.31906554, y: 0.6352829, z: 0.6344402, w: 0.30347738}
        inSlope: {x: 0, y: 0, z: 0, w: 0}
        outSlope: {x: 0, y: 0, z: 0, w: 0}
        tangentMode: 0
        weightedMode: 0
        inWeight: {x: 0.33333334, y: 0.33333334, z: 0.33333334, w: 0.33333334}
        outWeight: {x: 0.33333334, y: 0.33333334, z: 0.33333334, w: 0.33333334}
      - serializedVersion: 3
        time: 4.1250005
        value: {x: 0.31906554, y: 0.6352829, z: 0.6344402, w: 0.30347738}
        inSlope: {x: 0, y: 0, z: 0, w: 0}
        outSlope: {x: 0, y: 0, z: 0, w: 0}
        tangentMode: 0
        weightedMode: 0
        inWeight: {x: 0.33333334, y: 0.33333334, z: 0.33333334, w: 0.33333334}
        outWeight: {x: 0.33333334, y: 0.33333334, z: 0.33333334, w: 0.33333334}
      m_PreInfinity: 2
      m_PostInfinity: 2
      m_RotationOrder: 4
    path: 1.007
  - curve:
      serializedVersion: 2
      m_Curve:
      - serializedVersion: 3
        time: 0
        value: {x: 0.14231424, y: 0.6965553, z: 0.688264, w: 0.14439519}
        inSlope: {x: -0.4976465, y: 0.100700855, z: 0.08879328, w: -0.49175102}
        outSlope: {x: -0.4976465, y: 0.100700855, z: 0.08879328, w: -0.49175102}
        tangentMode: 0
        weightedMode: 0
        inWeight: {x: 0.33333334, y: 0.33333334, z: 0.33333334, w: 0.33333334}
        outWeight: {x: 0.33333334, y: 0.33333334, z: 0.33333334, w: 0.33333334}
      - serializedVersion: 3
        time: 0.08333333
        value: {x: 0.08759109, y: 0.7060825, z: 0.69685245, w: 0.090399496}
        inSlope: {x: -0.96853113, y: 0.118127346, z: 0.10856509, w: -0.95449305}
        outSlope: {x: -0.96853113, y: 0.118127346, z: 0.10856509, w: -0.95449305}
        tangentMode: 0
        weightedMode: 0
        inWeight: {x: 0.33333334, y: 0.33333334, z: 0.33333334, w: 0.33333334}
        outWeight: {x: 0.33333334, y: 0.33333334, z: 0.33333334, w: 0.33333334}
      - serializedVersion: 3
        time: 0.33333334
        value: {x: -0.34263262, y: 0.6260826, z: 0.61554945, w: -0.33424917}
        inSlope: {x: -2.1563258, y: -1.1932123, z: -1.1819406, w: -2.1402617}
        outSlope: {x: -2.1563258, y: -1.1932123, z: -1.1819406, w: -2.1402617}
        tangentMode: 0
        weightedMode: 0
        inWeight: {x: 0.33333334, y: 0.33333334, z: 0.33333334, w: 0.33333334}
        outWeight: {x: 0.33333334, y: 0.33333334, z: 0.33333334, w: 0.33333334}
      - serializedVersion: 3
        time: 0.45833334
        value: {x: -0.59306616, y: 0.39578107, z: 0.38779622, w: -0.58416104}
        inSlope: {x: -1.6379913, y: -2.4883282, z: -2.4726343, w: -1.6327206}
        outSlope: {x: -1.6379913, y: -2.4883282, z: -2.4726343, w: -1.6327206}
        tangentMode: 0
        weightedMode: 0
        inWeight: {x: 0.33333334, y: 0.33333334, z: 0.33333334, w: 0.33333334}
        outWeight: {x: 0.33333334, y: 0.33333334, z: 0.33333334, w: 0.33333334}
      - serializedVersion: 3
        time: 0.5833333
        value: {x: -0.7120379, y: 0.019117136, z: 0.014256859, w: -0.701736}
        inSlope: {x: -0.067059055, y: -3.3590927, z: -3.3157518, w: -0.07108666}
        outSlope: {x: -0.067059055, y: -3.3590927, z: -3.3157518, w: -0.07108666}
        tangentMode: 0
        weightedMode: 0
        inWeight: {x: 0.33333334, y: 0.33333334, z: 0.33333334, w: 0.33333334}
        outWeight: {x: 0.33333334, y: 0.33333334, z: 0.33333334, w: 0.33333334}
      - serializedVersion: 3
        time: 0.7083333
        value: {x: -0.59008944, y: -0.3964739, z: -0.39371094, w: -0.58274746}
        inSlope: {x: 2.0062613, y: -2.986679, z: -2.9081912, w: 1.9779272}
        outSlope: {x: 2.0062613, y: -2.986679, z: -2.9081912, w: 1.9779272}
        tangentMode: 0
        weightedMode: 0
        inWeight: {x: 0.33333334, y: 0.33333334, z: 0.33333334, w: 0.33333334}
        outWeight: {x: 0.33333334, y: 0.33333334, z: 0.33333334, w: 0.33333334}
      - serializedVersion: 3
        time: 0.7916667
        value: {x: -0.37128544, y: -0.6068681, z: -0.5982917, w: -0.3686534}
        inSlope: {x: 3.1251533, y: -1.9175959, z: -1.8698905, w: 3.0507002}
        outSlope: {x: 3.1251533, y: -1.9175959, z: -1.8698905, w: 3.0507002}
        tangentMode: 0
        weightedMode: 0
        inWeight: {x: 0.33333334, y: 0.33333334, z: 0.33333334, w: 0.33333334}
        outWeight: {x: 0.33333334, y: 0.33333334, z: 0.33333334, w: 0.33333334}
      - serializedVersion: 3
        time: 0.875
        value: {x: -0.082362376, y: -0.70717937, z: -0.69691956, w: -0.08612215}
        inSlope: {x: 3.6295094, y: -0.44219232, z: -0.42420152, w: 3.5634725}
        outSlope: {x: 3.6295094, y: -0.44219232, z: -0.42420152, w: 3.5634725}
        tangentMode: 0
        weightedMode: 0
        inWeight: {x: 0.33333334, y: 0.33333334, z: 0.33333334, w: 0.33333334}
        outWeight: {x: 0.33333334, y: 0.33333334, z: 0.33333334, w: 0.33333334}
      - serializedVersion: 3
        time: 0.9583333
        value: {x: 0.21842334, y: -0.6798108, z: -0.6678293, w: 0.21012522}
        inSlope: {x: 3.415804, y: 1.0677892, z: 1.0788636, w: 3.367917}
        outSlope: {x: 3.415804, y: 1.0677892, z: 1.0788636, w: 3.367917}
        tangentMode: 0
        weightedMode: 0
        inWeight: {x: 0.33333334, y: 0.33333334, z: 0.33333334, w: 0.33333334}
        outWeight: {x: 0.33333334, y: 0.33333334, z: 0.33333334, w: 0.33333334}
      - serializedVersion: 3
        time: 1.0833334
        value: {x: 0.5697981, y: -0.43085456, z: -0.42088434, w: 0.5590626}
        inSlope: {x: 2.021452, y: 2.6696508, z: 2.6479807, w: 2.0154502}
        outSlope: {x: 2.021452, y: 2.6696508, z: 2.6479807, w: 2.0154502}
        tangentMode: 0
        weightedMode: 0
        inWeight: {x: 0.33333334, y: 0.33333334, z: 0.33333334, w: 0.33333334}
        outWeight: {x: 0.33333334, y: 0.33333334, z: 0.33333334, w: 0.33333334}
      - serializedVersion: 3
        time: 1.2083334
        value: {x: 0.7107492, y: -0.061697856, z: -0.055122737, w: 0.69856316}
        inSlope: {x: 0.2572499, y: 2.9808125, z: 2.938665, w: 0.2599113}
        outSlope: {x: 0.2572499, y: 2.9808125, z: 2.938665, w: 0.2599113}
        tangentMode: 0
        weightedMode: 0
        inWeight: {x: 0.33333334, y: 0.33333334, z: 0.33333334, w: 0.33333334}
        outWeight: {x: 0.33333334, y: 0.33333334, z: 0.33333334, w: 0.33333334}
      - serializedVersion: 3
        time: 1.3333334
        value: {x: 0.65530425, y: 0.27617624, z: 0.27672008, w: 0.6463196}
        inSlope: {x: -0.9629482, y: 2.2877336, z: 2.2419055, w: -0.9295579}
        outSlope: {x: -0.9629482, y: 2.2877336, z: 2.2419055, w: -0.9295579}
        tangentMode: 0
        weightedMode: 0
        inWeight: {x: 0.33333334, y: 0.33333334, z: 0.33333334, w: 0.33333334}
        outWeight: {x: 0.33333334, y: 0.33333334, z: 0.33333334, w: 0.33333334}
      - serializedVersion: 3
        time: 1.5833334
        value: {x: 0.3664975, y: 0.6087863, z: 0.60136837, w: 0.36526015}
        inSlope: {x: -0.8352747, y: 0.51315653, z: 0.5032724, w: -0.81276023}
        outSlope: {x: -0.8352747, y: 0.51315653, z: 0.5032724, w: -0.81276023}
        tangentMode: 0
        weightedMode: 0
        inWeight: {x: 0.33333334, y: 0.33333334, z: 0.33333334, w: 0.33333334}
        outWeight: {x: 0.33333334, y: 0.33333334, z: 0.33333334, w: 0.33333334}
      - serializedVersion: 3
        time: 1.6666667
        value: {x: 0.3176197, y: 0.63566774, z: 0.6277963, w: 0.3176729}
        inSlope: {x: -0.22805557, y: 0.11834704, z: 0.11587226, w: -0.22114763}
        outSlope: {x: -0.22805557, y: 0.11834704, z: 0.11587226, w: -0.22114763}
        tangentMode: 0
        weightedMode: 0
        inWeight: {x: 0.33333334, y: 0.33333334, z: 0.33333334, w: 0.33333334}
        outWeight: {x: 0.33333334, y: 0.33333334, z: 0.33333334, w: 0.33333334}
      - serializedVersion: 3
        time: 1.7500001
        value: {x: 0.3173626, y: 0.6358076, z: 0.62787336, w: 0.31749758}
        inSlope: {x: -0.0025573955, y: 0.0014140599, z: 0.0011937612, w: -0.0026360736}
        outSlope: {x: -0.0025573955, y: 0.0014140599, z: 0.0011937612, w: -0.0026360736}
        tangentMode: 0
        weightedMode: 0
        inWeight: {x: 0.33333334, y: 0.33333334, z: 0.33333334, w: 0.33333334}
        outWeight: {x: 0.33333334, y: 0.33333334, z: 0.33333334, w: 0.33333334}
      - serializedVersion: 3
        time: 3.8333333
        value: {x: 0.31201687, y: 0.63873416, z: 0.6303375, w: 0.3119917}
        inSlope: {x: -0.0025742077, y: 0.0013947501, z: 0.0011723053, w: -0.0026493096}
        outSlope: {x: -0.0025742077, y: 0.0013947501, z: 0.0011723053, w: -0.0026493096}
        tangentMode: 0
        weightedMode: 0
        inWeight: {x: 0.33333334, y: 0.33333334, z: 0.33333334, w: 0.33333334}
        outWeight: {x: 0.33333334, y: 0.33333334, z: 0.33333334, w: 0.33333334}
      - serializedVersion: 3
        time: 4.1250005
        value: {x: 0.31126642, y: 0.63914025, z: 0.63067853, w: 0.31121945}
        inSlope: {x: -0.0025763316, y: 0.0013918771, z: 0.0011701494, w: -0.0026507175}
        outSlope: {x: -0.0025763316, y: 0.0013918771, z: 0.0011701494, w: -0.0026507175}
        tangentMode: 0
        weightedMode: 0
        inWeight: {x: 0.33333334, y: 0.33333334, z: 0.33333334, w: 0.33333334}
        outWeight: {x: 0.33333334, y: 0.33333334, z: 0.33333334, w: 0.33333334}
      m_PreInfinity: 2
      m_PostInfinity: 2
      m_RotationOrder: 4
    path: 1.006
  - curve:
      serializedVersion: 2
      m_Curve:
      - serializedVersion: 3
        time: 0
        value: {x: 0.14413752, y: 0.6961404, z: 0.6886801, w: 0.14259285}
        inSlope: {x: -0.49737543, y: 0.09530783, z: 0.09428644, w: -0.49204838}
        outSlope: {x: -0.49737543, y: 0.09530783, z: 0.09428644, w: -0.49204838}
        tangentMode: 0
        weightedMode: 0
        inWeight: {x: 0.33333334, y: 0.33333334, z: 0.33333334, w: 0.33333334}
        outWeight: {x: 0.33333334, y: 0.33333334, z: 0.33333334, w: 0.33333334}
      - serializedVersion: 3
        time: 0.125
        value: {x: 0.04285446, y: 0.70961297, z: 0.7020083, w: 0.042394836}
        inSlope: {x: -1.2632546, y: 0.065748446, z: 0.06504392, w: -1.2497029}
        outSlope: {x: -1.2632546, y: 0.065748446, z: 0.06504392, w: -1.2497029}
        tangentMode: 0
        weightedMode: 0
        inWeight: {x: 0.33333334, y: 0.33333334, z: 0.33333334, w: 0.33333334}
        outWeight: {x: 0.33333334, y: 0.33333334, z: 0.33333334, w: 0.33333334}
      - serializedVersion: 3
        time: 0.33333334
        value: {x: -0.34026212, y: 0.62418646, z: 0.6174977, w: -0.33661488}
        inSlope: {x: -2.159873, y: -1.1939104, z: -1.1811137, w: -2.1367276}
        outSlope: {x: -2.159873, y: -1.1939104, z: -1.1811137, w: -2.1367276}
        tangentMode: 0
        weightedMode: 0
        inWeight: {x: 0.33333334, y: 0.33333334, z: 0.33333334, w: 0.33333334}
        outWeight: {x: 0.33333334, y: 0.33333334, z: 0.33333334, w: 0.33333334}
      - serializedVersion: 3
        time: 0.45833334
        value: {x: -0.5917817, y: 0.3939308, z: 0.38970986, w: -0.5854393}
        inSlope: {x: -1.6442212, y: -2.4937668, z: -2.46704, w: -1.6266037}
        outSlope: {x: -1.6442212, y: -2.4937668, z: -2.46704, w: -1.6266037}
        tangentMode: 0
        weightedMode: 0
        inWeight: {x: 0.33333334, y: 0.33333334, z: 0.33333334, w: 0.33333334}
        outWeight: {x: 0.33333334, y: 0.33333334, z: 0.33333334, w: 0.33333334}
      - serializedVersion: 3
        time: 0.5833333
        value: {x: -0.71070683, y: 0.01681697, z: 0.01663754, w: -0.7030904}
        inSlope: {x: -0.06954099, y: -3.3554103, z: -3.3194518, w: -0.06879999}
        outSlope: {x: -0.06954099, y: -3.3554103, z: -3.3194518, w: -0.06879999}
        tangentMode: 0
        weightedMode: 0
        inWeight: {x: 0.33333334, y: 0.33333334, z: 0.33333334, w: 0.33333334}
        outWeight: {x: 0.33333334, y: 0.33333334, z: 0.33333334, w: 0.33333334}
      - serializedVersion: 3
        time: 0.7083333
        value: {x: -0.5895957, y: -0.39719516, z: -0.39293793, w: -0.5832776}
        inSlope: {x: 2.002785, y: -2.963532, z: -2.9317756, w: 1.9813182}
        outSlope: {x: 2.002785, y: -2.963532, z: -2.9317756, w: 1.9813182}
        tangentMode: 0
        weightedMode: 0
        inWeight: {x: 0.33333334, y: 0.33333334, z: 0.33333334, w: 0.33333334}
        outWeight: {x: 0.33333334, y: 0.33333334, z: 0.33333334, w: 0.33333334}
      - serializedVersion: 3
        time: 0.7916667
        value: {x: -0.3719763, y: -0.6058223, z: -0.59932953, w: -0.36799055}
        inSlope: {x: 3.1046677, y: -1.9041827, z: -1.8837793, w: 3.0713944}
        outSlope: {x: 3.1046677, y: -1.9041827, z: -1.8837793, w: 3.0713944}
        tangentMode: 0
        weightedMode: 0
        inWeight: {x: 0.33333334, y: 0.33333334, z: 0.33333334, w: 0.33333334}
        outWeight: {x: 0.33333334, y: 0.33333334, z: 0.33333334, w: 0.33333334}
      - serializedVersion: 3
        time: 0.875
        value: {x: -0.08470218, y: -0.7058418, z: -0.6982774, w: -0.08379516}
        inSlope: {x: 3.6159403, y: -0.435715, z: -0.43104938, w: 3.5771894}
        outSlope: {x: 3.6159403, y: -0.435715, z: -0.43104938, w: 3.5771894}
        tangentMode: 0
        weightedMode: 0
        inWeight: {x: 0.33333334, y: 0.33333334, z: 0.33333334, w: 0.33333334}
        outWeight: {x: 0.33333334, y: 0.33333334, z: 0.33333334, w: 0.33333334}
      - serializedVersion: 3
        time: 0.9583333
        value: {x: 0.21542968, y: -0.6774785, z: -0.6702184, w: 0.21312033}
        inSlope: {x: 3.4102287, y: 1.0788994, z: 1.0673343, w: 3.373684}
        outSlope: {x: 3.4102287, y: 1.0788994, z: 1.0673343, w: 3.373684}
        tangentMode: 0
        weightedMode: 0
        inWeight: {x: 0.33333334, y: 0.33333334, z: 0.33333334, w: 0.33333334}
        outWeight: {x: 0.33333334, y: 0.33333334, z: 0.33333334, w: 0.33333334}
      - serializedVersion: 3
        time: 1.0833334
        value: {x: 0.5674753, y: -0.42820418, z: -0.42361578, w: 0.56139344}
        inSlope: {x: 2.029378, y: 2.6730666, z: 2.6444182, w: 2.007633}
        outSlope: {x: 2.029378, y: 2.6730666, z: 2.6444182, w: 2.007633}
        tangentMode: 0
        weightedMode: 0
        inWeight: {x: 0.33333334, y: 0.33333334, z: 0.33333334, w: 0.33333334}
        outWeight: {x: 0.33333334, y: 0.33333334, z: 0.33333334, w: 0.33333334}
      - serializedVersion: 3
        time: 1.2083334
        value: {x: 0.70847195, y: -0.058775317, z: -0.058146063, w: 0.70087945}
        inSlope: {x: 0.26006365, y: 2.9756908, z: 2.9438014, w: 0.25727916}
        outSlope: {x: 0.26006365, y: 2.9756908, z: 2.9438014, w: 0.25727916}
        tangentMode: 0
        weightedMode: 0
        inWeight: {x: 0.33333334, y: 0.33333334, z: 0.33333334, w: 0.33333334}
        outWeight: {x: 0.33333334, y: 0.33333334, z: 0.33333334, w: 0.33333334}
      - serializedVersion: 3
        time: 1.3333334
        value: {x: 0.6543387, y: 0.27789912, z: 0.2749204, w: 0.6473266}
        inSlope: {x: -0.9513632, y: 2.277136, z: 2.252734, w: -0.9411658}
        outSlope: {x: -0.9513632, y: 2.277136, z: 2.252734, w: -0.9411658}
        tangentMode: 0
        weightedMode: 0
        inWeight: {x: 0.33333334, y: 0.33333334, z: 0.33333334, w: 0.33333334}
        outWeight: {x: 0.33333334, y: 0.33333334, z: 0.33333334, w: 0.33333334}
      - serializedVersion: 3
        time: 1.5833334
        value: {x: 0.36786208, y: 0.6083293, z: 0.60180974, w: 0.36392027}
        inSlope: {x: -0.8284805, y: 0.51100934, z: 0.50553334, w: -0.81960166}
        outSlope: {x: -0.8284805, y: 0.51100934, z: 0.50553334, w: -0.81960166}
        tangentMode: 0
        weightedMode: 0
        inWeight: {x: 0.33333334, y: 0.33333334, z: 0.33333334, w: 0.33333334}
        outWeight: {x: 0.33333334, y: 0.33333334, z: 0.33333334, w: 0.33333334}
      - serializedVersion: 3
        time: 1.6666667
        value: {x: 0.31936723, y: 0.6351312, z: 0.62832445, w: 0.31594512}
        inSlope: {x: -0.22583398, y: 0.11776339, z: 0.11650168, w: -0.22341391}
        outSlope: {x: -0.22583398, y: 0.11776339, z: 0.11650168, w: -0.22341391}
        tangentMode: 0
        weightedMode: 0
        inWeight: {x: 0.33333334, y: 0.33333334, z: 0.33333334, w: 0.33333334}
        outWeight: {x: 0.33333334, y: 0.33333334, z: 0.33333334, w: 0.33333334}
      - serializedVersion: 3
        time: 1.7500001
        value: {x: 0.31914973, y: 0.63524055, z: 0.6284327, w: 0.31572995}
        inSlope: {x: -0.0026103246, y: 0.0013117784, z: 0.0012981886, w: -0.0025824297}
        outSlope: {x: -0.0026103246, y: 0.0013117784, z: 0.0012981886, w: -0.0025824297}
        tangentMode: 0
        weightedMode: 0
        inWeight: {x: 0.33333334, y: 0.33333334, z: 0.33333334, w: 0.33333334}
        outWeight: {x: 0.33333334, y: 0.33333334, z: 0.33333334, w: 0.33333334}
      - serializedVersion: 3
        time: 3.8333333
        value: {x: 0.31369528, y: 0.6379517, z: 0.63111496, w: 0.31033343}
        inSlope: {x: -0.0026260638, y: 0.0012910378, z: 0.0012774479, w: -0.0025978114}
        outSlope: {x: -0.0026260638, y: 0.0012910378, z: 0.0012774479, w: -0.0025978114}
        tangentMode: 0
        weightedMode: 0
        inWeight: {x: 0.33333334, y: 0.33333334, z: 0.33333334, w: 0.33333334}
        outWeight: {x: 0.33333334, y: 0.33333334, z: 0.33333334, w: 0.33333334}
      - serializedVersion: 3
        time: 4.1250005
        value: {x: 0.31292987, y: 0.6383275, z: 0.6314868, w: 0.30957615}
        inSlope: {x: -0.0026271143, y: 0.0012888811, z: 0.001274576, w: -0.0025999348}
        outSlope: {x: -0.0026271143, y: 0.0012888811, z: 0.001274576, w: -0.0025999348}
        tangentMode: 0
        weightedMode: 0
        inWeight: {x: 0.33333334, y: 0.33333334, z: 0.33333334, w: 0.33333334}
        outWeight: {x: 0.33333334, y: 0.33333334, z: 0.33333334, w: 0.33333334}
      m_PreInfinity: 2
      m_PostInfinity: 2
      m_RotationOrder: 4
    path: 1.002
  - curve:
      serializedVersion: 2
      m_Curve:
      - serializedVersion: 3
        time: 0
        value: {x: 0.14231424, y: 0.6965553, z: 0.688264, w: 0.1443952}
        inSlope: {x: -0.49764454, y: 0.100699425, z: 0.08879185, w: -0.49174905}
        outSlope: {x: -0.49764454, y: 0.100699425, z: 0.08879185, w: -0.49174905}
        tangentMode: 0
        weightedMode: 0
        inWeight: {x: 0.33333334, y: 0.33333334, z: 0.33333334, w: 0.33333334}
        outWeight: {x: 0.33333334, y: 0.33333334, z: 0.33333334, w: 0.33333334}
      - serializedVersion: 3
        time: 0.08333333
        value: {x: 0.08759091, y: 0.7060825, z: 0.6968524, w: 0.09039966}
        inSlope: {x: -0.9685361, y: 0.11812878, z: 0.10856509, w: -0.9544901}
        outSlope: {x: -0.9685361, y: 0.11812878, z: 0.10856509, w: -0.9544901}
        tangentMode: 0
        weightedMode: 0
        inWeight: {x: 0.33333334, y: 0.33333334, z: 0.33333334, w: 0.33333334}
        outWeight: {x: 0.33333334, y: 0.33333334, z: 0.33333334, w: 0.33333334}
      - serializedVersion: 3
        time: 0.33333334
        value: {x: -0.34263262, y: 0.62608254, z: 0.61554945, w: -0.33424908}
        inSlope: {x: -2.1563258, y: -1.1932123, z: -1.1819406, w: -2.1402617}
        outSlope: {x: -2.1563258, y: -1.1932123, z: -1.1819406, w: -2.1402617}
        tangentMode: 0
        weightedMode: 0
        inWeight: {x: 0.33333334, y: 0.33333334, z: 0.33333334, w: 0.33333334}
        outWeight: {x: 0.33333334, y: 0.33333334, z: 0.33333334, w: 0.33333334}
      - serializedVersion: 3
        time: 0.45833334
        value: {x: -0.59306616, y: 0.39578107, z: 0.38779622, w: -0.58416104}
        inSlope: {x: -1.6379913, y: -2.4883282, z: -2.4726343, w: -1.6327206}
        outSlope: {x: -1.6379913, y: -2.4883282, z: -2.4726343, w: -1.6327206}
        tangentMode: 0
        weightedMode: 0
        inWeight: {x: 0.33333334, y: 0.33333334, z: 0.33333334, w: 0.33333334}
        outWeight: {x: 0.33333334, y: 0.33333334, z: 0.33333334, w: 0.33333334}
      - serializedVersion: 3
        time: 0.5833333
        value: {x: -0.7120379, y: 0.019117136, z: 0.014256859, w: -0.701736}
        inSlope: {x: -0.067059055, y: -3.3590927, z: -3.3157518, w: -0.07108666}
        outSlope: {x: -0.067059055, y: -3.3590927, z: -3.3157518, w: -0.07108666}
        tangentMode: 0
        weightedMode: 0
        inWeight: {x: 0.33333334, y: 0.33333334, z: 0.33333334, w: 0.33333334}
        outWeight: {x: 0.33333334, y: 0.33333334, z: 0.33333334, w: 0.33333334}
      - serializedVersion: 3
        time: 0.7083333
        value: {x: -0.59008944, y: -0.39647394, z: -0.39371094, w: -0.58274746}
        inSlope: {x: 2.0062618, y: -2.9866786, z: -2.9081912, w: 1.9779277}
        outSlope: {x: 2.0062618, y: -2.9866786, z: -2.9081912, w: 1.9779277}
        tangentMode: 0
        weightedMode: 0
        inWeight: {x: 0.33333334, y: 0.33333334, z: 0.33333334, w: 0.33333334}
        outWeight: {x: 0.33333334, y: 0.33333334, z: 0.33333334, w: 0.33333334}
      - serializedVersion: 3
        time: 0.7916667
        value: {x: -0.3712854, y: -0.6068681, z: -0.5982917, w: -0.3686534}
        inSlope: {x: 3.1251583, y: -1.917598, z: -1.8698919, w: 3.050703}
        outSlope: {x: 3.1251583, y: -1.917598, z: -1.8698919, w: 3.050703}
        tangentMode: 0
        weightedMode: 0
        inWeight: {x: 0.33333334, y: 0.33333334, z: 0.33333334, w: 0.33333334}
        outWeight: {x: 0.33333334, y: 0.33333334, z: 0.33333334, w: 0.33333334}
      - serializedVersion: 3
        time: 0.875
        value: {x: -0.082362294, y: -0.70717937, z: -0.69691956, w: -0.08612223}
        inSlope: {x: 3.6295063, y: -0.44219017, z: -0.4242001, w: 3.5634668}
        outSlope: {x: 3.6295063, y: -0.44219017, z: -0.4242001, w: 3.5634668}
        tangentMode: 0
        weightedMode: 0
        inWeight: {x: 0.33333334, y: 0.33333334, z: 0.33333334, w: 0.33333334}
        outWeight: {x: 0.33333334, y: 0.33333334, z: 0.33333334, w: 0.33333334}
      - serializedVersion: 3
        time: 0.9583333
        value: {x: 0.21842329, y: -0.6798108, z: -0.6678292, w: 0.21012528}
        inSlope: {x: 3.4158008, y: 1.0677885, z: 1.0788643, w: 3.36792}
        outSlope: {x: 3.4158008, y: 1.0677885, z: 1.0788643, w: 3.36792}
        tangentMode: 0
        weightedMode: 0
        inWeight: {x: 0.33333334, y: 0.33333334, z: 0.33333334, w: 0.33333334}
        outWeight: {x: 0.33333334, y: 0.33333334, z: 0.33333334, w: 0.33333334}
      - serializedVersion: 3
        time: 1.0833334
        value: {x: 0.5697981, y: -0.43085456, z: -0.42088434, w: 0.5590626}
        inSlope: {x: 2.0214512, y: 2.6696506, z: 2.6479812, w: 2.015451}
        outSlope: {x: 2.0214512, y: 2.6696506, z: 2.6479812, w: 2.015451}
        tangentMode: 0
        weightedMode: 0
        inWeight: {x: 0.33333334, y: 0.33333334, z: 0.33333334, w: 0.33333334}
        outWeight: {x: 0.33333334, y: 0.33333334, z: 0.33333334, w: 0.33333334}
      - serializedVersion: 3
        time: 1.2083334
        value: {x: 0.7107492, y: -0.061697863, z: -0.055122733, w: 0.69856316}
        inSlope: {x: 0.2572499, y: 2.9808128, z: 2.938665, w: 0.2599113}
        outSlope: {x: 0.2572499, y: 2.9808128, z: 2.938665, w: 0.2599113}
        tangentMode: 0
        weightedMode: 0
        inWeight: {x: 0.33333334, y: 0.33333334, z: 0.33333334, w: 0.33333334}
        outWeight: {x: 0.33333334, y: 0.33333334, z: 0.33333334, w: 0.33333334}
      - serializedVersion: 3
        time: 1.3333334
        value: {x: 0.65530425, y: 0.27617624, z: 0.27672008, w: 0.6463196}
        inSlope: {x: -0.9629482, y: 2.287734, z: 2.2419052, w: -0.9295579}
        outSlope: {x: -0.9629482, y: 2.287734, z: 2.2419052, w: -0.9295579}
        tangentMode: 0
        weightedMode: 0
        inWeight: {x: 0.33333334, y: 0.33333334, z: 0.33333334, w: 0.33333334}
        outWeight: {x: 0.33333334, y: 0.33333334, z: 0.33333334, w: 0.33333334}
      - serializedVersion: 3
        time: 1.5833334
        value: {x: 0.3664975, y: 0.6087862, z: 0.60136837, w: 0.36526012}
        inSlope: {x: -0.8352747, y: 0.5131558, z: 0.5032724, w: -0.8127606}
        outSlope: {x: -0.8352747, y: 0.5131558, z: 0.5032724, w: -0.8127606}
        tangentMode: 0
        weightedMode: 0
        inWeight: {x: 0.33333334, y: 0.33333334, z: 0.33333334, w: 0.33333334}
        outWeight: {x: 0.33333334, y: 0.33333334, z: 0.33333334, w: 0.33333334}
      - serializedVersion: 3
        time: 1.6666667
        value: {x: 0.3176197, y: 0.63566774, z: 0.6277963, w: 0.31767288}
        inSlope: {x: -0.22805592, y: 0.11834704, z: 0.11587226, w: -0.22114727}
        outSlope: {x: -0.22805592, y: 0.11834704, z: 0.11587226, w: -0.22114727}
        tangentMode: 0
        weightedMode: 0
        inWeight: {x: 0.33333334, y: 0.33333334, z: 0.33333334, w: 0.33333334}
        outWeight: {x: 0.33333334, y: 0.33333334, z: 0.33333334, w: 0.33333334}
      - serializedVersion: 3
        time: 1.7500001
        value: {x: 0.3173626, y: 0.6358076, z: 0.62787336, w: 0.31749758}
        inSlope: {x: -0.0025570379, y: 0.0014140599, z: 0.0011937612, w: -0.0026360736}
        outSlope: {x: -0.0025570379, y: 0.0014140599, z: 0.0011937612, w: -0.0026360736}
        tangentMode: 0
        weightedMode: 0
        inWeight: {x: 0.33333334, y: 0.33333334, z: 0.33333334, w: 0.33333334}
        outWeight: {x: 0.33333334, y: 0.33333334, z: 0.33333334, w: 0.33333334}
      - serializedVersion: 3
        time: 3.8333333
        value: {x: 0.31201687, y: 0.63873416, z: 0.63033754, w: 0.31199175}
        inSlope: {x: -0.0025742077, y: 0.0013954653, z: 0.0011730206, w: -0.002648952}
        outSlope: {x: -0.0025742077, y: 0.0013954653, z: 0.0011730206, w: -0.002648952}
        tangentMode: 0
        weightedMode: 0
        inWeight: {x: 0.33333334, y: 0.33333334, z: 0.33333334, w: 0.33333334}
        outWeight: {x: 0.33333334, y: 0.33333334, z: 0.33333334, w: 0.33333334}
      - serializedVersion: 3
        time: 4.1250005
        value: {x: 0.3112664, y: 0.63914025, z: 0.63067853, w: 0.31121948}
        inSlope: {x: -0.0025763316, y: 0.0013933076, z: 0.0011687189, w: -0.0026507175}
        outSlope: {x: -0.0025763316, y: 0.0013933076, z: 0.0011687189, w: -0.0026507175}
        tangentMode: 0
        weightedMode: 0
        inWeight: {x: 0.33333334, y: 0.33333334, z: 0.33333334, w: 0.33333334}
        outWeight: {x: 0.33333334, y: 0.33333334, z: 0.33333334, w: 0.33333334}
      m_PreInfinity: 2
      m_PostInfinity: 2
      m_RotationOrder: 4
    path: 1.003
  - curve:
      serializedVersion: 2
      m_Curve:
      - serializedVersion: 3
        time: 0
        value: {x: 0.14231424, y: 0.6965553, z: 0.688264, w: 0.14439519}
        inSlope: {x: -0.4976465, y: 0.100700855, z: 0.08879328, w: -0.49175102}
        outSlope: {x: -0.4976465, y: 0.100700855, z: 0.08879328, w: -0.49175102}
        tangentMode: 0
        weightedMode: 0
        inWeight: {x: 0.33333334, y: 0.33333334, z: 0.33333334, w: 0.33333334}
        outWeight: {x: 0.33333334, y: 0.33333334, z: 0.33333334, w: 0.33333334}
      - serializedVersion: 3
        time: 0.08333333
        value: {x: 0.08759109, y: 0.7060825, z: 0.69685245, w: 0.090399496}
        inSlope: {x: -0.96853113, y: 0.118127346, z: 0.10856509, w: -0.95449305}
        outSlope: {x: -0.96853113, y: 0.118127346, z: 0.10856509, w: -0.95449305}
        tangentMode: 0
        weightedMode: 0
        inWeight: {x: 0.33333334, y: 0.33333334, z: 0.33333334, w: 0.33333334}
        outWeight: {x: 0.33333334, y: 0.33333334, z: 0.33333334, w: 0.33333334}
      - serializedVersion: 3
        time: 0.33333334
        value: {x: -0.34263262, y: 0.6260826, z: 0.61554945, w: -0.33424917}
        inSlope: {x: -2.1563258, y: -1.1932123, z: -1.1819406, w: -2.1402617}
        outSlope: {x: -2.1563258, y: -1.1932123, z: -1.1819406, w: -2.1402617}
        tangentMode: 0
        weightedMode: 0
        inWeight: {x: 0.33333334, y: 0.33333334, z: 0.33333334, w: 0.33333334}
        outWeight: {x: 0.33333334, y: 0.33333334, z: 0.33333334, w: 0.33333334}
      - serializedVersion: 3
        time: 0.45833334
        value: {x: -0.59306616, y: 0.39578107, z: 0.38779622, w: -0.58416104}
        inSlope: {x: -1.6379913, y: -2.4883282, z: -2.4726343, w: -1.6327206}
        outSlope: {x: -1.6379913, y: -2.4883282, z: -2.4726343, w: -1.6327206}
        tangentMode: 0
        weightedMode: 0
        inWeight: {x: 0.33333334, y: 0.33333334, z: 0.33333334, w: 0.33333334}
        outWeight: {x: 0.33333334, y: 0.33333334, z: 0.33333334, w: 0.33333334}
      - serializedVersion: 3
        time: 0.5833333
        value: {x: -0.7120379, y: 0.019117136, z: 0.014256859, w: -0.701736}
        inSlope: {x: -0.067059055, y: -3.3590927, z: -3.3157518, w: -0.07108666}
        outSlope: {x: -0.067059055, y: -3.3590927, z: -3.3157518, w: -0.07108666}
        tangentMode: 0
        weightedMode: 0
        inWeight: {x: 0.33333334, y: 0.33333334, z: 0.33333334, w: 0.33333334}
        outWeight: {x: 0.33333334, y: 0.33333334, z: 0.33333334, w: 0.33333334}
      - serializedVersion: 3
        time: 0.7083333
        value: {x: -0.59008944, y: -0.3964739, z: -0.39371094, w: -0.58274746}
        inSlope: {x: 2.0062613, y: -2.986679, z: -2.9081912, w: 1.9779272}
        outSlope: {x: 2.0062613, y: -2.986679, z: -2.9081912, w: 1.9779272}
        tangentMode: 0
        weightedMode: 0
        inWeight: {x: 0.33333334, y: 0.33333334, z: 0.33333334, w: 0.33333334}
        outWeight: {x: 0.33333334, y: 0.33333334, z: 0.33333334, w: 0.33333334}
      - serializedVersion: 3
        time: 0.7916667
        value: {x: -0.37128544, y: -0.6068681, z: -0.5982917, w: -0.3686534}
        inSlope: {x: 3.1251533, y: -1.9175959, z: -1.8698905, w: 3.0507002}
        outSlope: {x: 3.1251533, y: -1.9175959, z: -1.8698905, w: 3.0507002}
        tangentMode: 0
        weightedMode: 0
        inWeight: {x: 0.33333334, y: 0.33333334, z: 0.33333334, w: 0.33333334}
        outWeight: {x: 0.33333334, y: 0.33333334, z: 0.33333334, w: 0.33333334}
      - serializedVersion: 3
        time: 0.875
        value: {x: -0.082362376, y: -0.70717937, z: -0.69691956, w: -0.08612215}
        inSlope: {x: 3.6295094, y: -0.44219232, z: -0.42420152, w: 3.5634725}
        outSlope: {x: 3.6295094, y: -0.44219232, z: -0.42420152, w: 3.5634725}
        tangentMode: 0
        weightedMode: 0
        inWeight: {x: 0.33333334, y: 0.33333334, z: 0.33333334, w: 0.33333334}
        outWeight: {x: 0.33333334, y: 0.33333334, z: 0.33333334, w: 0.33333334}
      - serializedVersion: 3
        time: 0.9583333
        value: {x: 0.21842334, y: -0.6798108, z: -0.6678293, w: 0.21012522}
        inSlope: {x: 3.415804, y: 1.0677892, z: 1.0788636, w: 3.367917}
        outSlope: {x: 3.415804, y: 1.0677892, z: 1.0788636, w: 3.367917}
        tangentMode: 0
        weightedMode: 0
        inWeight: {x: 0.33333334, y: 0.33333334, z: 0.33333334, w: 0.33333334}
        outWeight: {x: 0.33333334, y: 0.33333334, z: 0.33333334, w: 0.33333334}
      - serializedVersion: 3
        time: 1.0833334
        value: {x: 0.5697981, y: -0.43085456, z: -0.42088434, w: 0.5590626}
        inSlope: {x: 2.021452, y: 2.6696508, z: 2.6479807, w: 2.0154502}
        outSlope: {x: 2.021452, y: 2.6696508, z: 2.6479807, w: 2.0154502}
        tangentMode: 0
        weightedMode: 0
        inWeight: {x: 0.33333334, y: 0.33333334, z: 0.33333334, w: 0.33333334}
        outWeight: {x: 0.33333334, y: 0.33333334, z: 0.33333334, w: 0.33333334}
      - serializedVersion: 3
        time: 1.2083334
        value: {x: 0.7107492, y: -0.061697856, z: -0.055122737, w: 0.69856316}
        inSlope: {x: 0.2572499, y: 2.9808125, z: 2.938665, w: 0.2599113}
        outSlope: {x: 0.2572499, y: 2.9808125, z: 2.938665, w: 0.2599113}
        tangentMode: 0
        weightedMode: 0
        inWeight: {x: 0.33333334, y: 0.33333334, z: 0.33333334, w: 0.33333334}
        outWeight: {x: 0.33333334, y: 0.33333334, z: 0.33333334, w: 0.33333334}
      - serializedVersion: 3
        time: 1.3333334
        value: {x: 0.65530425, y: 0.27617624, z: 0.27672008, w: 0.6463196}
        inSlope: {x: -0.9629482, y: 2.2877336, z: 2.2419055, w: -0.9295579}
        outSlope: {x: -0.9629482, y: 2.2877336, z: 2.2419055, w: -0.9295579}
        tangentMode: 0
        weightedMode: 0
        inWeight: {x: 0.33333334, y: 0.33333334, z: 0.33333334, w: 0.33333334}
        outWeight: {x: 0.33333334, y: 0.33333334, z: 0.33333334, w: 0.33333334}
      - serializedVersion: 3
        time: 1.5833334
        value: {x: 0.3664975, y: 0.6087863, z: 0.60136837, w: 0.36526015}
        inSlope: {x: -0.8352747, y: 0.51315653, z: 0.5032724, w: -0.81276023}
        outSlope: {x: -0.8352747, y: 0.51315653, z: 0.5032724, w: -0.81276023}
        tangentMode: 0
        weightedMode: 0
        inWeight: {x: 0.33333334, y: 0.33333334, z: 0.33333334, w: 0.33333334}
        outWeight: {x: 0.33333334, y: 0.33333334, z: 0.33333334, w: 0.33333334}
      - serializedVersion: 3
        time: 1.6666667
        value: {x: 0.3176197, y: 0.63566774, z: 0.6277963, w: 0.3176729}
        inSlope: {x: -0.22805557, y: 0.11834704, z: 0.11587226, w: -0.22114763}
        outSlope: {x: -0.22805557, y: 0.11834704, z: 0.11587226, w: -0.22114763}
        tangentMode: 0
        weightedMode: 0
        inWeight: {x: 0.33333334, y: 0.33333334, z: 0.33333334, w: 0.33333334}
        outWeight: {x: 0.33333334, y: 0.33333334, z: 0.33333334, w: 0.33333334}
      - serializedVersion: 3
        time: 1.7500001
        value: {x: 0.3173626, y: 0.6358076, z: 0.62787336, w: 0.31749758}
        inSlope: {x: -0.0025573955, y: 0.0014140599, z: 0.0011937612, w: -0.0026360736}
        outSlope: {x: -0.0025573955, y: 0.0014140599, z: 0.0011937612, w: -0.0026360736}
        tangentMode: 0
        weightedMode: 0
        inWeight: {x: 0.33333334, y: 0.33333334, z: 0.33333334, w: 0.33333334}
        outWeight: {x: 0.33333334, y: 0.33333334, z: 0.33333334, w: 0.33333334}
      - serializedVersion: 3
        time: 3.8333333
        value: {x: 0.31201687, y: 0.63873416, z: 0.6303375, w: 0.3119917}
        inSlope: {x: -0.0025742077, y: 0.0013947501, z: 0.0011723053, w: -0.0026493096}
        outSlope: {x: -0.0025742077, y: 0.0013947501, z: 0.0011723053, w: -0.0026493096}
        tangentMode: 0
        weightedMode: 0
        inWeight: {x: 0.33333334, y: 0.33333334, z: 0.33333334, w: 0.33333334}
        outWeight: {x: 0.33333334, y: 0.33333334, z: 0.33333334, w: 0.33333334}
      - serializedVersion: 3
        time: 4.1250005
        value: {x: 0.31126642, y: 0.63914025, z: 0.63067853, w: 0.31121945}
        inSlope: {x: -0.0025763316, y: 0.0013918771, z: 0.0011701494, w: -0.0026507175}
        outSlope: {x: -0.0025763316, y: 0.0013918771, z: 0.0011701494, w: -0.0026507175}
        tangentMode: 0
        weightedMode: 0
        inWeight: {x: 0.33333334, y: 0.33333334, z: 0.33333334, w: 0.33333334}
        outWeight: {x: 0.33333334, y: 0.33333334, z: 0.33333334, w: 0.33333334}
      m_PreInfinity: 2
      m_PostInfinity: 2
      m_RotationOrder: 4
    path: 1.004
  - curve:
      serializedVersion: 2
      m_Curve:
      - serializedVersion: 3
        time: 0
        value: {x: 0.14231424, y: 0.6965553, z: 0.688264, w: 0.14439519}
        inSlope: {x: -0.4976465, y: 0.100700855, z: 0.08879328, w: -0.49175102}
        outSlope: {x: -0.4976465, y: 0.100700855, z: 0.08879328, w: -0.49175102}
        tangentMode: 0
        weightedMode: 0
        inWeight: {x: 0.33333334, y: 0.33333334, z: 0.33333334, w: 0.33333334}
        outWeight: {x: 0.33333334, y: 0.33333334, z: 0.33333334, w: 0.33333334}
      - serializedVersion: 3
        time: 0.08333333
        value: {x: 0.08759109, y: 0.7060825, z: 0.69685245, w: 0.090399496}
        inSlope: {x: -0.96853113, y: 0.118127346, z: 0.10856509, w: -0.95449305}
        outSlope: {x: -0.96853113, y: 0.118127346, z: 0.10856509, w: -0.95449305}
        tangentMode: 0
        weightedMode: 0
        inWeight: {x: 0.33333334, y: 0.33333334, z: 0.33333334, w: 0.33333334}
        outWeight: {x: 0.33333334, y: 0.33333334, z: 0.33333334, w: 0.33333334}
      - serializedVersion: 3
        time: 0.33333334
        value: {x: -0.34263262, y: 0.6260826, z: 0.61554945, w: -0.33424917}
        inSlope: {x: -2.1563258, y: -1.1932123, z: -1.1819406, w: -2.1402617}
        outSlope: {x: -2.1563258, y: -1.1932123, z: -1.1819406, w: -2.1402617}
        tangentMode: 0
        weightedMode: 0
        inWeight: {x: 0.33333334, y: 0.33333334, z: 0.33333334, w: 0.33333334}
        outWeight: {x: 0.33333334, y: 0.33333334, z: 0.33333334, w: 0.33333334}
      - serializedVersion: 3
        time: 0.45833334
        value: {x: -0.59306616, y: 0.39578107, z: 0.38779622, w: -0.58416104}
        inSlope: {x: -1.6379913, y: -2.4883282, z: -2.4726343, w: -1.6327206}
        outSlope: {x: -1.6379913, y: -2.4883282, z: -2.4726343, w: -1.6327206}
        tangentMode: 0
        weightedMode: 0
        inWeight: {x: 0.33333334, y: 0.33333334, z: 0.33333334, w: 0.33333334}
        outWeight: {x: 0.33333334, y: 0.33333334, z: 0.33333334, w: 0.33333334}
      - serializedVersion: 3
        time: 0.5833333
        value: {x: -0.7120379, y: 0.019117136, z: 0.014256859, w: -0.701736}
        inSlope: {x: -0.067059055, y: -3.3590927, z: -3.3157518, w: -0.07108666}
        outSlope: {x: -0.067059055, y: -3.3590927, z: -3.3157518, w: -0.07108666}
        tangentMode: 0
        weightedMode: 0
        inWeight: {x: 0.33333334, y: 0.33333334, z: 0.33333334, w: 0.33333334}
        outWeight: {x: 0.33333334, y: 0.33333334, z: 0.33333334, w: 0.33333334}
      - serializedVersion: 3
        time: 0.7083333
        value: {x: -0.59008944, y: -0.3964739, z: -0.39371094, w: -0.58274746}
        inSlope: {x: 2.0062613, y: -2.986679, z: -2.9081912, w: 1.9779272}
        outSlope: {x: 2.0062613, y: -2.986679, z: -2.9081912, w: 1.9779272}
        tangentMode: 0
        weightedMode: 0
        inWeight: {x: 0.33333334, y: 0.33333334, z: 0.33333334, w: 0.33333334}
        outWeight: {x: 0.33333334, y: 0.33333334, z: 0.33333334, w: 0.33333334}
      - serializedVersion: 3
        time: 0.7916667
        value: {x: -0.37128544, y: -0.6068681, z: -0.5982917, w: -0.3686534}
        inSlope: {x: 3.1251533, y: -1.9175959, z: -1.8698905, w: 3.0507002}
        outSlope: {x: 3.1251533, y: -1.9175959, z: -1.8698905, w: 3.0507002}
        tangentMode: 0
        weightedMode: 0
        inWeight: {x: 0.33333334, y: 0.33333334, z: 0.33333334, w: 0.33333334}
        outWeight: {x: 0.33333334, y: 0.33333334, z: 0.33333334, w: 0.33333334}
      - serializedVersion: 3
        time: 0.875
        value: {x: -0.082362376, y: -0.70717937, z: -0.69691956, w: -0.08612215}
        inSlope: {x: 3.6295094, y: -0.44219232, z: -0.42420152, w: 3.5634725}
        outSlope: {x: 3.6295094, y: -0.44219232, z: -0.42420152, w: 3.5634725}
        tangentMode: 0
        weightedMode: 0
        inWeight: {x: 0.33333334, y: 0.33333334, z: 0.33333334, w: 0.33333334}
        outWeight: {x: 0.33333334, y: 0.33333334, z: 0.33333334, w: 0.33333334}
      - serializedVersion: 3
        time: 0.9583333
        value: {x: 0.21842334, y: -0.6798108, z: -0.6678293, w: 0.21012522}
        inSlope: {x: 3.415804, y: 1.0677892, z: 1.0788636, w: 3.367917}
        outSlope: {x: 3.415804, y: 1.0677892, z: 1.0788636, w: 3.367917}
        tangentMode: 0
        weightedMode: 0
        inWeight: {x: 0.33333334, y: 0.33333334, z: 0.33333334, w: 0.33333334}
        outWeight: {x: 0.33333334, y: 0.33333334, z: 0.33333334, w: 0.33333334}
      - serializedVersion: 3
        time: 1.0833334
        value: {x: 0.5697981, y: -0.43085456, z: -0.42088434, w: 0.5590626}
        inSlope: {x: 2.021452, y: 2.6696508, z: 2.6479807, w: 2.0154502}
        outSlope: {x: 2.021452, y: 2.6696508, z: 2.6479807, w: 2.0154502}
        tangentMode: 0
        weightedMode: 0
        inWeight: {x: 0.33333334, y: 0.33333334, z: 0.33333334, w: 0.33333334}
        outWeight: {x: 0.33333334, y: 0.33333334, z: 0.33333334, w: 0.33333334}
      - serializedVersion: 3
        time: 1.2083334
        value: {x: 0.7107492, y: -0.061697856, z: -0.055122737, w: 0.69856316}
        inSlope: {x: 0.2572499, y: 2.9808125, z: 2.938665, w: 0.2599113}
        outSlope: {x: 0.2572499, y: 2.9808125, z: 2.938665, w: 0.2599113}
        tangentMode: 0
        weightedMode: 0
        inWeight: {x: 0.33333334, y: 0.33333334, z: 0.33333334, w: 0.33333334}
        outWeight: {x: 0.33333334, y: 0.33333334, z: 0.33333334, w: 0.33333334}
      - serializedVersion: 3
        time: 1.3333334
        value: {x: 0.65530425, y: 0.27617624, z: 0.27672008, w: 0.6463196}
        inSlope: {x: -0.9629482, y: 2.2877336, z: 2.2419055, w: -0.9295579}
        outSlope: {x: -0.9629482, y: 2.2877336, z: 2.2419055, w: -0.9295579}
        tangentMode: 0
        weightedMode: 0
        inWeight: {x: 0.33333334, y: 0.33333334, z: 0.33333334, w: 0.33333334}
        outWeight: {x: 0.33333334, y: 0.33333334, z: 0.33333334, w: 0.33333334}
      - serializedVersion: 3
        time: 1.5833334
        value: {x: 0.3664975, y: 0.6087863, z: 0.60136837, w: 0.36526015}
        inSlope: {x: -0.8352747, y: 0.51315653, z: 0.5032724, w: -0.81276023}
        outSlope: {x: -0.8352747, y: 0.51315653, z: 0.5032724, w: -0.81276023}
        tangentMode: 0
        weightedMode: 0
        inWeight: {x: 0.33333334, y: 0.33333334, z: 0.33333334, w: 0.33333334}
        outWeight: {x: 0.33333334, y: 0.33333334, z: 0.33333334, w: 0.33333334}
      - serializedVersion: 3
        time: 1.6666667
        value: {x: 0.3176197, y: 0.63566774, z: 0.6277963, w: 0.3176729}
        inSlope: {x: -0.22805557, y: 0.11834704, z: 0.11587226, w: -0.22114763}
        outSlope: {x: -0.22805557, y: 0.11834704, z: 0.11587226, w: -0.22114763}
        tangentMode: 0
        weightedMode: 0
        inWeight: {x: 0.33333334, y: 0.33333334, z: 0.33333334, w: 0.33333334}
        outWeight: {x: 0.33333334, y: 0.33333334, z: 0.33333334, w: 0.33333334}
      - serializedVersion: 3
        time: 1.7500001
        value: {x: 0.3173626, y: 0.6358076, z: 0.62787336, w: 0.31749758}
        inSlope: {x: -0.0025573955, y: 0.0014140599, z: 0.0011937612, w: -0.0026360736}
        outSlope: {x: -0.0025573955, y: 0.0014140599, z: 0.0011937612, w: -0.0026360736}
        tangentMode: 0
        weightedMode: 0
        inWeight: {x: 0.33333334, y: 0.33333334, z: 0.33333334, w: 0.33333334}
        outWeight: {x: 0.33333334, y: 0.33333334, z: 0.33333334, w: 0.33333334}
      - serializedVersion: 3
        time: 3.8333333
        value: {x: 0.31201687, y: 0.63873416, z: 0.6303375, w: 0.3119917}
        inSlope: {x: -0.0025742077, y: 0.0013947501, z: 0.0011723053, w: -0.0026493096}
        outSlope: {x: -0.0025742077, y: 0.0013947501, z: 0.0011723053, w: -0.0026493096}
        tangentMode: 0
        weightedMode: 0
        inWeight: {x: 0.33333334, y: 0.33333334, z: 0.33333334, w: 0.33333334}
        outWeight: {x: 0.33333334, y: 0.33333334, z: 0.33333334, w: 0.33333334}
      - serializedVersion: 3
        time: 4.1250005
        value: {x: 0.31126642, y: 0.63914025, z: 0.63067853, w: 0.31121945}
        inSlope: {x: -0.0025763316, y: 0.0013918771, z: 0.0011701494, w: -0.0026507175}
        outSlope: {x: -0.0025763316, y: 0.0013918771, z: 0.0011701494, w: -0.0026507175}
        tangentMode: 0
        weightedMode: 0
        inWeight: {x: 0.33333334, y: 0.33333334, z: 0.33333334, w: 0.33333334}
        outWeight: {x: 0.33333334, y: 0.33333334, z: 0.33333334, w: 0.33333334}
      m_PreInfinity: 2
      m_PostInfinity: 2
      m_RotationOrder: 4
    path: 1.005
  - curve:
      serializedVersion: 2
      m_Curve:
      - serializedVersion: 3
        time: 0
        value: {x: 0.14231409, y: 0.6965554, z: 0.688264, w: 0.14439516}
        inSlope: {x: -0.4976433, y: 0.100700855, z: 0.08879471, w: -0.49175406}
        outSlope: {x: -0.4976433, y: 0.100700855, z: 0.08879471, w: -0.49175406}
        tangentMode: 0
        weightedMode: 0
        inWeight: {x: 0.33333334, y: 0.33333334, z: 0.33333334, w: 0.33333334}
        outWeight: {x: 0.33333334, y: 0.33333334, z: 0.33333334, w: 0.33333334}
      - serializedVersion: 3
        time: 0.08333333
        value: {x: 0.08759109, y: 0.7060825, z: 0.69685245, w: 0.090399675}
        inSlope: {x: -0.9685395, y: 0.118127346, z: 0.10856438, w: -0.9544916}
        outSlope: {x: -0.9685395, y: 0.118127346, z: 0.10856438, w: -0.9544916}
        tangentMode: 0
        weightedMode: 0
        inWeight: {x: 0.33333334, y: 0.33333334, z: 0.33333334, w: 0.33333334}
        outWeight: {x: 0.33333334, y: 0.33333334, z: 0.33333334, w: 0.33333334}
      - serializedVersion: 3
        time: 0.33333334
        value: {x: -0.34263262, y: 0.62608254, z: 0.61554945, w: -0.33424908}
        inSlope: {x: -2.1563258, y: -1.1932123, z: -1.1819406, w: -2.1402617}
        outSlope: {x: -2.1563258, y: -1.1932123, z: -1.1819406, w: -2.1402617}
        tangentMode: 0
        weightedMode: 0
        inWeight: {x: 0.33333334, y: 0.33333334, z: 0.33333334, w: 0.33333334}
        outWeight: {x: 0.33333334, y: 0.33333334, z: 0.33333334, w: 0.33333334}
      - serializedVersion: 3
        time: 0.45833334
        value: {x: -0.59306616, y: 0.39578107, z: 0.38779622, w: -0.58416104}
        inSlope: {x: -1.637992, y: -2.48833, z: -2.4726367, w: -1.6327213}
        outSlope: {x: -1.637992, y: -2.48833, z: -2.4726367, w: -1.6327213}
        tangentMode: 0
        weightedMode: 0
        inWeight: {x: 0.33333334, y: 0.33333334, z: 0.33333334, w: 0.33333334}
        outWeight: {x: 0.33333334, y: 0.33333334, z: 0.33333334, w: 0.33333334}
      - serializedVersion: 3
        time: 0.5833333
        value: {x: -0.7120379, y: 0.019117137, z: 0.014256858, w: -0.701736}
        inSlope: {x: -0.067059055, y: -3.3590927, z: -3.3157516, w: -0.07108666}
        outSlope: {x: -0.067059055, y: -3.3590927, z: -3.3157516, w: -0.07108666}
        tangentMode: 0
        weightedMode: 0
        inWeight: {x: 0.33333334, y: 0.33333334, z: 0.33333334, w: 0.33333334}
        outWeight: {x: 0.33333334, y: 0.33333334, z: 0.33333334, w: 0.33333334}
      - serializedVersion: 3
        time: 0.7083333
        value: {x: -0.59008944, y: -0.3964739, z: -0.39371094, w: -0.58274746}
        inSlope: {x: 2.0062618, y: -2.9866788, z: -2.908191, w: 1.977927}
        outSlope: {x: 2.0062618, y: -2.9866788, z: -2.908191, w: 1.977927}
        tangentMode: 0
        weightedMode: 0
        inWeight: {x: 0.33333334, y: 0.33333334, z: 0.33333334, w: 0.33333334}
        outWeight: {x: 0.33333334, y: 0.33333334, z: 0.33333334, w: 0.33333334}
      - serializedVersion: 3
        time: 0.7916667
        value: {x: -0.37128535, y: -0.6068681, z: -0.5982917, w: -0.36865345}
        inSlope: {x: 3.1251588, y: -1.917598, z: -1.8698919, w: 3.0507028}
        outSlope: {x: 3.1251588, y: -1.917598, z: -1.8698919, w: 3.0507028}
        tangentMode: 0
        weightedMode: 0
        inWeight: {x: 0.33333334, y: 0.33333334, z: 0.33333334, w: 0.33333334}
        outWeight: {x: 0.33333334, y: 0.33333334, z: 0.33333334, w: 0.33333334}
      - serializedVersion: 3
        time: 0.875
        value: {x: -0.08236238, y: -0.7071793, z: -0.6969196, w: -0.08612214}
        inSlope: {x: 3.629506, y: -0.44219017, z: -0.4242001, w: 3.5634665}
        outSlope: {x: 3.629506, y: -0.44219017, z: -0.4242001, w: 3.5634665}
        tangentMode: 0
        weightedMode: 0
        inWeight: {x: 0.33333334, y: 0.33333334, z: 0.33333334, w: 0.33333334}
        outWeight: {x: 0.33333334, y: 0.33333334, z: 0.33333334, w: 0.33333334}
      - serializedVersion: 3
        time: 0.9583333
        value: {x: 0.21842332, y: -0.6798109, z: -0.6678292, w: 0.21012525}
        inSlope: {x: 3.4158015, y: 1.0677885, z: 1.0788643, w: 3.3679194}
        outSlope: {x: 3.4158015, y: 1.0677885, z: 1.0788643, w: 3.3679194}
        tangentMode: 0
        weightedMode: 0
        inWeight: {x: 0.33333334, y: 0.33333334, z: 0.33333334, w: 0.33333334}
        outWeight: {x: 0.33333334, y: 0.33333334, z: 0.33333334, w: 0.33333334}
      - serializedVersion: 3
        time: 1.0833334
        value: {x: 0.5697981, y: -0.4308546, z: -0.42088425, w: 0.5590625}
        inSlope: {x: 2.0214505, y: 2.6696506, z: 2.6479812, w: 2.0154514}
        outSlope: {x: 2.0214505, y: 2.6696506, z: 2.6479812, w: 2.0154514}
        tangentMode: 0
        weightedMode: 0
        inWeight: {x: 0.33333334, y: 0.33333334, z: 0.33333334, w: 0.33333334}
        outWeight: {x: 0.33333334, y: 0.33333334, z: 0.33333334, w: 0.33333334}
      - serializedVersion: 3
        time: 1.2083334
        value: {x: 0.7107492, y: -0.061697852, z: -0.05512274, w: 0.69856316}
        inSlope: {x: 0.2572499, y: 2.9808125, z: 2.938665, w: 0.2599113}
        outSlope: {x: 0.2572499, y: 2.9808125, z: 2.938665, w: 0.2599113}
        tangentMode: 0
        weightedMode: 0
        inWeight: {x: 0.33333334, y: 0.33333334, z: 0.33333334, w: 0.33333334}
        outWeight: {x: 0.33333334, y: 0.33333334, z: 0.33333334, w: 0.33333334}
      - serializedVersion: 3
        time: 1.3333334
        value: {x: 0.65530425, y: 0.27617624, z: 0.2767201, w: 0.6463196}
        inSlope: {x: -0.9629489, y: 2.2877336, z: 2.241905, w: -0.9295579}
        outSlope: {x: -0.9629489, y: 2.2877336, z: 2.241905, w: -0.9295579}
        tangentMode: 0
        weightedMode: 0
        inWeight: {x: 0.33333334, y: 0.33333334, z: 0.33333334, w: 0.33333334}
        outWeight: {x: 0.33333334, y: 0.33333334, z: 0.33333334, w: 0.33333334}
      - serializedVersion: 3
        time: 1.5833334
        value: {x: 0.3664975, y: 0.6087863, z: 0.60136837, w: 0.36526015}
        inSlope: {x: -0.83527505, y: 0.51315653, z: 0.5032724, w: -0.8127599}
        outSlope: {x: -0.83527505, y: 0.51315653, z: 0.5032724, w: -0.8127599}
        tangentMode: 0
        weightedMode: 0
        inWeight: {x: 0.33333334, y: 0.33333334, z: 0.33333334, w: 0.33333334}
        outWeight: {x: 0.33333334, y: 0.33333334, z: 0.33333334, w: 0.33333334}
      - serializedVersion: 3
        time: 1.6666667
        value: {x: 0.31761968, y: 0.63566774, z: 0.6277963, w: 0.31767294}
        inSlope: {x: -0.22805521, y: 0.11834704, z: 0.11587369, w: -0.22114691}
        outSlope: {x: -0.22805521, y: 0.11834704, z: 0.11587369, w: -0.22114691}
        tangentMode: 0
        weightedMode: 0
        inWeight: {x: 0.33333334, y: 0.33333334, z: 0.33333334, w: 0.33333334}
        outWeight: {x: 0.33333334, y: 0.33333334, z: 0.33333334, w: 0.33333334}
      - serializedVersion: 3
        time: 1.7500001
        value: {x: 0.3173626, y: 0.6358076, z: 0.62787336, w: 0.31749758}
        inSlope: {x: -0.0025577531, y: 0.0014140599, z: 0.0011923308, w: -0.0026367889}
        outSlope: {x: -0.0025577531, y: 0.0014140599, z: 0.0011923308, w: -0.0026367889}
        tangentMode: 0
        weightedMode: 0
        inWeight: {x: 0.33333334, y: 0.33333334, z: 0.33333334, w: 0.33333334}
        outWeight: {x: 0.33333334, y: 0.33333334, z: 0.33333334, w: 0.33333334}
      - serializedVersion: 3
        time: 3.8333333
        value: {x: 0.31201687, y: 0.63873416, z: 0.63033754, w: 0.31199175}
        inSlope: {x: -0.0025742077, y: 0.0013947501, z: 0.0011730206, w: -0.0026485943}
        outSlope: {x: -0.0025742077, y: 0.0013947501, z: 0.0011730206, w: -0.0026485943}
        tangentMode: 0
        weightedMode: 0
        inWeight: {x: 0.33333334, y: 0.33333334, z: 0.33333334, w: 0.33333334}
        outWeight: {x: 0.33333334, y: 0.33333334, z: 0.33333334, w: 0.33333334}
      - serializedVersion: 3
        time: 4.1250005
        value: {x: 0.31126645, y: 0.63914025, z: 0.6306786, w: 0.3112195}
        inSlope: {x: -0.002574901, y: 0.0013933076, z: 0.0011701494, w: -0.0026500023}
        outSlope: {x: -0.002574901, y: 0.0013933076, z: 0.0011701494, w: -0.0026500023}
        tangentMode: 0
        weightedMode: 0
        inWeight: {x: 0.33333334, y: 0.33333334, z: 0.33333334, w: 0.33333334}
        outWeight: {x: 0.33333334, y: 0.33333334, z: 0.33333334, w: 0.33333334}
      m_PreInfinity: 2
      m_PostInfinity: 2
      m_RotationOrder: 4
    path: 2.001
  m_CompressedRotationCurves: []
  m_EulerCurves: []
  m_PositionCurves:
  - curve:
      serializedVersion: 2
      m_Curve:
      - serializedVersion: 3
        time: 0
        value: {x: -0.762488, y: 1.1570305, z: -6.949645}
        inSlope: {x: -0.0017366409, y: -0.00497818, z: -1.7763568e-13}
        outSlope: {x: -0.0017366409, y: -0.00497818, z: -1.7763568e-13}
        tangentMode: 0
        weightedMode: 0
        inWeight: {x: 0.33333334, y: 0.33333334, z: 0.33333334}
        outWeight: {x: 0.33333334, y: 0.33333334, z: 0.33333334}
      - serializedVersion: 3
        time: 2.0833333
        value: {x: -0.7645165, y: 1.1468288, z: -6.949645}
        inSlope: {x: -0.00037336492, y: -0.00037765648, z: -7.612988e-14}
        outSlope: {x: -0.0003733628, y: -0.00038051532, z: -1.7763535e-13}
        tangentMode: 0
        weightedMode: 0
        inWeight: {x: 0.33333334, y: 0.33333334, z: 0.33333334}
        outWeight: {x: 0.33333334, y: 0.33333334, z: 0.33333334}
      - serializedVersion: 3
        time: 4.125
        value: {x: -0.7652795, y: 1.1460531, z: -6.949645}
        inSlope: {x: -0.00037336492, y: -0.0003805175, z: -7.612988e-14}
        outSlope: {x: -0.00037336492, y: -0.0003805175, z: -7.612988e-14}
        tangentMode: 0
        weightedMode: 0
        inWeight: {x: 0.33333334, y: 0.33333334, z: 0.33333334}
        outWeight: {x: 0.33333334, y: 0.33333334, z: 0.33333334}
      m_PreInfinity: 2
      m_PostInfinity: 2
      m_RotationOrder: 4
    path: 1.007
  - curve:
      serializedVersion: 2
      m_Curve:
      - serializedVersion: 3
        time: 0
        value: {x: -0.8144181, y: 1.1668991, z: -8.167842}
        inSlope: {x: 0.003493309, y: 0.0051498413, z: -7.612958e-14}
        outSlope: {x: 0.003493309, y: 0.0051498413, z: -7.612958e-14}
        tangentMode: 0
        weightedMode: 0
        inWeight: {x: 0.33333334, y: 0.33333334, z: 0.33333334}
        outWeight: {x: 0.33333334, y: 0.33333334, z: 0.33333334}
      - serializedVersion: 3
        time: 2.0833333
        value: {x: -0.8072617, y: 1.1774389, z: -8.167842}
        inSlope: {x: 0.00026607615, y: 0.0007095364, z: -1.7763636e-13}
        outSlope: {x: 0.00026750512, y: 0.00070953235, z: -7.612944e-14}
        tangentMode: 0
        weightedMode: 0
        inWeight: {x: 0.33333334, y: 0.33333334, z: 0.33333334}
        outWeight: {x: 0.33333334, y: 0.33333334, z: 0.33333334}
      - serializedVersion: 3
        time: 4.125
        value: {x: -0.8067175, y: 1.1788872, z: -8.167842}
        inSlope: {x: 0.00026607615, y: 0.0007095364, z: -1.7763636e-13}
        outSlope: {x: 0.00026607615, y: 0.0007095364, z: -1.7763636e-13}
        tangentMode: 0
        weightedMode: 0
        inWeight: {x: 0.33333334, y: 0.33333334, z: 0.33333334}
        outWeight: {x: 0.33333334, y: 0.33333334, z: 0.33333334}
      m_PreInfinity: 2
      m_PostInfinity: 2
      m_RotationOrder: 4
    path: 1.006
  - curve:
      serializedVersion: 2
      m_Curve:
      - serializedVersion: 3
        time: 0
        value: {x: -0.7516429, y: 1.159837, z: -6.293666}
        inSlope: {x: -0.0016951561, y: -0.006603241, z: -8.881784e-14}
        outSlope: {x: -0.0016951561, y: -0.006603241, z: -8.881784e-14}
        tangentMode: 0
        weightedMode: 0
        inWeight: {x: 0.33333334, y: 0.33333334, z: 0.33333334}
        outWeight: {x: 0.33333334, y: 0.33333334, z: 0.33333334}
      - serializedVersion: 3
        time: 2.0833333
        value: {x: -0.7536229, y: 1.1442026, z: -6.293666}
        inSlope: {x: -0.00036478182, y: -0.000337602, z: -3.806494e-14}
        outSlope: {x: -0.00036477973, y: -0.0003404611, z: -8.881767e-14}
        tangentMode: 0
        weightedMode: 0
        inWeight: {x: 0.33333334, y: 0.33333334, z: 0.33333334}
        outWeight: {x: 0.33333334, y: 0.33333334, z: 0.33333334}
      - serializedVersion: 3
        time: 4.125
        value: {x: -0.75436765, y: 1.1435089, z: -6.293666}
        inSlope: {x: -0.00036478182, y: -0.00034046304, z: -3.806494e-14}
        outSlope: {x: -0.00036478182, y: -0.00034046304, z: -3.806494e-14}
        tangentMode: 0
        weightedMode: 0
        inWeight: {x: 0.33333334, y: 0.33333334, z: 0.33333334}
        outWeight: {x: 0.33333334, y: 0.33333334, z: 0.33333334}
      m_PreInfinity: 2
      m_PostInfinity: 2
      m_RotationOrder: 4
    path: 1.002
  - curve:
      serializedVersion: 2
      m_Curve:
      - serializedVersion: 3
        time: 0
        value: {x: -0.801417, y: 1.1547965, z: -8.669013}
        inSlope: {x: -5.551115e-15, y: 0.003962517, z: -1.2053851e-13}
        outSlope: {x: -5.551115e-15, y: 0.003962517, z: -1.2053851e-13}
        tangentMode: 0
        weightedMode: 0
        inWeight: {x: 0.33333334, y: 0.33333334, z: 0.33333334}
        outWeight: {x: 0.33333334, y: 0.33333334, z: 0.33333334}
      - serializedVersion: 3
        time: 2.0833333
        value: {x: -0.801417, y: 1.162124, z: -8.669013}
        inSlope: {x: -2.3790587e-15, y: 0.0001602179, z: -1.9666884e-13}
        outSlope: {x: -5.5511045e-15, y: 0.00016021698, z: -1.2053828e-13}
        tangentMode: 0
        weightedMode: 0
        inWeight: {x: 0.33333334, y: 0.33333334, z: 0.33333334}
        outWeight: {x: 0.33333334, y: 0.33333334, z: 0.33333334}
      - serializedVersion: 3
        time: 4.125
        value: {x: -0.801417, y: 1.1624491, z: -8.669013}
        inSlope: {x: -2.3790587e-15, y: 0.0001602179, z: -1.9666884e-13}
        outSlope: {x: -2.3790587e-15, y: 0.0001602179, z: -1.9666884e-13}
        tangentMode: 0
        weightedMode: 0
        inWeight: {x: 0.33333334, y: 0.33333334, z: 0.33333334}
        outWeight: {x: 0.33333334, y: 0.33333334, z: 0.33333334}
      m_PreInfinity: 2
      m_PostInfinity: 2
      m_RotationOrder: 4
    path: 1.003
  - curve:
      serializedVersion: 2
      m_Curve:
      - serializedVersion: 3
        time: 0
        value: {x: -0.8104516, y: 1.1672367, z: -7.9860754}
        inSlope: {x: 0.003358841, y: 0.0048151016, z: -1.3322676e-13}
        outSlope: {x: 0.003358841, y: 0.0048151016, z: -1.3322676e-13}
        tangentMode: 0
        weightedMode: 0
        inWeight: {x: 0.33333334, y: 0.33333334, z: 0.33333334}
        outWeight: {x: 0.33333334, y: 0.33333334, z: 0.33333334}
      - serializedVersion: 3
        time: 2.0833333
        value: {x: -0.8034604, y: 1.1771424, z: -7.9860754}
        inSlope: {x: 0.0002031334, y: 0.00010013619, z: -5.709741e-14}
        outSlope: {x: 0.00020313224, y: 0.000100135614, z: -1.332265e-13}
        tangentMode: 0
        weightedMode: 0
        inWeight: {x: 0.33333334, y: 0.33333334, z: 0.33333334}
        outWeight: {x: 0.33333334, y: 0.33333334, z: 0.33333334}
      - serializedVersion: 3
        time: 4.125
        value: {x: -0.8030462, y: 1.1773463, z: -7.9860754}
        inSlope: {x: 0.0002031334, y: 0.00010013619, z: -5.709741e-14}
        outSlope: {x: 0.0002031334, y: 0.00010013619, z: -5.709741e-14}
        tangentMode: 0
        weightedMode: 0
        inWeight: {x: 0.33333334, y: 0.33333334, z: 0.33333334}
        outWeight: {x: 0.33333334, y: 0.33333334, z: 0.33333334}
      m_PreInfinity: 2
      m_PostInfinity: 2
      m_RotationOrder: 4
    path: 1.004
  - curve:
      serializedVersion: 2
      m_Curve:
      - serializedVersion: 3
        time: 0
        value: {x: -0.79606414, y: 1.1313618, z: -7.7001867}
        inSlope: {x: -0.0043973923, y: 0.0038938522, z: -1.3322676e-13}
        outSlope: {x: -0.0043973923, y: 0.0038938522, z: -1.3322676e-13}
        tangentMode: 0
        weightedMode: 0
        inWeight: {x: 0.33333334, y: 0.33333334, z: 0.33333334}
        outWeight: {x: 0.33333334, y: 0.33333334, z: 0.33333334}
      - serializedVersion: 3
        time: 2.0833333
        value: {x: -0.8068114, y: 1.1385638, z: -7.7001867}
        inSlope: {x: -0.000062942745, y: 0.00015735686, z: -5.709741e-14}
        outSlope: {x: -0.00006294239, y: 0.00015449495, z: -1.332265e-13}
        tangentMode: 0
        weightedMode: 0
        inWeight: {x: 0.33333334, y: 0.33333334, z: 0.33333334}
        outWeight: {x: 0.33333334, y: 0.33333334, z: 0.33333334}
      - serializedVersion: 3
        time: 4.125
        value: {x: -0.8069389, y: 1.1388832, z: -7.7001867}
        inSlope: {x: -0.000062942745, y: 0.00015735686, z: -5.709741e-14}
        outSlope: {x: -0.000062942745, y: 0.00015735686, z: -5.709741e-14}
        tangentMode: 0
        weightedMode: 0
        inWeight: {x: 0.33333334, y: 0.33333334, z: 0.33333334}
        outWeight: {x: 0.33333334, y: 0.33333334, z: 0.33333334}
      m_PreInfinity: 2
      m_PostInfinity: 2
      m_RotationOrder: 4
    path: 1.005
  - curve:
      serializedVersion: 2
      m_Curve:
      - serializedVersion: 3
        time: 0
        value: {x: -0.7656362, y: 1.1634243, z: -6.3761187}
        inSlope: {x: -5.551115e-15, y: -0.004746437, z: -4.440892e-14}
        outSlope: {x: -5.551115e-15, y: -0.004746437, z: -4.440892e-14}
        tangentMode: 0
        weightedMode: 0
        inWeight: {x: 0.33333334, y: 0.33333334, z: 0.33333334}
        outWeight: {x: 0.33333334, y: 0.33333334, z: 0.33333334}
      - serializedVersion: 3
        time: 2.0833333
        value: {x: -0.7656362, y: 1.1536591, z: -6.3761187}
        inSlope: {x: -2.3790587e-15, y: -0.00009727515, z: -1.903247e-14}
        outSlope: {x: -5.5511045e-15, y: -0.000100135614, z: -4.4408836e-14}
        tangentMode: 0
        weightedMode: 0
        inWeight: {x: 0.33333334, y: 0.33333334, z: 0.33333334}
        outWeight: {x: 0.33333334, y: 0.33333334, z: 0.33333334}
      - serializedVersion: 3
        time: 4.125
        value: {x: -0.7656362, y: 1.153458, z: -6.3761187}
        inSlope: {x: -2.3790587e-15, y: -0.00009727515, z: -1.903247e-14}
        outSlope: {x: -2.3790587e-15, y: -0.00009727515, z: -1.903247e-14}
        tangentMode: 0
        weightedMode: 0
        inWeight: {x: 0.33333334, y: 0.33333334, z: 0.33333334}
        outWeight: {x: 0.33333334, y: 0.33333334, z: 0.33333334}
      m_PreInfinity: 2
      m_PostInfinity: 2
      m_RotationOrder: 4
    path: 2.001
  m_ScaleCurves: []
  m_FloatCurves: []
  m_PPtrCurves: []
  m_SampleRate: 24
  m_WrapMode: 0
  m_Bounds:
    m_Center: {x: 0, y: 0, z: 0}
    m_Extent: {x: 0, y: 0, z: 0}
  m_ClipBindingConstant:
    genericBindings:
    - serializedVersion: 2
      path: 1495189578
      attribute: 1
      script: {fileID: 0}
      typeID: 4
      customType: 0
      isPPtrCurve: 0
    - serializedVersion: 2
      path: 773454044
      attribute: 1
      script: {fileID: 0}
      typeID: 4
      customType: 0
      isPPtrCurve: 0
    - serializedVersion: 2
      path: 695483589
      attribute: 1
      script: {fileID: 0}
      typeID: 4
      customType: 0
      isPPtrCurve: 0
    - serializedVersion: 2
      path: 1584598099
      attribute: 1
      script: {fileID: 0}
      typeID: 4
      customType: 0
      isPPtrCurve: 0
    - serializedVersion: 2
      path: 3222772208
      attribute: 1
      script: {fileID: 0}
      typeID: 4
      customType: 0
      isPPtrCurve: 0
    - serializedVersion: 2
      path: 3071322470
      attribute: 1
      script: {fileID: 0}
      typeID: 4
      customType: 0
      isPPtrCurve: 0
    - serializedVersion: 2
      path: 4158461871
      attribute: 1
      script: {fileID: 0}
      typeID: 4
      customType: 0
      isPPtrCurve: 0
    - serializedVersion: 2
      path: 1495189578
      attribute: 2
      script: {fileID: 0}
      typeID: 4
      customType: 0
      isPPtrCurve: 0
    - serializedVersion: 2
      path: 773454044
      attribute: 2
      script: {fileID: 0}
      typeID: 4
      customType: 0
      isPPtrCurve: 0
    - serializedVersion: 2
      path: 695483589
      attribute: 2
      script: {fileID: 0}
      typeID: 4
      customType: 0
      isPPtrCurve: 0
    - serializedVersion: 2
      path: 1584598099
      attribute: 2
      script: {fileID: 0}
      typeID: 4
      customType: 0
      isPPtrCurve: 0
    - serializedVersion: 2
      path: 3222772208
      attribute: 2
      script: {fileID: 0}
      typeID: 4
      customType: 0
      isPPtrCurve: 0
    - serializedVersion: 2
      path: 3071322470
      attribute: 2
      script: {fileID: 0}
      typeID: 4
      customType: 0
      isPPtrCurve: 0
    - serializedVersion: 2
      path: 4158461871
      attribute: 2
      script: {fileID: 0}
      typeID: 4
      customType: 0
      isPPtrCurve: 0
    pptrCurveMapping: []
  m_AnimationClipSettings:
    serializedVersion: 2
    m_AdditiveReferencePoseClip: {fileID: 0}
    m_AdditiveReferencePoseTime: 0
    m_StartTime: 0
    m_StopTime: 4.1250005
    m_OrientationOffsetY: 0
    m_Level: 0
    m_CycleOffset: 0
    m_HasAdditiveReferencePose: 0
    m_LoopTime: 1
    m_LoopBlend: 0
    m_LoopBlendOrientation: 0
    m_LoopBlendPositionY: 0
    m_LoopBlendPositionXZ: 0
    m_KeepOriginalOrientation: 0
    m_KeepOriginalPositionY: 1
    m_KeepOriginalPositionXZ: 0
    m_HeightFromFeet: 0
    m_Mirror: 0
  m_EditorCurves: []
  m_EulerEditorCurves: []
  m_HasGenericRootTransform: 0
  m_HasMotionFloatCurves: 0
  m_Events: []
