%YAML 1.1
%TAG !u! tag:unity3d.com,2011:
--- !u!74 &7400000
AnimationClip:
  m_ObjectHideFlags: 0
  m_CorrespondingSourceObject: {fileID: 0}
  m_PrefabInstance: {fileID: 0}
  m_PrefabAsset: {fileID: 0}
  m_Name: Scene
  serializedVersion: 6
  m_Legacy: 0
  m_Compressed: 0
  m_UseHighQualityCurve: 1
  m_RotationCurves:
  - curve:
      serializedVersion: 2
      m_Curve:
      - serializedVersion: 3
        time: 0
        value: {x: 0.7089393, y: -0.004631461, z: 0.0050424444, w: 0.70523626}
        inSlope: {x: -0.13745642, y: 0.15749982, z: -0.12036626, w: 0.13779259}
        outSlope: {x: -0.13745642, y: 0.15749982, z: -0.12036626, w: 0.13779259}
        tangentMode: 0
        weightedMode: 0
        inWeight: {x: 0.33333334, y: 0.33333334, z: 0.33333334, w: 0.33333334}
        outWeight: {x: 0.33333334, y: 0.33333334, z: 0.33333334, w: 0.33333334}
      - serializedVersion: 3
        time: 0.25000003
        value: {x: 0.6173632, y: 0.09914871, z: -0.057432864, w: 0.7782889}
        inSlope: {x: -0.6464023, y: 0.7258693, z: -0.32421833, w: 0.3928327}
        outSlope: {x: -0.6464023, y: 0.7258693, z: -0.32421833, w: 0.3928327}
        tangentMode: 0
        weightedMode: 0
        inWeight: {x: 0.33333334, y: 0.33333334, z: 0.33333334, w: 0.33333334}
        outWeight: {x: 0.33333334, y: 0.33333334, z: 0.33333334, w: 0.33333334}
      - serializedVersion: 3
        time: 0.5416667
        value: {x: 0.34756437, y: 0.3992505, z: -0.09616661, w: 0.8429413}
        inSlope: {x: -1.1047382, y: 1.2265878, z: 0.2068685, w: -0.103679255}
        outSlope: {x: -1.1047382, y: 1.2265878, z: 0.2068685, w: -0.103679255}
        tangentMode: 0
        weightedMode: 0
        inWeight: {x: 0.33333334, y: 0.33333334, z: 0.33333334, w: 0.33333334}
        outWeight: {x: 0.33333334, y: 0.33333334, z: 0.33333334, w: 0.33333334}
      - serializedVersion: 3
        time: 0.7916667
        value: {x: 0.093824305, y: 0.6849771, z: 0.053011697, w: 0.7205506}
        inSlope: {x: -0.7915931, y: 0.92127675, z: 0.94926226, w: -0.84191704}
        outSlope: {x: -0.7915931, y: 0.92127675, z: 0.94926226, w: -0.84191704}
        tangentMode: 0
        weightedMode: 0
        inWeight: {x: 0.33333334, y: 0.33333334, z: 0.33333334, w: 0.33333334}
        outWeight: {x: 0.33333334, y: 0.33333334, z: 0.33333334, w: 0.33333334}
      - serializedVersion: 3
        time: 1.0833334
        value: {x: -0.008002838, y: 0.8225059, z: 0.37623814, w: 0.4264562}
        inSlope: {x: 0.086707465, y: 0.023606367, z: 1.0859448, w: -0.9972731}
        outSlope: {x: 0.086707465, y: 0.023606367, z: 1.0859448, w: -0.9972731}
        tangentMode: 0
        weightedMode: 0
        inWeight: {x: 0.33333334, y: 0.33333334, z: 0.33333334, w: 0.33333334}
        outWeight: {x: 0.33333334, y: 0.33333334, z: 0.33333334, w: 0.33333334}
      - serializedVersion: 3
        time: 1.5000001
        value: {x: 0.13145036, y: 0.716069, z: 0.6659007, w: 0.16291815}
        inSlope: {x: 0.29258615, y: -0.25357875, z: 0.27750117, w: -0.24735172}
        outSlope: {x: 0.29258615, y: -0.25357875, z: 0.27750117, w: -0.24735172}
        tangentMode: 0
        weightedMode: 0
        inWeight: {x: 0.33333334, y: 0.33333334, z: 0.33333334, w: 0.33333334}
        outWeight: {x: 0.33333334, y: 0.33333334, z: 0.33333334, w: 0.33333334}
      - serializedVersion: 3
        time: 1.8750001
        value: {x: 0.15692006, y: 0.6933707, z: 0.6888043, w: 0.14199205}
        inSlope: {x: 0.00041520578, y: -0.000094413714, z: -0.00008511539, w: 0.00041270236}
        outSlope: {x: 0.00041520578, y: -0.000094413714, z: -0.00008511539, w: 0.00041270236}
        tangentMode: 0
        weightedMode: 0
        inWeight: {x: 0.33333334, y: 0.33333334, z: 0.33333334, w: 0.33333334}
        outWeight: {x: 0.33333334, y: 0.33333334, z: 0.33333334, w: 0.33333334}
      - serializedVersion: 3
        time: 3.9583333
        value: {x: 0.15778571, y: 0.6931743, z: 0.6886265, w: 0.14285201}
        inSlope: {x: 0.0004152052, y: -0.00009512883, z: -0.00008583053, w: 0.00041234415}
        outSlope: {x: 0.0004152052, y: -0.00009512883, z: -0.00008583053, w: 0.00041234415}
        tangentMode: 0
        weightedMode: 0
        inWeight: {x: 0.33333334, y: 0.33333334, z: 0.33333334, w: 0.33333334}
        outWeight: {x: 0.33333334, y: 0.33333334, z: 0.33333334, w: 0.33333334}
      - serializedVersion: 3
        time: 4.1250005
        value: {x: 0.15785491, y: 0.6931585, z: 0.6886122, w: 0.14292076}
        inSlope: {x: 0.00041627567, y: -0.00009441304, z: -0.000085830034, w: 0.0004137723}
        outSlope: {x: 0.00041627567, y: -0.00009441304, z: -0.000085830034, w: 0.0004137723}
        tangentMode: 0
        weightedMode: 0
        inWeight: {x: 0.33333334, y: 0.33333334, z: 0.33333334, w: 0.33333334}
        outWeight: {x: 0.33333334, y: 0.33333334, z: 0.33333334, w: 0.33333334}
      m_PreInfinity: 2
      m_PostInfinity: 2
      m_RotationOrder: 4
    path: 1.007
  - curve:
      serializedVersion: 2
      m_Curve:
      - serializedVersion: 3
        time: 0
        value: {x: 0.7108626, y: -0.004304456, z: -0.007907395, w: 0.7032733}
        inSlope: {x: -0.011547089, y: -0.43330857, z: -0.42774948, w: -0.0067749023}
        outSlope: {x: -0.011547089, y: -0.43330857, z: -0.42774948, w: -0.0067749023}
        tangentMode: 0
        weightedMode: 0
        inWeight: {x: 0.33333334, y: 0.33333334, z: 0.33333334, w: 0.33333334}
        outWeight: {x: 0.33333334, y: 0.33333334, z: 0.33333334, w: 0.33333334}
      - serializedVersion: 3
        time: 0.125
        value: {x: 0.7045315, y: -0.09150009, z: -0.09394916, w: 0.6974502}
        inSlope: {x: -0.15032098, y: -1.0712279, z: -1.0563116, w: -0.14639136}
        outSlope: {x: -0.15032098, y: -1.0712279, z: -1.0563116, w: -0.14639136}
        tangentMode: 0
        weightedMode: 0
        inWeight: {x: 0.33333334, y: 0.33333334, z: 0.33333334, w: 0.33333334}
        outWeight: {x: 0.33333334, y: 0.33333334, z: 0.33333334, w: 0.33333334}
      - serializedVersion: 3
        time: 0.37500003
        value: {x: 0.5261575, y: -0.47665164, z: -0.47300032, w: 0.5217589}
        inSlope: {x: -1.523903, y: -1.6748723, z: -1.6418922, w: -1.5092124}
        outSlope: {x: -1.523903, y: -1.6748723, z: -1.6418922, w: -1.5092124}
        tangentMode: 0
        weightedMode: 0
        inWeight: {x: 0.33333334, y: 0.33333334, z: 0.33333334, w: 0.33333334}
        outWeight: {x: 0.33333334, y: 0.33333334, z: 0.33333334, w: 0.33333334}
      - serializedVersion: 3
        time: 0.5416667
        value: {x: 0.1681577, y: -0.6906635, z: -0.68305624, w: 0.16775301}
        inSlope: {x: -2.6739597, y: -0.6487384, z: -0.63653255, w: -2.646697}
        outSlope: {x: -2.6739597, y: -0.6487384, z: -0.63653255, w: -2.646697}
        tangentMode: 0
        weightedMode: 0
        inWeight: {x: 0.33333334, y: 0.33333334, z: 0.33333334, w: 0.33333334}
        outWeight: {x: 0.33333334, y: 0.33333334, z: 0.33333334, w: 0.33333334}
      - serializedVersion: 3
        time: 0.6666667
        value: {x: -0.18852603, y: -0.6858242, z: -0.6779632, w: -0.18565823}
        inSlope: {x: -2.858665, y: 0.78794324, z: 0.7828492, w: -2.832804}
        outSlope: {x: -2.858665, y: 0.78794324, z: 0.7828492, w: -2.832804}
        tangentMode: 0
        weightedMode: 0
        inWeight: {x: 0.33333334, y: 0.33333334, z: 0.33333334, w: 0.33333334}
        outWeight: {x: 0.33333334, y: 0.33333334, z: 0.33333334, w: 0.33333334}
      - serializedVersion: 3
        time: 0.7916667
        value: {x: -0.51164, y: -0.4945266, z: -0.48830405, w: -0.5052001}
        inSlope: {x: -2.1260614, y: 2.1974223, z: 2.172412, w: -2.0957646}
        outSlope: {x: -2.1260614, y: 2.1974223, z: 2.172412, w: -2.0957646}
        tangentMode: 0
        weightedMode: 0
        inWeight: {x: 0.33333334, y: 0.33333334, z: 0.33333334, w: 0.33333334}
        outWeight: {x: 0.33333334, y: 0.33333334, z: 0.33333334, w: 0.33333334}
      - serializedVersion: 3
        time: 0.9166667
        value: {x: -0.6932336, y: -0.16184689, z: -0.16043942, w: -0.6837339}
        inSlope: {x: -0.6920507, y: 2.9393291, z: 2.8916893, w: -0.6792876}
        outSlope: {x: -0.6920507, y: 2.9393291, z: 2.8916893, w: -0.6792876}
        tangentMode: 0
        weightedMode: 0
        inWeight: {x: 0.33333334, y: 0.33333334, z: 0.33333334, w: 0.33333334}
        outWeight: {x: 0.33333334, y: 0.33333334, z: 0.33333334, w: 0.33333334}
      - serializedVersion: 3
        time: 1.0416667
        value: {x: -0.68239033, y: 0.20382787, z: 0.19955711, w: -0.67303395}
        inSlope: {x: 0.80447173, y: 2.7259827, z: 2.6892133, w: 0.7932737}
        outSlope: {x: 0.80447173, y: 2.7259827, z: 2.6892133, w: 0.7932737}
        tangentMode: 0
        weightedMode: 0
        inWeight: {x: 0.33333334, y: 0.33333334, z: 0.33333334, w: 0.33333334}
        outWeight: {x: 0.33333334, y: 0.33333334, z: 0.33333334, w: 0.33333334}
      - serializedVersion: 3
        time: 1.1666667
        value: {x: -0.5131593, y: 0.49367908, z: 0.4866971, w: -0.506038}
        inSlope: {x: 1.749455, y: 1.828382, z: 1.8183262, w: 1.7327931}
        outSlope: {x: 1.749455, y: 1.828382, z: 1.8183262, w: 1.7327931}
        tangentMode: 0
        weightedMode: 0
        inWeight: {x: 0.33333334, y: 0.33333334, z: 0.33333334, w: 0.33333334}
        outWeight: {x: 0.33333334, y: 0.33333334, z: 0.33333334, w: 0.33333334}
      - serializedVersion: 3
        time: 1.3333334
        value: {x: -0.19476905, y: 0.68448865, z: 0.6764568, w: -0.18959571}
        inSlope: {x: 1.845535, y: 0.53316873, z: 0.52757615, w: 1.8347247}
        outSlope: {x: 1.845535, y: 0.53316873, z: 0.52757615, w: 1.8347247}
        tangentMode: 0
        weightedMode: 0
        inWeight: {x: 0.33333334, y: 0.33333334, z: 0.33333334, w: 0.33333334}
        outWeight: {x: 0.33333334, y: 0.33333334, z: 0.33333334, w: 0.33333334}
      - serializedVersion: 3
        time: 1.5833334
        value: {x: 0.12562461, y: 0.6998503, z: 0.69142777, w: 0.12788968}
        inSlope: {x: 0.56047064, y: -0.09731266, z: -0.09647438, w: 0.5531576}
        outSlope: {x: 0.56047064, y: -0.09731266, z: -0.09647438, w: 0.5531576}
        tangentMode: 0
        weightedMode: 0
        inWeight: {x: 0.33333334, y: 0.33333334, z: 0.33333334, w: 0.33333334}
        outWeight: {x: 0.33333334, y: 0.33333334, z: 0.33333334, w: 0.33333334}
      - serializedVersion: 3
        time: 1.7500001
        value: {x: 0.14366835, y: 0.6963615, z: 0.68791145, w: 0.14566429}
        inSlope: {x: 0.00240147, y: -0.00054788566, z: -0.00045490242, w: 0.0023932445}
        outSlope: {x: 0.00240147, y: -0.00054788566, z: -0.00045490242, w: 0.0023932445}
        tangentMode: 0
        weightedMode: 0
        inWeight: {x: 0.33333334, y: 0.33333334, z: 0.33333334, w: 0.33333334}
        outWeight: {x: 0.33333334, y: 0.33333334, z: 0.33333334, w: 0.33333334}
      - serializedVersion: 3
        time: 3.8333333
        value: {x: 0.14866157, y: 0.69520366, z: 0.6869489, w: 0.1506419}
        inSlope: {x: 0.002393248, y: -0.00056362204, z: -0.00046992349, w: 0.002386453}
        outSlope: {x: 0.002393248, y: -0.00056362204, z: -0.00046992349, w: 0.002386453}
        tangentMode: 0
        weightedMode: 0
        inWeight: {x: 0.33333334, y: 0.33333334, z: 0.33333334, w: 0.33333334}
        outWeight: {x: 0.33333334, y: 0.33333334, z: 0.33333334, w: 0.33333334}
      - serializedVersion: 3
        time: 4.1250005
        value: {x: 0.14935997, y: 0.6950386, z: 0.6868112, w: 0.15133835}
        inSlope: {x: 0.0023968036, y: -0.00056790875, z: -0.0004734957, w: 0.0023903665}
        outSlope: {x: 0.0023968036, y: -0.00056790875, z: -0.0004734957, w: 0.0023903665}
        tangentMode: 0
        weightedMode: 0
        inWeight: {x: 0.33333334, y: 0.33333334, z: 0.33333334, w: 0.33333334}
        outWeight: {x: 0.33333334, y: 0.33333334, z: 0.33333334, w: 0.33333334}
      m_PreInfinity: 2
      m_PostInfinity: 2
      m_RotationOrder: 4
    path: 1.006
  - curve:
      serializedVersion: 2
      m_Curve:
      - serializedVersion: 3
        time: 0
        value: {x: 0.7108791, y: -0.0061488487, z: -0.0060829553, w: 0.703261}
        inSlope: {x: -0.009236813, y: -0.43285546, z: -0.42821681, w: -0.009138107}
        outSlope: {x: -0.009236813, y: -0.43285546, z: -0.42821681, w: -0.009138107}
        tangentMode: 0
        weightedMode: 0
        inWeight: {x: 0.33333334, y: 0.33333334, z: 0.33333334, w: 0.33333334}
        outWeight: {x: 0.33333334, y: 0.33333334, z: 0.33333334, w: 0.33333334}
      - serializedVersion: 3
        time: 0.125
        value: {x: 0.7047654, y: -0.093234956, z: -0.09223581, w: 0.6972128}
        inSlope: {x: -0.14919588, y: -1.0695064, z: -1.0580451, w: -0.14759657}
        outSlope: {x: -0.14919588, y: -1.0695064, z: -1.0580451, w: -0.14759657}
        tangentMode: 0
        weightedMode: 0
        inWeight: {x: 0.33333334, y: 0.33333334, z: 0.33333334, w: 0.33333334}
        outWeight: {x: 0.33333334, y: 0.33333334, z: 0.33333334, w: 0.33333334}
      - serializedVersion: 3
        time: 0.37500003
        value: {x: 0.5267643, y: -0.4773954, z: -0.4722794, w: 0.52111924}
        inSlope: {x: -1.5247824, y: -1.6673127, z: -1.6494449, w: -1.5084417}
        outSlope: {x: -1.5247824, y: -1.6673127, z: -1.6494449, w: -1.5084417}
        tangentMode: 0
        weightedMode: 0
        inWeight: {x: 0.33333334, y: 0.33333334, z: 0.33333334, w: 0.33333334}
        outWeight: {x: 0.33333334, y: 0.33333334, z: 0.33333334, w: 0.33333334}
      - serializedVersion: 3
        time: 0.5416667
        value: {x: 0.16883618, y: -0.69056594, z: -0.68316555, w: 0.16702686}
        inSlope: {x: -2.6746745, y: -0.6460333, z: -0.6391103, w: -2.646011}
        outSlope: {x: -2.6746745, y: -0.6460333, z: -0.6391103, w: -2.646011}
        tangentMode: 0
        weightedMode: 0
        inWeight: {x: 0.33333334, y: 0.33333334, z: 0.33333334, w: 0.33333334}
        outWeight: {x: 0.33333334, y: 0.33333334, z: 0.33333334, w: 0.33333334}
      - serializedVersion: 3
        time: 0.6666667
        value: {x: -0.18812262, y: -0.68556315, z: -0.67821634, w: -0.18610662}
        inSlope: {x: -2.8610277, y: 0.7897035, z: 0.7812413, w: -2.8303676}
        outSlope: {x: -2.8610277, y: 0.7897035, z: 0.7812413, w: -2.8303676}
        tangentMode: 0
        weightedMode: 0
        inWeight: {x: 0.33333334, y: 0.33333334, z: 0.33333334, w: 0.33333334}
        outWeight: {x: 0.33333334, y: 0.33333334, z: 0.33333334, w: 0.33333334}
      - serializedVersion: 3
        time: 0.7916667
        value: {x: -0.5111765, y: -0.49405012, z: -0.48875564, w: -0.5056985}
        inSlope: {x: -2.1222463, y: 2.1967578, z: 2.1732159, w: -2.0995033}
        outSlope: {x: -2.1222463, y: 2.1967578, z: 2.1732159, w: -2.0995033}
        tangentMode: 0
        weightedMode: 0
        inWeight: {x: 0.33333334, y: 0.33333334, z: 0.33333334, w: 0.33333334}
        outWeight: {x: 0.33333334, y: 0.33333334, z: 0.33333334, w: 0.33333334}
      - serializedVersion: 3
        time: 0.9166667
        value: {x: -0.69220406, y: -0.16198936, z: -0.16025342, w: -0.6847861}
        inSlope: {x: -0.68929553, y: 2.931294, z: 2.8998814, w: -0.6819083}
        outSlope: {x: -0.68929553, y: 2.931294, z: 2.8998814, w: -0.6819083}
        tangentMode: 0
        weightedMode: 0
        inWeight: {x: 0.33333334, y: 0.33333334, z: 0.33333334, w: 0.33333334}
        outWeight: {x: 0.33333334, y: 0.33333334, z: 0.33333334, w: 0.33333334}
      - serializedVersion: 3
        time: 1.0416667
        value: {x: -0.6813636, y: 0.20280689, z: 0.20063353, w: -0.6740618}
        inSlope: {x: 0.8032651, y: 2.7221797, z: 2.6930072, w: 0.794657}
        outSlope: {x: 0.8032651, y: 2.7221797, z: 2.6930072, w: 0.794657}
        tangentMode: 0
        weightedMode: 0
        inWeight: {x: 0.33333334, y: 0.33333334, z: 0.33333334, w: 0.33333334}
        outWeight: {x: 0.33333334, y: 0.33333334, z: 0.33333334, w: 0.33333334}
      - serializedVersion: 3
        time: 1.1666667
        value: {x: -0.512334, y: 0.49284968, z: 0.48756808, w: -0.5068436}
        inSlope: {x: 1.7505686, y: 1.8331032, z: 1.8134587, w: 1.7318089}
        outSlope: {x: 1.7505686, y: 1.8331032, z: 1.8134587, w: 1.7318089}
        tangentMode: 0
        weightedMode: 0
        inWeight: {x: 0.33333334, y: 0.33333334, z: 0.33333334, w: 0.33333334}
        outWeight: {x: 0.33333334, y: 0.33333334, z: 0.33333334, w: 0.33333334}
      - serializedVersion: 3
        time: 1.3333334
        value: {x: -0.19320491, y: 0.6841483, z: 0.67681664, w: -0.19113444}
        inSlope: {x: 1.8500246, y: 0.5331773, z: 0.5274638, w: 1.8301988}
        outSlope: {x: 1.8500246, y: 0.5331773, z: 0.5274638, w: 1.8301988}
        tangentMode: 0
        weightedMode: 0
        inWeight: {x: 0.33333334, y: 0.33333334, z: 0.33333334, w: 0.33333334}
        outWeight: {x: 0.33333334, y: 0.33333334, z: 0.33333334, w: 0.33333334}
      - serializedVersion: 3
        time: 1.5833334
        value: {x: 0.12745002, y: 0.69938797, z: 0.691893, w: 0.12608421}
        inSlope: {x: 0.55982405, y: -0.09743425, z: -0.096390694, w: 0.5538248}
        outSlope: {x: 0.55982405, y: -0.09743425, z: -0.096390694, w: 0.5538248}
        tangentMode: 0
        weightedMode: 0
        inWeight: {x: 0.33333334, y: 0.33333334, z: 0.33333334, w: 0.33333334}
        outWeight: {x: 0.33333334, y: 0.33333334, z: 0.33333334, w: 0.33333334}
      - serializedVersion: 3
        time: 1.7500001
        value: {x: 0.14545622, y: 0.695866, z: 0.6884088, w: 0.14389746}
        inSlope: {x: 0.0024105895, y: -0.00050425506, z: -0.0004992483, w: 0.0023846615}
        outSlope: {x: 0.0024105895, y: -0.00050425506, z: -0.0004992483, w: 0.0023846615}
        tangentMode: 0
        weightedMode: 0
        inWeight: {x: 0.33333334, y: 0.33333334, z: 0.33333334, w: 0.33333334}
        outWeight: {x: 0.33333334, y: 0.33333334, z: 0.33333334, w: 0.33333334}
      - serializedVersion: 3
        time: 3.8333333
        value: {x: 0.1504679, y: 0.6947995, z: 0.68735373, w: 0.14885542}
        inSlope: {x: 0.0024023675, y: -0.00052070664, z: -0.00051569985, w: 0.0023766183}
        outSlope: {x: 0.0024023675, y: -0.00052070664, z: -0.00051569985, w: 0.0023766183}
        tangentMode: 0
        weightedMode: 0
        inWeight: {x: 0.33333334, y: 0.33333334, z: 0.33333334, w: 0.33333334}
        outWeight: {x: 0.33333334, y: 0.33333334, z: 0.33333334, w: 0.33333334}
      - serializedVersion: 3
        time: 4.1250005
        value: {x: 0.15116912, y: 0.6946473, z: 0.68720317, w: 0.14954913}
        inSlope: {x: 0.0024064595, y: -0.0005235632, z: -0.0005178412, w: 0.0023807106}
        outSlope: {x: 0.0024064595, y: -0.0005235632, z: -0.0005178412, w: 0.0023807106}
        tangentMode: 0
        weightedMode: 0
        inWeight: {x: 0.33333334, y: 0.33333334, z: 0.33333334, w: 0.33333334}
        outWeight: {x: 0.33333334, y: 0.33333334, z: 0.33333334, w: 0.33333334}
      m_PreInfinity: 2
      m_PostInfinity: 2
      m_RotationOrder: 4
    path: 1.002
  - curve:
      serializedVersion: 2
      m_Curve:
      - serializedVersion: 3
        time: 0
        value: {x: 0.7108626, y: -0.0043044565, z: -0.007907395, w: 0.7032733}
        inSlope: {x: -0.011547089, y: -0.43330854, z: -0.42774948, w: -0.0067749023}
        outSlope: {x: -0.011547089, y: -0.43330854, z: -0.42774948, w: -0.0067749023}
        tangentMode: 0
        weightedMode: 0
        inWeight: {x: 0.33333334, y: 0.33333334, z: 0.33333334, w: 0.33333334}
        outWeight: {x: 0.33333334, y: 0.33333334, z: 0.33333334, w: 0.33333334}
      - serializedVersion: 3
        time: 0.125
        value: {x: 0.7045315, y: -0.091500096, z: -0.093949184, w: 0.6974502}
        inSlope: {x: -0.15032026, y: -1.0712279, z: -1.0563117, w: -0.14639208}
        outSlope: {x: -0.15032026, y: -1.0712279, z: -1.0563117, w: -0.14639208}
        tangentMode: 0
        weightedMode: 0
        inWeight: {x: 0.33333334, y: 0.33333334, z: 0.33333334, w: 0.33333334}
        outWeight: {x: 0.33333334, y: 0.33333334, z: 0.33333334, w: 0.33333334}
      - serializedVersion: 3
        time: 0.37500003
        value: {x: 0.5261575, y: -0.47665158, z: -0.47300032, w: 0.521759}
        inSlope: {x: -1.5239027, y: -1.6748726, z: -1.6418918, w: -1.5092131}
        outSlope: {x: -1.5239027, y: -1.6748726, z: -1.6418918, w: -1.5092131}
        tangentMode: 0
        weightedMode: 0
        inWeight: {x: 0.33333334, y: 0.33333334, z: 0.33333334, w: 0.33333334}
        outWeight: {x: 0.33333334, y: 0.33333334, z: 0.33333334, w: 0.33333334}
      - serializedVersion: 3
        time: 0.5416667
        value: {x: 0.16815762, y: -0.6906636, z: -0.6830562, w: 0.16775309}
        inSlope: {x: -2.6739593, y: -0.6487384, z: -0.636534, w: -2.6467018}
        outSlope: {x: -2.6739593, y: -0.6487384, z: -0.636534, w: -2.6467018}
        tangentMode: 0
        weightedMode: 0
        inWeight: {x: 0.33333334, y: 0.33333334, z: 0.33333334, w: 0.33333334}
        outWeight: {x: 0.33333334, y: 0.33333334, z: 0.33333334, w: 0.33333334}
      - serializedVersion: 3
        time: 0.6666667
        value: {x: -0.18852606, y: -0.6858243, z: -0.67796314, w: -0.1856582}
        inSlope: {x: -2.8586702, y: 0.78794324, z: 0.78284776, w: -2.8328032}
        outSlope: {x: -2.8586702, y: 0.78794324, z: 0.78284776, w: -2.8328032}
        tangentMode: 0
        weightedMode: 0
        inWeight: {x: 0.33333334, y: 0.33333334, z: 0.33333334, w: 0.33333334}
        outWeight: {x: 0.33333334, y: 0.33333334, z: 0.33333334, w: 0.33333334}
      - serializedVersion: 3
        time: 0.7916667
        value: {x: -0.5116402, y: -0.49452654, z: -0.48830384, w: -0.50520015}
        inSlope: {x: -2.126062, y: 2.197423, z: 2.172411, w: -2.0957646}
        outSlope: {x: -2.126062, y: 2.197423, z: 2.172411, w: -2.0957646}
        tangentMode: 0
        weightedMode: 0
        inWeight: {x: 0.33333334, y: 0.33333334, z: 0.33333334, w: 0.33333334}
        outWeight: {x: 0.33333334, y: 0.33333334, z: 0.33333334, w: 0.33333334}
      - serializedVersion: 3
        time: 0.9166667
        value: {x: -0.6932336, y: -0.1618469, z: -0.1604394, w: -0.6837338}
        inSlope: {x: -0.6920507, y: 2.939329, z: 2.8916893, w: -0.6792876}
        outSlope: {x: -0.6920507, y: 2.939329, z: 2.8916893, w: -0.6792876}
        tangentMode: 0
        weightedMode: 0
        inWeight: {x: 0.33333334, y: 0.33333334, z: 0.33333334, w: 0.33333334}
        outWeight: {x: 0.33333334, y: 0.33333334, z: 0.33333334, w: 0.33333334}
      - serializedVersion: 3
        time: 1.0416667
        value: {x: -0.68239033, y: 0.20382789, z: 0.19955708, w: -0.6730339}
        inSlope: {x: 0.8044739, y: 2.7259846, z: 2.6892147, w: 0.7932744}
        outSlope: {x: 0.8044739, y: 2.7259846, z: 2.6892147, w: 0.7932744}
        tangentMode: 0
        weightedMode: 0
        inWeight: {x: 0.33333334, y: 0.33333334, z: 0.33333334, w: 0.33333334}
        outWeight: {x: 0.33333334, y: 0.33333334, z: 0.33333334, w: 0.33333334}
      - serializedVersion: 3
        time: 1.1666667
        value: {x: -0.51315933, y: 0.49367908, z: 0.4866971, w: -0.50603795}
        inSlope: {x: 1.749455, y: 1.828382, z: 1.8183262, w: 1.7327931}
        outSlope: {x: 1.749455, y: 1.828382, z: 1.8183262, w: 1.7327931}
        tangentMode: 0
        weightedMode: 0
        inWeight: {x: 0.33333334, y: 0.33333334, z: 0.33333334, w: 0.33333334}
        outWeight: {x: 0.33333334, y: 0.33333334, z: 0.33333334, w: 0.33333334}
      - serializedVersion: 3
        time: 1.3333334
        value: {x: -0.1947691, y: 0.6844886, z: 0.6764568, w: -0.18959567}
        inSlope: {x: 1.845535, y: 0.5331673, z: 0.52757615, w: 1.8347249}
        outSlope: {x: 1.845535, y: 0.5331673, z: 0.52757615, w: 1.8347249}
        tangentMode: 0
        weightedMode: 0
        inWeight: {x: 0.33333334, y: 0.33333334, z: 0.33333334, w: 0.33333334}
        outWeight: {x: 0.33333334, y: 0.33333334, z: 0.33333334, w: 0.33333334}
      - serializedVersion: 3
        time: 1.5833334
        value: {x: 0.1256245, y: 0.69985026, z: 0.6914277, w: 0.12788978}
        inSlope: {x: 0.5604754, y: -0.09731409, z: -0.09647581, w: 0.55316144}
        outSlope: {x: 0.5604754, y: -0.09731409, z: -0.09647581, w: 0.55316144}
        tangentMode: 0
        weightedMode: 0
        inWeight: {x: 0.33333334, y: 0.33333334, z: 0.33333334, w: 0.33333334}
        outWeight: {x: 0.33333334, y: 0.33333334, z: 0.33333334, w: 0.33333334}
      - serializedVersion: 3
        time: 1.7500001
        value: {x: 0.14366867, y: 0.69636136, z: 0.68791133, w: 0.14566469}
        inSlope: {x: 0.0024016488, y: -0.00054788566, z: -0.00045418716, w: 0.0023932445}
        outSlope: {x: 0.0024016488, y: -0.00054788566, z: -0.00045418716, w: 0.0023932445}
        tangentMode: 0
        weightedMode: 0
        inWeight: {x: 0.33333334, y: 0.33333334, z: 0.33333334, w: 0.33333334}
        outWeight: {x: 0.33333334, y: 0.33333334, z: 0.33333334, w: 0.33333334}
      - serializedVersion: 3
        time: 3.8333333
        value: {x: 0.14866115, y: 0.6952037, z: 0.68694896, w: 0.15064159}
        inSlope: {x: 0.0023928904, y: -0.0005643373, z: -0.00047063874, w: 0.0023862743}
        outSlope: {x: 0.0023928904, y: -0.0005643373, z: -0.00047063874, w: 0.0023862743}
        tangentMode: 0
        weightedMode: 0
        inWeight: {x: 0.33333334, y: 0.33333334, z: 0.33333334, w: 0.33333334}
        outWeight: {x: 0.33333334, y: 0.33333334, z: 0.33333334, w: 0.33333334}
      - serializedVersion: 3
        time: 4.1250005
        value: {x: 0.14935955, y: 0.69503874, z: 0.6868113, w: 0.15133804}
        inSlope: {x: 0.0023968036, y: -0.00056647824, z: -0.00047206518, w: 0.0023903665}
        outSlope: {x: 0.0023968036, y: -0.00056647824, z: -0.00047206518, w: 0.0023903665}
        tangentMode: 0
        weightedMode: 0
        inWeight: {x: 0.33333334, y: 0.33333334, z: 0.33333334, w: 0.33333334}
        outWeight: {x: 0.33333334, y: 0.33333334, z: 0.33333334, w: 0.33333334}
      m_PreInfinity: 2
      m_PostInfinity: 2
      m_RotationOrder: 4
    path: 1.003
  - curve:
      serializedVersion: 2
      m_Curve:
      - serializedVersion: 3
        time: 0
        value: {x: 0.7108626, y: -0.004304456, z: -0.007907395, w: 0.7032733}
        inSlope: {x: -0.011547089, y: -0.43330857, z: -0.42774948, w: -0.0067749023}
        outSlope: {x: -0.011547089, y: -0.43330857, z: -0.42774948, w: -0.0067749023}
        tangentMode: 0
        weightedMode: 0
        inWeight: {x: 0.33333334, y: 0.33333334, z: 0.33333334, w: 0.33333334}
        outWeight: {x: 0.33333334, y: 0.33333334, z: 0.33333334, w: 0.33333334}
      - serializedVersion: 3
        time: 0.125
        value: {x: 0.7045315, y: -0.09150009, z: -0.09394916, w: 0.6974502}
        inSlope: {x: -0.15032098, y: -1.0712279, z: -1.0563116, w: -0.14639136}
        outSlope: {x: -0.15032098, y: -1.0712279, z: -1.0563116, w: -0.14639136}
        tangentMode: 0
        weightedMode: 0
        inWeight: {x: 0.33333334, y: 0.33333334, z: 0.33333334, w: 0.33333334}
        outWeight: {x: 0.33333334, y: 0.33333334, z: 0.33333334, w: 0.33333334}
      - serializedVersion: 3
        time: 0.37500003
        value: {x: 0.5261575, y: -0.47665164, z: -0.47300032, w: 0.5217589}
        inSlope: {x: -1.523903, y: -1.6748723, z: -1.6418922, w: -1.5092124}
        outSlope: {x: -1.523903, y: -1.6748723, z: -1.6418922, w: -1.5092124}
        tangentMode: 0
        weightedMode: 0
        inWeight: {x: 0.33333334, y: 0.33333334, z: 0.33333334, w: 0.33333334}
        outWeight: {x: 0.33333334, y: 0.33333334, z: 0.33333334, w: 0.33333334}
      - serializedVersion: 3
        time: 0.5416667
        value: {x: 0.1681577, y: -0.6906635, z: -0.68305624, w: 0.16775301}
        inSlope: {x: -2.6739597, y: -0.6487384, z: -0.63653255, w: -2.646697}
        outSlope: {x: -2.6739597, y: -0.6487384, z: -0.63653255, w: -2.646697}
        tangentMode: 0
        weightedMode: 0
        inWeight: {x: 0.33333334, y: 0.33333334, z: 0.33333334, w: 0.33333334}
        outWeight: {x: 0.33333334, y: 0.33333334, z: 0.33333334, w: 0.33333334}
      - serializedVersion: 3
        time: 0.6666667
        value: {x: -0.18852603, y: -0.6858242, z: -0.6779632, w: -0.18565823}
        inSlope: {x: -2.858665, y: 0.78794324, z: 0.7828492, w: -2.832804}
        outSlope: {x: -2.858665, y: 0.78794324, z: 0.7828492, w: -2.832804}
        tangentMode: 0
        weightedMode: 0
        inWeight: {x: 0.33333334, y: 0.33333334, z: 0.33333334, w: 0.33333334}
        outWeight: {x: 0.33333334, y: 0.33333334, z: 0.33333334, w: 0.33333334}
      - serializedVersion: 3
        time: 0.7916667
        value: {x: -0.51164, y: -0.4945266, z: -0.48830405, w: -0.5052001}
        inSlope: {x: -2.1260614, y: 2.1974223, z: 2.172412, w: -2.0957646}
        outSlope: {x: -2.1260614, y: 2.1974223, z: 2.172412, w: -2.0957646}
        tangentMode: 0
        weightedMode: 0
        inWeight: {x: 0.33333334, y: 0.33333334, z: 0.33333334, w: 0.33333334}
        outWeight: {x: 0.33333334, y: 0.33333334, z: 0.33333334, w: 0.33333334}
      - serializedVersion: 3
        time: 0.9166667
        value: {x: -0.6932336, y: -0.16184689, z: -0.16043942, w: -0.6837339}
        inSlope: {x: -0.6920507, y: 2.9393291, z: 2.8916893, w: -0.6792876}
        outSlope: {x: -0.6920507, y: 2.9393291, z: 2.8916893, w: -0.6792876}
        tangentMode: 0
        weightedMode: 0
        inWeight: {x: 0.33333334, y: 0.33333334, z: 0.33333334, w: 0.33333334}
        outWeight: {x: 0.33333334, y: 0.33333334, z: 0.33333334, w: 0.33333334}
      - serializedVersion: 3
        time: 1.0416667
        value: {x: -0.68239033, y: 0.20382787, z: 0.19955711, w: -0.67303395}
        inSlope: {x: 0.80447173, y: 2.7259827, z: 2.6892133, w: 0.7932737}
        outSlope: {x: 0.80447173, y: 2.7259827, z: 2.6892133, w: 0.7932737}
        tangentMode: 0
        weightedMode: 0
        inWeight: {x: 0.33333334, y: 0.33333334, z: 0.33333334, w: 0.33333334}
        outWeight: {x: 0.33333334, y: 0.33333334, z: 0.33333334, w: 0.33333334}
      - serializedVersion: 3
        time: 1.1666667
        value: {x: -0.5131593, y: 0.49367908, z: 0.4866971, w: -0.506038}
        inSlope: {x: 1.749455, y: 1.828382, z: 1.8183262, w: 1.7327931}
        outSlope: {x: 1.749455, y: 1.828382, z: 1.8183262, w: 1.7327931}
        tangentMode: 0
        weightedMode: 0
        inWeight: {x: 0.33333334, y: 0.33333334, z: 0.33333334, w: 0.33333334}
        outWeight: {x: 0.33333334, y: 0.33333334, z: 0.33333334, w: 0.33333334}
      - serializedVersion: 3
        time: 1.3333334
        value: {x: -0.19476905, y: 0.68448865, z: 0.6764568, w: -0.18959571}
        inSlope: {x: 1.845535, y: 0.53316873, z: 0.52757615, w: 1.8347247}
        outSlope: {x: 1.845535, y: 0.53316873, z: 0.52757615, w: 1.8347247}
        tangentMode: 0
        weightedMode: 0
        inWeight: {x: 0.33333334, y: 0.33333334, z: 0.33333334, w: 0.33333334}
        outWeight: {x: 0.33333334, y: 0.33333334, z: 0.33333334, w: 0.33333334}
      - serializedVersion: 3
        time: 1.5833334
        value: {x: 0.12562461, y: 0.6998503, z: 0.69142777, w: 0.12788968}
        inSlope: {x: 0.56047064, y: -0.09731266, z: -0.09647438, w: 0.5531576}
        outSlope: {x: 0.56047064, y: -0.09731266, z: -0.09647438, w: 0.5531576}
        tangentMode: 0
        weightedMode: 0
        inWeight: {x: 0.33333334, y: 0.33333334, z: 0.33333334, w: 0.33333334}
        outWeight: {x: 0.33333334, y: 0.33333334, z: 0.33333334, w: 0.33333334}
      - serializedVersion: 3
        time: 1.7500001
        value: {x: 0.14366835, y: 0.6963615, z: 0.68791145, w: 0.14566429}
        inSlope: {x: 0.00240147, y: -0.00054788566, z: -0.00045490242, w: 0.0023932445}
        outSlope: {x: 0.00240147, y: -0.00054788566, z: -0.00045490242, w: 0.0023932445}
        tangentMode: 0
        weightedMode: 0
        inWeight: {x: 0.33333334, y: 0.33333334, z: 0.33333334, w: 0.33333334}
        outWeight: {x: 0.33333334, y: 0.33333334, z: 0.33333334, w: 0.33333334}
      - serializedVersion: 3
        time: 3.8333333
        value: {x: 0.14866157, y: 0.69520366, z: 0.6869489, w: 0.1506419}
        inSlope: {x: 0.002393248, y: -0.00056362204, z: -0.00046992349, w: 0.002386453}
        outSlope: {x: 0.002393248, y: -0.00056362204, z: -0.00046992349, w: 0.002386453}
        tangentMode: 0
        weightedMode: 0
        inWeight: {x: 0.33333334, y: 0.33333334, z: 0.33333334, w: 0.33333334}
        outWeight: {x: 0.33333334, y: 0.33333334, z: 0.33333334, w: 0.33333334}
      - serializedVersion: 3
        time: 4.1250005
        value: {x: 0.14935997, y: 0.6950386, z: 0.6868112, w: 0.15133835}
        inSlope: {x: 0.0023968036, y: -0.00056790875, z: -0.0004734957, w: 0.0023903665}
        outSlope: {x: 0.0023968036, y: -0.00056790875, z: -0.0004734957, w: 0.0023903665}
        tangentMode: 0
        weightedMode: 0
        inWeight: {x: 0.33333334, y: 0.33333334, z: 0.33333334, w: 0.33333334}
        outWeight: {x: 0.33333334, y: 0.33333334, z: 0.33333334, w: 0.33333334}
      m_PreInfinity: 2
      m_PostInfinity: 2
      m_RotationOrder: 4
    path: 1.004
  - curve:
      serializedVersion: 2
      m_Curve:
      - serializedVersion: 3
        time: 0
        value: {x: 0.7108626, y: -0.004304456, z: -0.007907395, w: 0.7032733}
        inSlope: {x: -0.011547089, y: -0.43330857, z: -0.42774948, w: -0.0067749023}
        outSlope: {x: -0.011547089, y: -0.43330857, z: -0.42774948, w: -0.0067749023}
        tangentMode: 0
        weightedMode: 0
        inWeight: {x: 0.33333334, y: 0.33333334, z: 0.33333334, w: 0.33333334}
        outWeight: {x: 0.33333334, y: 0.33333334, z: 0.33333334, w: 0.33333334}
      - serializedVersion: 3
        time: 0.125
        value: {x: 0.7045315, y: -0.09150009, z: -0.09394916, w: 0.6974502}
        inSlope: {x: -0.15032098, y: -1.0712279, z: -1.0563116, w: -0.14639136}
        outSlope: {x: -0.15032098, y: -1.0712279, z: -1.0563116, w: -0.14639136}
        tangentMode: 0
        weightedMode: 0
        inWeight: {x: 0.33333334, y: 0.33333334, z: 0.33333334, w: 0.33333334}
        outWeight: {x: 0.33333334, y: 0.33333334, z: 0.33333334, w: 0.33333334}
      - serializedVersion: 3
        time: 0.37500003
        value: {x: 0.5261575, y: -0.47665164, z: -0.47300032, w: 0.5217589}
        inSlope: {x: -1.523903, y: -1.6748723, z: -1.6418922, w: -1.5092124}
        outSlope: {x: -1.523903, y: -1.6748723, z: -1.6418922, w: -1.5092124}
        tangentMode: 0
        weightedMode: 0
        inWeight: {x: 0.33333334, y: 0.33333334, z: 0.33333334, w: 0.33333334}
        outWeight: {x: 0.33333334, y: 0.33333334, z: 0.33333334, w: 0.33333334}
      - serializedVersion: 3
        time: 0.5416667
        value: {x: 0.1681577, y: -0.6906635, z: -0.68305624, w: 0.16775301}
        inSlope: {x: -2.6739597, y: -0.6487384, z: -0.63653255, w: -2.646697}
        outSlope: {x: -2.6739597, y: -0.6487384, z: -0.63653255, w: -2.646697}
        tangentMode: 0
        weightedMode: 0
        inWeight: {x: 0.33333334, y: 0.33333334, z: 0.33333334, w: 0.33333334}
        outWeight: {x: 0.33333334, y: 0.33333334, z: 0.33333334, w: 0.33333334}
      - serializedVersion: 3
        time: 0.6666667
        value: {x: -0.18852603, y: -0.6858242, z: -0.6779632, w: -0.18565823}
        inSlope: {x: -2.858665, y: 0.78794324, z: 0.7828492, w: -2.832804}
        outSlope: {x: -2.858665, y: 0.78794324, z: 0.7828492, w: -2.832804}
        tangentMode: 0
        weightedMode: 0
        inWeight: {x: 0.33333334, y: 0.33333334, z: 0.33333334, w: 0.33333334}
        outWeight: {x: 0.33333334, y: 0.33333334, z: 0.33333334, w: 0.33333334}
      - serializedVersion: 3
        time: 0.7916667
        value: {x: -0.51164, y: -0.4945266, z: -0.48830405, w: -0.5052001}
        inSlope: {x: -2.1260614, y: 2.1974223, z: 2.172412, w: -2.0957646}
        outSlope: {x: -2.1260614, y: 2.1974223, z: 2.172412, w: -2.0957646}
        tangentMode: 0
        weightedMode: 0
        inWeight: {x: 0.33333334, y: 0.33333334, z: 0.33333334, w: 0.33333334}
        outWeight: {x: 0.33333334, y: 0.33333334, z: 0.33333334, w: 0.33333334}
      - serializedVersion: 3
        time: 0.9166667
        value: {x: -0.6932336, y: -0.16184689, z: -0.16043942, w: -0.6837339}
        inSlope: {x: -0.6920507, y: 2.9393291, z: 2.8916893, w: -0.6792876}
        outSlope: {x: -0.6920507, y: 2.9393291, z: 2.8916893, w: -0.6792876}
        tangentMode: 0
        weightedMode: 0
        inWeight: {x: 0.33333334, y: 0.33333334, z: 0.33333334, w: 0.33333334}
        outWeight: {x: 0.33333334, y: 0.33333334, z: 0.33333334, w: 0.33333334}
      - serializedVersion: 3
        time: 1.0416667
        value: {x: -0.68239033, y: 0.20382787, z: 0.19955711, w: -0.67303395}
        inSlope: {x: 0.80447173, y: 2.7259827, z: 2.6892133, w: 0.7932737}
        outSlope: {x: 0.80447173, y: 2.7259827, z: 2.6892133, w: 0.7932737}
        tangentMode: 0
        weightedMode: 0
        inWeight: {x: 0.33333334, y: 0.33333334, z: 0.33333334, w: 0.33333334}
        outWeight: {x: 0.33333334, y: 0.33333334, z: 0.33333334, w: 0.33333334}
      - serializedVersion: 3
        time: 1.1666667
        value: {x: -0.5131593, y: 0.49367908, z: 0.4866971, w: -0.506038}
        inSlope: {x: 1.749455, y: 1.828382, z: 1.8183262, w: 1.7327931}
        outSlope: {x: 1.749455, y: 1.828382, z: 1.8183262, w: 1.7327931}
        tangentMode: 0
        weightedMode: 0
        inWeight: {x: 0.33333334, y: 0.33333334, z: 0.33333334, w: 0.33333334}
        outWeight: {x: 0.33333334, y: 0.33333334, z: 0.33333334, w: 0.33333334}
      - serializedVersion: 3
        time: 1.3333334
        value: {x: -0.19476905, y: 0.68448865, z: 0.6764568, w: -0.18959571}
        inSlope: {x: 1.845535, y: 0.53316873, z: 0.52757615, w: 1.8347247}
        outSlope: {x: 1.845535, y: 0.53316873, z: 0.52757615, w: 1.8347247}
        tangentMode: 0
        weightedMode: 0
        inWeight: {x: 0.33333334, y: 0.33333334, z: 0.33333334, w: 0.33333334}
        outWeight: {x: 0.33333334, y: 0.33333334, z: 0.33333334, w: 0.33333334}
      - serializedVersion: 3
        time: 1.5833334
        value: {x: 0.12562461, y: 0.6998503, z: 0.69142777, w: 0.12788968}
        inSlope: {x: 0.56047064, y: -0.09731266, z: -0.09647438, w: 0.5531576}
        outSlope: {x: 0.56047064, y: -0.09731266, z: -0.09647438, w: 0.5531576}
        tangentMode: 0
        weightedMode: 0
        inWeight: {x: 0.33333334, y: 0.33333334, z: 0.33333334, w: 0.33333334}
        outWeight: {x: 0.33333334, y: 0.33333334, z: 0.33333334, w: 0.33333334}
      - serializedVersion: 3
        time: 1.7500001
        value: {x: 0.14366835, y: 0.6963615, z: 0.68791145, w: 0.14566429}
        inSlope: {x: 0.00240147, y: -0.00054788566, z: -0.00045490242, w: 0.0023932445}
        outSlope: {x: 0.00240147, y: -0.00054788566, z: -0.00045490242, w: 0.0023932445}
        tangentMode: 0
        weightedMode: 0
        inWeight: {x: 0.33333334, y: 0.33333334, z: 0.33333334, w: 0.33333334}
        outWeight: {x: 0.33333334, y: 0.33333334, z: 0.33333334, w: 0.33333334}
      - serializedVersion: 3
        time: 3.8333333
        value: {x: 0.14866157, y: 0.69520366, z: 0.6869489, w: 0.1506419}
        inSlope: {x: 0.002393248, y: -0.00056362204, z: -0.00046992349, w: 0.002386453}
        outSlope: {x: 0.002393248, y: -0.00056362204, z: -0.00046992349, w: 0.002386453}
        tangentMode: 0
        weightedMode: 0
        inWeight: {x: 0.33333334, y: 0.33333334, z: 0.33333334, w: 0.33333334}
        outWeight: {x: 0.33333334, y: 0.33333334, z: 0.33333334, w: 0.33333334}
      - serializedVersion: 3
        time: 4.1250005
        value: {x: 0.14935997, y: 0.6950386, z: 0.6868112, w: 0.15133835}
        inSlope: {x: 0.0023968036, y: -0.00056790875, z: -0.0004734957, w: 0.0023903665}
        outSlope: {x: 0.0023968036, y: -0.00056790875, z: -0.0004734957, w: 0.0023903665}
        tangentMode: 0
        weightedMode: 0
        inWeight: {x: 0.33333334, y: 0.33333334, z: 0.33333334, w: 0.33333334}
        outWeight: {x: 0.33333334, y: 0.33333334, z: 0.33333334, w: 0.33333334}
      m_PreInfinity: 2
      m_PostInfinity: 2
      m_RotationOrder: 4
    path: 1.005
  - curve:
      serializedVersion: 2
      m_Curve:
      - serializedVersion: 3
        time: 0
        value: {x: 0.71086264, y: -0.0043044575, z: -0.007907394, w: 0.70327324}
        inSlope: {x: -0.011545658, y: -0.43330863, z: -0.42774948, w: -0.006776333}
        outSlope: {x: -0.011545658, y: -0.43330863, z: -0.42774948, w: -0.006776333}
        tangentMode: 0
        weightedMode: 0
        inWeight: {x: 0.33333334, y: 0.33333334, z: 0.33333334, w: 0.33333334}
        outWeight: {x: 0.33333334, y: 0.33333334, z: 0.33333334, w: 0.33333334}
      - serializedVersion: 3
        time: 0.125
        value: {x: 0.70453155, y: -0.09150011, z: -0.093949154, w: 0.69745004}
        inSlope: {x: -0.15031955, y: -1.0712278, z: -1.0563114, w: -0.14639208}
        outSlope: {x: -0.15031955, y: -1.0712278, z: -1.0563114, w: -0.14639208}
        tangentMode: 0
        weightedMode: 0
        inWeight: {x: 0.33333334, y: 0.33333334, z: 0.33333334, w: 0.33333334}
        outWeight: {x: 0.33333334, y: 0.33333334, z: 0.33333334, w: 0.33333334}
      - serializedVersion: 3
        time: 0.37500003
        value: {x: 0.52615744, y: -0.47665164, z: -0.47300026, w: 0.52175885}
        inSlope: {x: -1.523903, y: -1.6748723, z: -1.6418918, w: -1.509212}
        outSlope: {x: -1.523903, y: -1.6748723, z: -1.6418918, w: -1.509212}
        tangentMode: 0
        weightedMode: 0
        inWeight: {x: 0.33333334, y: 0.33333334, z: 0.33333334, w: 0.33333334}
        outWeight: {x: 0.33333334, y: 0.33333334, z: 0.33333334, w: 0.33333334}
      - serializedVersion: 3
        time: 0.5416667
        value: {x: 0.16815767, y: -0.6906636, z: -0.6830563, w: 0.16775307}
        inSlope: {x: -2.6739655, y: -0.6487384, z: -0.63653326, w: -2.6467004}
        outSlope: {x: -2.6739655, y: -0.6487384, z: -0.63653326, w: -2.6467004}
        tangentMode: 0
        weightedMode: 0
        inWeight: {x: 0.33333334, y: 0.33333334, z: 0.33333334, w: 0.33333334}
        outWeight: {x: 0.33333334, y: 0.33333334, z: 0.33333334, w: 0.33333334}
      - serializedVersion: 3
        time: 0.6666667
        value: {x: -0.18852603, y: -0.6858242, z: -0.6779632, w: -0.18565823}
        inSlope: {x: -2.8586667, y: 0.78794396, z: 0.7828492, w: -2.8327997}
        outSlope: {x: -2.8586667, y: 0.78794396, z: 0.7828492, w: -2.8327997}
        tangentMode: 0
        weightedMode: 0
        inWeight: {x: 0.33333334, y: 0.33333334, z: 0.33333334, w: 0.33333334}
        outWeight: {x: 0.33333334, y: 0.33333334, z: 0.33333334, w: 0.33333334}
      - serializedVersion: 3
        time: 0.7916667
        value: {x: -0.51164, y: -0.49452662, z: -0.48830408, w: -0.50520015}
        inSlope: {x: -2.1260622, y: 2.1974225, z: 2.1724114, w: -2.0957644}
        outSlope: {x: -2.1260622, y: 2.1974225, z: 2.1724114, w: -2.0957644}
        tangentMode: 0
        weightedMode: 0
        inWeight: {x: 0.33333334, y: 0.33333334, z: 0.33333334, w: 0.33333334}
        outWeight: {x: 0.33333334, y: 0.33333334, z: 0.33333334, w: 0.33333334}
      - serializedVersion: 3
        time: 0.9166667
        value: {x: -0.69323355, y: -0.1618469, z: -0.1604394, w: -0.6837339}
        inSlope: {x: -0.6920507, y: 2.939329, z: 2.8916893, w: -0.6792876}
        outSlope: {x: -0.6920507, y: 2.939329, z: 2.8916893, w: -0.6792876}
        tangentMode: 0
        weightedMode: 0
        inWeight: {x: 0.33333334, y: 0.33333334, z: 0.33333334, w: 0.33333334}
        outWeight: {x: 0.33333334, y: 0.33333334, z: 0.33333334, w: 0.33333334}
      - serializedVersion: 3
        time: 1.0416667
        value: {x: -0.68239033, y: 0.20382784, z: 0.19955713, w: -0.6730339}
        inSlope: {x: 0.80447173, y: 2.7259827, z: 2.689213, w: 0.7932737}
        outSlope: {x: 0.80447173, y: 2.7259827, z: 2.689213, w: 0.7932737}
        tangentMode: 0
        weightedMode: 0
        inWeight: {x: 0.33333334, y: 0.33333334, z: 0.33333334, w: 0.33333334}
        outWeight: {x: 0.33333334, y: 0.33333334, z: 0.33333334, w: 0.33333334}
      - serializedVersion: 3
        time: 1.1666667
        value: {x: -0.51315933, y: 0.49367905, z: 0.4866971, w: -0.50603795}
        inSlope: {x: 1.7494589, y: 1.8283842, z: 1.8183284, w: 1.7327967}
        outSlope: {x: 1.7494589, y: 1.8283842, z: 1.8183284, w: 1.7327967}
        tangentMode: 0
        weightedMode: 0
        inWeight: {x: 0.33333334, y: 0.33333334, z: 0.33333334, w: 0.33333334}
        outWeight: {x: 0.33333334, y: 0.33333334, z: 0.33333334, w: 0.33333334}
      - serializedVersion: 3
        time: 1.3333334
        value: {x: -0.19476913, y: 0.6844886, z: 0.6764568, w: -0.18959564}
        inSlope: {x: 1.8455403, y: 0.53316945, z: 0.52757686, w: 1.8347285}
        outSlope: {x: 1.8455403, y: 0.53316945, z: 0.52757686, w: 1.8347285}
        tangentMode: 0
        weightedMode: 0
        inWeight: {x: 0.33333334, y: 0.33333334, z: 0.33333334, w: 0.33333334}
        outWeight: {x: 0.33333334, y: 0.33333334, z: 0.33333334, w: 0.33333334}
      - serializedVersion: 3
        time: 1.5833334
        value: {x: 0.12562448, y: 0.69985026, z: 0.6914277, w: 0.12788978}
        inSlope: {x: 0.560471, y: -0.097313374, z: -0.096475095, w: 0.5531571}
        outSlope: {x: 0.560471, y: -0.097313374, z: -0.096475095, w: 0.5531571}
        tangentMode: 0
        weightedMode: 0
        inWeight: {x: 0.33333334, y: 0.33333334, z: 0.33333334, w: 0.33333334}
        outWeight: {x: 0.33333334, y: 0.33333334, z: 0.33333334, w: 0.33333334}
      - serializedVersion: 3
        time: 1.7500001
        value: {x: 0.1436684, y: 0.6963615, z: 0.68791145, w: 0.14566424}
        inSlope: {x: 0.0024018276, y: -0.00054788566, z: -0.00045418716, w: 0.0023936022}
        outSlope: {x: 0.0024018276, y: -0.00054788566, z: -0.00045418716, w: 0.0023936022}
        tangentMode: 0
        weightedMode: 0
        inWeight: {x: 0.33333334, y: 0.33333334, z: 0.33333334, w: 0.33333334}
        outWeight: {x: 0.33333334, y: 0.33333334, z: 0.33333334, w: 0.33333334}
      - serializedVersion: 3
        time: 3.8333333
        value: {x: 0.1486616, y: 0.69520354, z: 0.6869489, w: 0.15064184}
        inSlope: {x: 0.0023928904, y: -0.00056362204, z: -0.00047063874, w: 0.0023860955}
        outSlope: {x: 0.0023928904, y: -0.00056362204, z: -0.00047063874, w: 0.0023860955}
        tangentMode: 0
        weightedMode: 0
        inWeight: {x: 0.33333334, y: 0.33333334, z: 0.33333334, w: 0.33333334}
        outWeight: {x: 0.33333334, y: 0.33333334, z: 0.33333334, w: 0.33333334}
      - serializedVersion: 3
        time: 4.1250005
        value: {x: 0.14936, y: 0.69503856, z: 0.68681127, w: 0.15133831}
        inSlope: {x: 0.002396446, y: -0.00056790875, z: -0.0004734957, w: 0.0023903665}
        outSlope: {x: 0.002396446, y: -0.00056790875, z: -0.0004734957, w: 0.0023903665}
        tangentMode: 0
        weightedMode: 0
        inWeight: {x: 0.33333334, y: 0.33333334, z: 0.33333334, w: 0.33333334}
        outWeight: {x: 0.33333334, y: 0.33333334, z: 0.33333334, w: 0.33333334}
      m_PreInfinity: 2
      m_PostInfinity: 2
      m_RotationOrder: 4
    path: 2.001
  m_CompressedRotationCurves: []
  m_EulerCurves: []
  m_PositionCurves:
  - curve:
      serializedVersion: 2
      m_Curve:
      - serializedVersion: 3
        time: 0
        value: {x: -0.8077669, y: 1.1475489, z: -9.5376835}
        inSlope: {x: 0.010678768, y: 0.004714966, z: 0.32050323}
        outSlope: {x: 0.010678768, y: 0.004714966, z: 0.32050323}
        tangentMode: 0
        weightedMode: 0
        inWeight: {x: 0.33333334, y: 0.33333334, z: 0.33333334}
        outWeight: {x: 0.33333334, y: 0.33333334, z: 0.33333334}
      - serializedVersion: 3
        time: 1.6250001
        value: {x: -0.7627914, y: 1.1551626, z: -6.958597}
        inSlope: {x: 0.00012302375, y: 0.0007553086, z: 0.21487385}
        outSlope: {x: 0.0001230241, y: 0.00075531076, z: 0.21486303}
        tangentMode: 0
        weightedMode: 0
        inWeight: {x: 0.33333334, y: 0.33333334, z: 0.33333334}
        outWeight: {x: 0.33333334, y: 0.33333334, z: 0.33333334}
      - serializedVersion: 3
        time: 2.9166667
        value: {x: -0.7626322, y: 1.1561372, z: -6.9496446}
        inSlope: {x: 0.00012302375, y: 0.0007553086, z: -0}
        outSlope: {x: 0.00012302445, y: 0.0007524519, z: -0}
        tangentMode: 0
        weightedMode: 0
        inWeight: {x: 0.33333334, y: 0.33333334, z: 0.33333334}
        outWeight: {x: 0.33333334, y: 0.33333334, z: 0.33333334}
      - serializedVersion: 3
        time: 4.125
        value: {x: -0.7624833, y: 1.157049, z: -6.9496446}
        inSlope: {x: 0.00012302445, y: 0.00075531297, z: -0}
        outSlope: {x: 0.00012302445, y: 0.00075531297, z: -0}
        tangentMode: 0
        weightedMode: 0
        inWeight: {x: 0.33333334, y: 0.33333334, z: 0.33333334}
        outWeight: {x: 0.33333334, y: 0.33333334, z: 0.33333334}
      m_PreInfinity: 2
      m_PostInfinity: 2
      m_RotationOrder: 4
    path: 1.007
  - curve:
      serializedVersion: 2
      m_Curve:
      - serializedVersion: 3
        time: 0
        value: {x: -0.75661343, y: 1.1601901, z: -10.75588}
        inSlope: {x: -0.013634205, y: 0.003733635, z: 0.32052612}
        outSlope: {x: -0.013634205, y: 0.003733635, z: 0.32052612}
        tangentMode: 0
        weightedMode: 0
        inWeight: {x: 0.33333334, y: 0.33333334, z: 0.33333334}
        outWeight: {x: 0.33333334, y: 0.33333334, z: 0.33333334}
      - serializedVersion: 3
        time: 1.5
        value: {x: -0.8128846, y: 1.1653168, z: -8.237057}
        inSlope: {x: -0.021740934, y: 0.00059509336, z: 0.88925254}
        outSlope: {x: -0.0005893696, y: 0.00059509167, z: 0.7104936}
        tangentMode: 0
        weightedMode: 0
        inWeight: {x: 0.33333334, y: 0.33333334, z: 0.33333334}
        outWeight: {x: 0.33333334, y: 0.33333334, z: 0.33333334}
      - serializedVersion: 3
        time: 2.2916667
        value: {x: -0.813351, y: 1.1657879, z: -8.167842}
        inSlope: {x: -0.0005893696, y: 0.00059509167, z: -0}
        outSlope: {x: -0.000589373, y: 0.00059509504, z: -0}
        tangentMode: 0
        weightedMode: 0
        inWeight: {x: 0.33333334, y: 0.33333334, z: 0.33333334}
        outWeight: {x: 0.33333334, y: 0.33333334, z: 0.33333334}
      - serializedVersion: 3
        time: 4.125
        value: {x: -0.81443095, y: 1.166879, z: -8.167842}
        inSlope: {x: -0.000589373, y: 0.00059509504, z: -0}
        outSlope: {x: -0.000589373, y: 0.00059509504, z: -0}
        tangentMode: 0
        weightedMode: 0
        inWeight: {x: 0.33333334, y: 0.33333334, z: 0.33333334}
        outWeight: {x: 0.33333334, y: 0.33333334, z: 0.33333334}
      m_PreInfinity: 2
      m_PostInfinity: 2
      m_RotationOrder: 4
    path: 1.006
  - curve:
      serializedVersion: 2
      m_Curve:
      - serializedVersion: 3
        time: 0
        value: {x: -0.816427, y: 1.1404988, z: -8.881704}
        inSlope: {x: 0.015277863, y: 0.007081032, z: 0.32050323}
        outSlope: {x: 0.015277863, y: 0.007081032, z: 0.32050323}
        tangentMode: 0
        weightedMode: 0
        inWeight: {x: 0.33333334, y: 0.33333334, z: 0.33333334}
        outWeight: {x: 0.33333334, y: 0.33333334, z: 0.33333334}
      - serializedVersion: 3
        time: 1.6666667
        value: {x: -0.7517503, y: 1.1591312, z: -6.298142}
        inSlope: {x: 0.00004577628, y: 0.00029754583, z: 0.0018196071}
        outSlope: {x: 0.00004577641, y: 0.00029754668, z: 0.0018196123}
        tangentMode: 0
        weightedMode: 0
        inWeight: {x: 0.33333334, y: 0.33333334, z: 0.33333334}
        outWeight: {x: 0.33333334, y: 0.33333334, z: 0.33333334}
      - serializedVersion: 3
        time: 3.7083333
        value: {x: -0.75165725, y: 1.1597401, z: -6.294424}
        inSlope: {x: 0.00004577654, y: 0.00030040854, z: 0.0018196176}
        outSlope: {x: 0.00004577628, y: 0.00029754583, z: 0.0018196071}
        tangentMode: 0
        weightedMode: 0
        inWeight: {x: 0.33333334, y: 0.33333334, z: 0.33333334}
        outWeight: {x: 0.33333334, y: 0.33333334, z: 0.33333334}
      - serializedVersion: 3
        time: 4.125
        value: {x: -0.75163823, y: 1.1598643, z: -6.2936654}
        inSlope: {x: 0.00004577654, y: 0.00029754752, z: 0.0018196176}
        outSlope: {x: 0.00004577654, y: 0.00029754752, z: 0.0018196176}
        tangentMode: 0
        weightedMode: 0
        inWeight: {x: 0.33333334, y: 0.33333334, z: 0.33333334}
        outWeight: {x: 0.33333334, y: 0.33333334, z: 0.33333334}
      m_PreInfinity: 2
      m_PostInfinity: 2
      m_RotationOrder: 4
    path: 1.002
  - curve:
      serializedVersion: 2
      m_Curve:
      - serializedVersion: 3
        time: 0
        value: {x: -0.77280384, y: 1.1660366, z: -11.257051}
        inSlope: {x: -0.007920742, y: -0.0053215027, z: 0.4207306}
        outSlope: {x: -0.007920742, y: -0.0053215027, z: 0.4207306}
        tangentMode: 0
        weightedMode: 0
        inWeight: {x: 0.33333334, y: 0.33333334, z: 0.33333334}
        outWeight: {x: 0.33333334, y: 0.33333334, z: 0.33333334}
      - serializedVersion: 3
        time: 1.7083334
        value: {x: -0.8016822, y: 1.1559702, z: -8.669013}
        inSlope: {x: -0.00017309205, y: -0.0004920964, z: -0}
        outSlope: {x: -0.00017452207, y: -0.000492095, z: -0}
        tangentMode: 0
        weightedMode: 0
        inWeight: {x: 0.33333334, y: 0.33333334, z: 0.33333334}
        outWeight: {x: 0.33333334, y: 0.33333334, z: 0.33333334}
      - serializedVersion: 3
        time: 3.75
        value: {x: -0.80203664, y: 1.1549678, z: -8.669013}
        inSlope: {x: -0.00017452207, y: -0.000492095, z: -0}
        outSlope: {x: -0.00017309155, y: -0.000489234, z: -0}
        tangentMode: 0
        weightedMode: 0
        inWeight: {x: 0.33333334, y: 0.33333334, z: 0.33333334}
        outWeight: {x: 0.33333334, y: 0.33333334, z: 0.33333334}
      - serializedVersion: 3
        time: 4.125
        value: {x: -0.80210173, y: 1.1547837, z: -8.669013}
        inSlope: {x: -0.00017309254, y: -0.0004920978, z: -0}
        outSlope: {x: -0.00017309254, y: -0.0004920978, z: -0}
        tangentMode: 0
        weightedMode: 0
        inWeight: {x: 0.33333334, y: 0.33333334, z: 0.33333334}
        outWeight: {x: 0.33333334, y: 0.33333334, z: 0.33333334}
      m_PreInfinity: 2
      m_PostInfinity: 2
      m_RotationOrder: 4
    path: 1.003
  - curve:
      serializedVersion: 2
      m_Curve:
      - serializedVersion: 3
        time: 0
        value: {x: -0.760067, y: 1.1582359, z: -10.574114}
        inSlope: {x: -0.011884689, y: 0.004460335, z: 0.32052612}
        outSlope: {x: -0.011884689, y: 0.004460335, z: 0.32052612}
        tangentMode: 0
        weightedMode: 0
        inWeight: {x: 0.33333334, y: 0.33333334, z: 0.33333334}
        outWeight: {x: 0.33333334, y: 0.33333334, z: 0.33333334}
      - serializedVersion: 3
        time: 1.6250001
        value: {x: -0.8101211, y: 1.1658518, z: -7.995028}
        inSlope: {x: -0.00013732884, y: 0.00054645434, z: 0.2148624}
        outSlope: {x: -0.00013732923, y: 0.00054931693, z: 0.21486303}
        tangentMode: 0
        weightedMode: 0
        inWeight: {x: 0.33333334, y: 0.33333334, z: 0.33333334}
        outWeight: {x: 0.33333334, y: 0.33333334, z: 0.33333334}
      - serializedVersion: 3
        time: 3.0833333
        value: {x: -0.81032115, y: 1.1666498, z: -7.9860754}
        inSlope: {x: -0.00013589911, y: 0.0005464575, z: -0}
        outSlope: {x: -0.00013732884, y: 0.00054645434, z: -0}
        tangentMode: 0
        weightedMode: 0
        inWeight: {x: 0.33333334, y: 0.33333334, z: 0.33333334}
        outWeight: {x: 0.33333334, y: 0.33333334, z: 0.33333334}
      - serializedVersion: 3
        time: 4.125
        value: {x: -0.8104641, y: 1.1672198, z: -7.9860754}
        inSlope: {x: -0.00013732963, y: 0.0005464575, z: -0}
        outSlope: {x: -0.00013732963, y: 0.0005464575, z: -0}
        tangentMode: 0
        weightedMode: 0
        inWeight: {x: 0.33333334, y: 0.33333334, z: 0.33333334}
        outWeight: {x: 0.33333334, y: 0.33333334, z: 0.33333334}
      m_PreInfinity: 2
      m_PostInfinity: 2
      m_RotationOrder: 4
    path: 1.004
  - curve:
      serializedVersion: 2
      m_Curve:
      - serializedVersion: 3
        time: 0
        value: {x: -0.78801304, y: 1.184761, z: -10.288225}
        inSlope: {x: -0.0036005974, y: -0.014439583, z: 0.32052612}
        outSlope: {x: -0.0036005974, y: -0.014439583, z: 0.32052612}
        tangentMode: 0
        weightedMode: 0
        inWeight: {x: 0.33333334, y: 0.33333334, z: 0.33333334}
        outWeight: {x: 0.33333334, y: 0.33333334, z: 0.33333334}
      - serializedVersion: 3
        time: 1.6250001
        value: {x: -0.79500014, y: 1.1334053, z: -7.7091393}
        inSlope: {x: -0.00041913908, y: -0.00082397304, z: 0.21487385}
        outSlope: {x: -0.00041770976, y: -0.00082111434, z: 0.21486303}
        tangentMode: 0
        weightedMode: 0
        inWeight: {x: 0.33333334, y: 0.33333334, z: 0.33333334}
        outWeight: {x: 0.33333334, y: 0.33333334, z: 0.33333334}
      - serializedVersion: 3
        time: 3
        value: {x: -0.7955753, y: 1.1322745, z: -7.7001867}
        inSlope: {x: -0.00041913908, y: -0.00082397304, z: -0}
        outSlope: {x: -0.00041770856, y: -0.000821112, z: -0}
        tangentMode: 0
        weightedMode: 0
        inWeight: {x: 0.33333334, y: 0.33333334, z: 0.33333334}
        outWeight: {x: 0.33333334, y: 0.33333334, z: 0.33333334}
      - serializedVersion: 3
        time: 4.125
        value: {x: -0.7960459, y: 1.1313493, z: -7.7001867}
        inSlope: {x: -0.00041771095, y: -0.00082111673, z: -0}
        outSlope: {x: -0.00041771095, y: -0.00082111673, z: -0}
        tangentMode: 0
        weightedMode: 0
        inWeight: {x: 0.33333334, y: 0.33333334, z: 0.33333334}
        outWeight: {x: 0.33333334, y: 0.33333334, z: 0.33333334}
      m_PreInfinity: 2
      m_PostInfinity: 2
      m_RotationOrder: 4
    path: 1.005
  - curve:
      serializedVersion: 2
      m_Curve:
      - serializedVersion: 3
        time: 0
        value: {x: -0.80171216, y: 1.1433142, z: -8.964157}
        inSlope: {x: 0.009590149, y: 0.007358551, z: 0.32050323}
        outSlope: {x: 0.009590149, y: 0.007358551, z: 0.32050323}
        tangentMode: 0
        weightedMode: 0
        inWeight: {x: 0.33333334, y: 0.33333334, z: 0.33333334}
        outWeight: {x: 0.33333334, y: 0.33333334, z: 0.33333334}
      - serializedVersion: 3
        time: 1.6666667
        value: {x: -0.7675815, y: 1.1620442, z: -6.3805947}
        inSlope: {x: 0.00054645434, y: 0.00056648144, z: 0.0018196071}
        outSlope: {x: 0.0005464559, y: 0.0005693441, z: 0.0018196123}
        tangentMode: 0
        weightedMode: 0
        inWeight: {x: 0.33333334, y: 0.33333334, z: 0.33333334}
        outWeight: {x: 0.33333334, y: 0.33333334, z: 0.33333334}
      - serializedVersion: 3
        time: 3.7083333
        value: {x: -0.76646626, y: 1.1632042, z: -6.3768773}
        inSlope: {x: 0.0005464575, y: 0.0005664847, z: 0.0018196176}
        outSlope: {x: 0.0005450238, y: 0.00056934246, z: 0.0018196071}
        tangentMode: 0
        weightedMode: 0
        inWeight: {x: 0.33333334, y: 0.33333334, z: 0.33333334}
        outWeight: {x: 0.33333334, y: 0.33333334, z: 0.33333334}
      - serializedVersion: 3
        time: 4.125
        value: {x: -0.7662387, y: 1.163441, z: -6.3761187}
        inSlope: {x: 0.0005464575, y: 0.0005693457, z: 0.0018196176}
        outSlope: {x: 0.0005464575, y: 0.0005693457, z: 0.0018196176}
        tangentMode: 0
        weightedMode: 0
        inWeight: {x: 0.33333334, y: 0.33333334, z: 0.33333334}
        outWeight: {x: 0.33333334, y: 0.33333334, z: 0.33333334}
      m_PreInfinity: 2
      m_PostInfinity: 2
      m_RotationOrder: 4
    path: 2.001
  m_ScaleCurves: []
  m_FloatCurves: []
  m_PPtrCurves: []
  m_SampleRate: 24
  m_WrapMode: 0
  m_Bounds:
    m_Center: {x: 0, y: 0, z: 0}
    m_Extent: {x: 0, y: 0, z: 0}
  m_ClipBindingConstant:
    genericBindings:
    - serializedVersion: 2
      path: 1495189578
      attribute: 1
      script: {fileID: 0}
      typeID: 4
      customType: 0
      isPPtrCurve: 0
    - serializedVersion: 2
      path: 773454044
      attribute: 1
      script: {fileID: 0}
      typeID: 4
      customType: 0
      isPPtrCurve: 0
    - serializedVersion: 2
      path: 695483589
      attribute: 1
      script: {fileID: 0}
      typeID: 4
      customType: 0
      isPPtrCurve: 0
    - serializedVersion: 2
      path: 1584598099
      attribute: 1
      script: {fileID: 0}
      typeID: 4
      customType: 0
      isPPtrCurve: 0
    - serializedVersion: 2
      path: 3222772208
      attribute: 1
      script: {fileID: 0}
      typeID: 4
      customType: 0
      isPPtrCurve: 0
    - serializedVersion: 2
      path: 3071322470
      attribute: 1
      script: {fileID: 0}
      typeID: 4
      customType: 0
      isPPtrCurve: 0
    - serializedVersion: 2
      path: 4158461871
      attribute: 1
      script: {fileID: 0}
      typeID: 4
      customType: 0
      isPPtrCurve: 0
    - serializedVersion: 2
      path: 1495189578
      attribute: 2
      script: {fileID: 0}
      typeID: 4
      customType: 0
      isPPtrCurve: 0
    - serializedVersion: 2
      path: 773454044
      attribute: 2
      script: {fileID: 0}
      typeID: 4
      customType: 0
      isPPtrCurve: 0
    - serializedVersion: 2
      path: 695483589
      attribute: 2
      script: {fileID: 0}
      typeID: 4
      customType: 0
      isPPtrCurve: 0
    - serializedVersion: 2
      path: 1584598099
      attribute: 2
      script: {fileID: 0}
      typeID: 4
      customType: 0
      isPPtrCurve: 0
    - serializedVersion: 2
      path: 3222772208
      attribute: 2
      script: {fileID: 0}
      typeID: 4
      customType: 0
      isPPtrCurve: 0
    - serializedVersion: 2
      path: 3071322470
      attribute: 2
      script: {fileID: 0}
      typeID: 4
      customType: 0
      isPPtrCurve: 0
    - serializedVersion: 2
      path: 4158461871
      attribute: 2
      script: {fileID: 0}
      typeID: 4
      customType: 0
      isPPtrCurve: 0
    pptrCurveMapping: []
  m_AnimationClipSettings:
    serializedVersion: 2
    m_AdditiveReferencePoseClip: {fileID: 0}
    m_AdditiveReferencePoseTime: 0
    m_StartTime: 0
    m_StopTime: 4.1250005
    m_OrientationOffsetY: 0
    m_Level: 0
    m_CycleOffset: 0
    m_HasAdditiveReferencePose: 0
    m_LoopTime: 1
    m_LoopBlend: 0
    m_LoopBlendOrientation: 0
    m_LoopBlendPositionY: 0
    m_LoopBlendPositionXZ: 0
    m_KeepOriginalOrientation: 0
    m_KeepOriginalPositionY: 1
    m_KeepOriginalPositionXZ: 0
    m_HeightFromFeet: 0
    m_Mirror: 0
  m_EditorCurves: []
  m_EulerEditorCurves: []
  m_HasGenericRootTransform: 0
  m_HasMotionFloatCurves: 0
  m_Events: []
